<?xml version="1.0" encoding="utf-8"?>
<!-- Generator: Adobe Illustrator 24.3.0, SVG Export Plug-In . SVG Version: 6.00 Build 0)  -->
<svg version="1.1" id="Layer_1" xmlns="http://www.w3.org/2000/svg" xmlns:xlink="http://www.w3.org/1999/xlink" x="0px" y="0px"
	 viewBox="0 0 682.3 393.5" style="enable-background:new 0 0 682.3 393.5;" xml:space="preserve">
<style type="text/css">
	.st0{opacity:0.58;}
	.st1{clip-path:url(#SVGID_2_);}
	.st2{opacity:0.8;}
	.st3{fill:none;stroke:#5781A6;stroke-width:1.68;stroke-miterlimit:10;}
	.st4{fill:none;stroke:#5781A6;stroke-width:0.56;stroke-miterlimit:10;}
	.st5{fill:#5781A6;}
	.st6{font-family:'SourceSansPro-SemiboldIt';}
	.st7{font-size:12.34px;}
	.st8{letter-spacing:1;}
	.st9{letter-spacing:2;}
	.st10{opacity:0.18;}
	.st11{fill:#FFFFFF;}
	.st12{opacity:5.000000e-02;fill:#FFFFFF;enable-background:new    ;}
	.st13{opacity:5.000000e-02;fill:#0F3A5D;enable-background:new    ;}
	.st14{fill:none;stroke:#3D3D3D;stroke-width:4.04;stroke-linecap:round;stroke-linejoin:round;stroke-dasharray:0,8.89;}
	.st15{fill:#E1523D;}
	.st16{font-family:'SourceSansPro-Bold';}
	.st17{font-size:12.91px;}
	.st18{font-size:12.8874px;}
	.st19{font-size:12.8796px;}
	.st20{font-size:12.9096px;}
	.st21{font-size:12.9261px;}
	.st22{font-size:12.9106px;}
	.st23{font-size:12.9095px;}
	.st24{font-size:12.9267px;}
	.st25{font-size:12.9105px;}
	.st26{font-size:12.8596px;}
	.st27{font-size:12.9435px;}
	.st28{font-size:12.8854px;}
	.st29{fill:#5781A6;stroke:#5781A6;stroke-width:1.62;stroke-miterlimit:10;}
	.st30{font-size:15.35px;}
	.st31{opacity:0.3;}
	.st32{fill:none;stroke:#1D4E75;stroke-width:1.62;stroke-miterlimit:10;}
	.st33{fill:none;stroke:#0067B1;stroke-width:1.62;stroke-miterlimit:10;}
	.st34{fill:none;stroke:#00C9D4;stroke-width:1.62;stroke-miterlimit:10;}
	.st35{fill:#2A6FA6;}
	.st36{fill:#00C9D4;}
	.st37{fill:#0067B1;}
	.st38{fill:none;stroke:#AFB2B3;stroke-width:1.62;stroke-miterlimit:10;}
	.st39{fill:#AFB2B3;}
	.st40{fill:none;stroke:#1BB680;stroke-width:1.62;stroke-miterlimit:10;}
	.st41{fill:#1BB680;}
	.st42{fill:none;stroke:#008FBE;stroke-width:1.62;stroke-miterlimit:10;}
	.st43{fill:#008FBE;}
	.st44{fill:#0F3A5D;}
	.st45{fill:#8097A9;}
	.st46{fill:#B7C4CE;}
	.st47{fill:#BDD5EA;}
	.st48{fill:#3F92C9;}
	.st49{fill:#B2EFF2;}
	.st50{fill:#9EEAEF;}
	.st51{fill:#D9DADB;}
	.st52{fill:#D1D0D0;}
	.st53{fill:#E0E0E0;}
	.st54{fill:#AFE5D3;}
	.st55{fill:#6BD0AC;}
	.st56{fill:#61BAD7;}
	.st57{fill:#ADDBEA;}
	.st58{fill:#B5C8D8;}
	.st59{fill:#90ACC4;}
</style>
<g>
	<g id="Layer_1_1_">
		<g class="st0">
			<g>
				<g>
					<defs>
						<rect id="SVGID_1_" width="682.3" height="393.5"/>
					</defs>
					<clipPath id="SVGID_2_">
						<use xlink:href="#SVGID_1_"  style="overflow:visible;"/>
					</clipPath>
					<g class="st1">
						<g class="st2">
							<line class="st3" x1="438.5" y1="56.9" x2="85.6" y2="668.1"/>
							<line class="st4" x1="443.2" y1="65.2" x2="85.6" y2="668.1"/>
							<line class="st4" x1="85.6" y1="668.1" x2="448.3" y2="73.9"/>
							<line class="st4" x1="85.6" y1="668.1" x2="458.1" y2="90.9"/>
							<line class="st4" x1="85.6" y1="668.1" x2="453.5" y2="82.9"/>
							<line class="st4" x1="90.4" y1="659.8" x2="791.3" y2="668.1"/>
							<line class="st4" x1="791.3" y1="668.1" x2="95.4" y2="651.1"/>
							<line class="st4" x1="791.3" y1="668.1" x2="105.2" y2="634"/>
							<line class="st4" x1="791.3" y1="668.1" x2="100.6" y2="642.1"/>
							<line class="st4" x1="781.7" y1="668.1" x2="438.4" y2="56.9"/>
							<line class="st4" x1="438.4" y1="56.9" x2="771.7" y2="668.1"/>
							<line class="st4" x1="438.4" y1="56.9" x2="752" y2="668.1"/>
							<line class="st4" x1="438.4" y1="56.9" x2="761.3" y2="668.1"/>
							<line class="st3" x1="791.3" y1="668.1" x2="438.4" y2="56.9"/>
							<line class="st3" x1="85.6" y1="668.1" x2="791.3" y2="668.1"/>
							<text transform="matrix(0.5 -0.866 0.866 0.5 396.3302 111.7902)" class="st5 st6 st7 st8">C</text>
							<text transform="matrix(0.5 -0.866 0.866 0.5 401.1151 103.5031)" class="st5 st6 st7 st9">OMP</text>
							<text transform="matrix(0.5 -0.866 0.866 0.5 417.9 74.4298)" class="st5 st6 st7 st9">E</text>
							<text transform="matrix(0.5 -0.866 0.866 0.5 422.6251 66.2462)" class="st5 st6 st7 st9">TE</text>
							<text transform="matrix(0.5 0.866 -0.866 0.5 764.6007 606.7499)" class="st5 st6 st7 st9">PR</text>
							<text transform="matrix(0.5 0.866 -0.866 0.5 774.8907 624.5729)" class="st5 st6 st7 st8">O</text>
							<text transform="matrix(0.5 0.866 -0.866 0.5 780.3458 634.0211)" class="st5 st6 st7 st9">T</text>
							<text transform="matrix(0.5 0.866 -0.866 0.5 785.17 642.3785)" class="st5 st6 st7 st8">E</text>
							<text transform="matrix(0.5 0.866 -0.866 0.5 789.8058 650.4064)" class="st5 st6 st7 st8">C</text>
							<text transform="matrix(0.5 0.866 -0.866 0.5 794.67 658.8326)" class="st5 st6 st7 st9">T</text>
							<text transform="matrix(1 0 0 1 85.58 684.3701)" class="st5 st6 st7 st9">ADA</text>
							<text transform="matrix(1 0 0 1 115.83 684.3701)" class="st5 st6 st7 st8">P</text>
							<text transform="matrix(1 0 0 1 125.57 684.3701)" class="st5 st6 st7 st9">T</text>
						</g>
						<g class="st10">
							<path class="st11" d="M436.1,380.3c1.1,0,2.2,0,3.3,0.1l-3.6-5.8l-3.7,5.9C433.4,380.3,434.7,380.3,436.1,380.3z"/>
							<path class="st11" d="M384.3,405.2c0.7-0.9,1.4-1.7,2.1-2.6l-6.8-0.8l2.3,6.5C382.7,407.3,383.5,406.2,384.3,405.2z"/>
							<path class="st11" d="M371.5,461.1c-0.2-1.1-0.5-2.2-0.6-3.3l-4.9,4.9l6.5,2.3C372.2,463.7,371.8,462.5,371.5,461.1z"/>
							<path class="st11" d="M407.3,506.1c-1-0.5-2-1-3-1.5l0.8,6.8l5.9-3.7C409.7,507.2,408.5,506.7,407.3,506.1z"/>
							<path class="st11" d="M464.7,506.2c-1,0.5-2,0.9-3,1.4l5.8,3.7l0.8-6.9C467.1,505,465.9,505.6,464.7,506.2z"/>
							<path class="st11" d="M500.6,461.4c-0.3,1.1-0.5,2.2-0.8,3.2l6.5-2.2l-4.9-4.9C501.1,458.8,500.9,460.1,500.6,461.4z"/>
							<path class="st11" d="M488,405.4c0.7,0.9,1.4,1.8,2,2.7l2.3-6.5l-6.9,0.8C486.2,403.3,487.1,404.3,488,405.4z"/>
						</g>
						<polygon class="st12" points="370.5,495.7 468.9,368 524.4,453.7 						"/>
						<polygon class="st13" points="503.7,495.6 410.9,374.6 361.4,475.3 						"/>
						<polygon class="st12" points="451,352.3 354.5,500.2 516.5,485.1 						"/>
						<polygon class="st12" points="369.5,399.8 414.6,531.9 525.6,443.6 						"/>
						<path class="st14" d="M327.9,497.6c-17-34.9-16.1-75.9,2.4-110"/>
						<text transform="matrix(0.5589 0.8292 -0.8292 0.5589 332.1597 511.7898)" class="st15 st16 st17">R</text>
						<text transform="matrix(0.6346 0.7728 -0.7728 0.6346 339.0797 521.6705)" class="st15 st16 st20">E</text>
						<text transform="matrix(0.7029 0.7113 -0.7113 0.7029 346.3 530.1801)" class="st15 st16 st17">A</text>
						<text transform="matrix(0.7649 0.6441 -0.6441 0.7649 354.5292 538.2299)" class="st15 st16" style="font-size:12.8267px;">L</text>
						<text transform="matrix(0.8083 0.5888 -0.5888 0.8083 362.3505 544.6102)" class="st15 st16" style="font-size:12.9371px;">-</text>
						<text transform="matrix(0.8486 0.5291 -0.5291 0.8486 368.4399 548.9601)" class="st15 st16" style="font-size:12.9323px;">T</text>
						<text transform="matrix(0.888 0.4599 -0.4599 0.888 378.0399 554.67)" class="st15 st16 st17">I</text>
						<text transform="matrix(0.9257 0.3782 -0.3782 0.9257 385.1796 558.3099)" class="st15 st16" style="font-size:12.9699px;">M</text>
						<text transform="matrix(0.96 0.28 -0.28 0.96 398.3099 563.36)" class="st15 st16 st17">E</text>
						<text transform="matrix(0.9909 0.1349 -0.1349 0.9909 415.3205 567.5602)" class="st15 st16 st25">D</text>
						
							<text transform="matrix(0.9992 3.996804e-02 -3.996804e-02 0.9992 427.4297 568.9893)" class="st15 st16" style="font-size:12.9203px;">A</text>
						<text transform="matrix(0.9991 -4.344310e-02 4.344310e-02 0.9991 437.8904 569.2699)" class="st15 st16 st22">T</text>
						<text transform="matrix(0.9914 -0.1312 0.1312 0.9914 448.6204 568.6602)" class="st15 st16 st22">A</text>
						<text transform="matrix(0.9616 -0.2746 0.2746 0.9616 466.2298 565.5597)" class="st15 st16" style="font-size:12.9093px;">A</text>
						<text transform="matrix(0.9294 -0.3691 0.3691 0.9294 477.2902 562.2101)" class="st15 st16 st17">N</text>
						<text transform="matrix(0.8881 -0.4597 0.4597 0.8881 489.0399 557.2903)" class="st15 st16 st17">A</text>
						<text transform="matrix(0.8425 -0.5388 0.5388 0.8425 499.1692 551.8204)" class="st15 st16" style="font-size:12.9107px;">L</text>
						<text transform="matrix(0.8 -0.6 0.6 0.8 507.1802 546.5703)" class="st15 st16 st17">Y</text>
						<text transform="matrix(0.7416 -0.6708 0.6708 0.7416 515.5702 540.0198)" class="st15 st16 st17">T</text>
						<text transform="matrix(0.6876 -0.7261 0.7261 0.6876 523.6999 532.3801)" class="st15 st16 st17">I</text>
						<text transform="matrix(0.6282 -0.778 0.778 0.6282 529.0999 526.56)" class="st15 st16 st23">C</text>
						<text transform="matrix(0.5593 -0.829 0.829 0.5593 535.9898 517.7394)" class="st15 st16 st21">S</text>
						<text transform="matrix(0.6025 -0.7981 0.7981 0.6025 339.3699 378.7999)" class="st15 st16 st17">R</text>
						<text transform="matrix(0.6712 -0.7413 0.7413 0.6712 346.0794 370.1599)" class="st15 st16 st18">E</text>
						<text transform="matrix(0.7317 -0.6816 0.6816 0.7317 352.9206 362.7806)" class="st15 st16 st19">A</text>
						<text transform="matrix(0.787 -0.6169 0.6169 0.787 360.6503 355.7803)" class="st15 st16 st20">L</text>
						<text transform="matrix(0.829 -0.5593 0.5593 0.829 367.9999 350.1798)" class="st15 st16 st21">-</text>
						<text transform="matrix(0.8635 -0.5044 0.5044 0.8635 373.49 346.4803)" class="st15 st16 st17">T</text>
						<text transform="matrix(0.898 -0.4401 0.4401 0.898 382.4101 341.4694)" class="st15 st16 st22">I</text>
						<text transform="matrix(0.9318 -0.3629 0.3629 0.9318 388.6301 338.42)" class="st15 st16 st17">M</text>
						<text transform="matrix(0.9627 -0.2706 0.2706 0.9627 400.6401 333.9701)" class="st15 st16 st17">E</text>
						<text transform="matrix(0.9909 -0.1343 0.1343 0.9909 415.99 330.2395)" class="st15 st16 st23">D</text>
						<text transform="matrix(0.9988 -4.993524e-02 4.993524e-02 0.9988 426.9396 328.9002)" class="st15 st16 st24">A</text>
						<text transform="matrix(0.9995 3.280504e-02 -3.280504e-02 0.9995 436.4204 328.5604)" class="st15 st16 st25">T</text>
						<text transform="matrix(0.9939 0.1104 -0.1104 0.9939 446.1105 328.9803)" class="st15 st16 st26">A</text>
						<text transform="matrix(0.9684 0.2495 -0.2495 0.9684 462.0301 331.4199)" class="st15 st16 st17">A</text>
						<text transform="matrix(0.9408 0.3389 -0.3389 0.9408 472.0499 334.1101)" class="st15 st16 st17">N</text>
						<text transform="matrix(0.9051 0.4251 -0.4251 0.9051 482.8495 338.1797)" class="st15 st16 st23">A</text>
						<text transform="matrix(0.8655 0.5009 -0.5009 0.8655 492.22 342.7401)" class="st15 st16 st17">L</text>
						<text transform="matrix(0.8263 0.5632 -0.5632 0.8263 499.6703 347.1301)" class="st15 st16 st17">Y</text>
						<text transform="matrix(0.7779 0.6283 -0.6283 0.7779 507.5408 352.6201)" class="st15 st16 st27">T</text>
						<text transform="matrix(0.7317 0.6816 -0.6816 0.7317 515.399 359.2007)" class="st15 st16 st19">I</text>
						<text transform="matrix(0.677 0.736 -0.736 0.677 520.4506 364.01)" class="st15 st16 st17">C</text>
						<text transform="matrix(0.6112 0.7915 -0.7915 0.6112 527.2296 371.5398)" class="st15 st16 st28">S</text>
						<path class="st14" d="M544.2,497.6c17-34.9,16.1-75.9-2.4-110"/>
						<polygon class="st29" points="438.4,119.6 344.3,165 304.8,337.9 598.2,196.6 						"/>
						<text transform="matrix(1 0 0 1 367.52 212.8)" class="st11 st16 st30">E</text>
						<text transform="matrix(1 0 0 1 375.85 212.8)" class="st11 st16 st30">s</text>
						<text transform="matrix(1 0 0 1 382.54 212.8)" class="st11 st16 st30">c</text>
						<text transform="matrix(1 0 0 1 389.48 212.8)" class="st11 st16 st30">a</text>
						<text transform="matrix(1 0 0 1 397.4001 212.8)" class="st11 st16 st30">l</text>
						<text transform="matrix(1 0 0 1 401.7 212.8)" class="st11 st16 st30">a</text>
						<text transform="matrix(1 0 0 1 409.6 212.8)" class="st11 st16 st30">t</text>
						<text transform="matrix(1 0 0 1 415.41 212.8)" class="st11 st16 st30">i</text>
						<text transform="matrix(1 0 0 1 419.48 212.8)" class="st11 st16 st30">o</text>
						<text transform="matrix(1 0 0 1 427.86 212.8)" class="st11 st16 st30">n </text>
						<text transform="matrix(1 0 0 1 439.45 212.8)" class="st11 st16 st30">P</text>
						<text transform="matrix(1 0 0 1 448.34 212.8)" class="st11 st16 st30">l</text>
						<text transform="matrix(1 0 0 1 452.6401 212.8)" class="st11 st16 st30">a</text>
						<text transform="matrix(1 0 0 1 460.6 212.8)" class="st11 st16 st30">n</text>
						<text transform="matrix(1 0 0 1 469.2601 212.8)" class="st11 st16 st30">n</text>
						<text transform="matrix(1 0 0 1 477.9001 212.8)" class="st11 st16 st30">in</text>
						<text transform="matrix(1 0 0 1 490.61 212.8)" class="st11 st16 st30">g </text>
						<text transform="matrix(1 0 0 1 394.58 228.96)" class="st11 st16 st30">&amp; </text>
						<text transform="matrix(1 0 0 1 407.7 228.96)" class="st11 st16 st30">R</text>
						<text transform="matrix(1 0 0 1 416.9399 228.96)" class="st11 st16 st30">e</text>
						<text transform="matrix(1 0 0 1 424.71 228.96)" class="st11 st16 st30">s</text>
						<text transform="matrix(1 0 0 1 431.46 228.96)" class="st11 st16 st30">p</text>
						<text transform="matrix(1 0 0 1 440.1301 228.96)" class="st11 st16 st30">o</text>
						<text transform="matrix(1 0 0 1 448.5001 228.96)" class="st11 st16 st30">n</text>
						<text transform="matrix(1 0 0 1 457.1301 228.96)" class="st11 st16 st30">se</text>
						<g class="st31">
							<polygon class="st32" points="692.3,241.8 598.2,196.6 438.4,273.6 731.9,414.7 							"/>
							<polygon class="st33" points="755.2,516.5 731.9,414.7 572,337.9 644.8,655.2 							"/>
							<polygon class="st34" points="579.8,737 644.8,655.2 605.1,482.3 402.5,737.3 							"/>
							<path class="st35" d="M564.7,282.6h3.7c2.1,0,3.9,0.7,3.9,3.1c0.1,1.2-0.6,2.4-1.7,2.9l2.2,4h-2.7l-1.8-3.5h-1.2v3.5h-2.4
								V282.6z M568.2,287.2c1.1,0,1.8-0.5,1.8-1.5s-0.6-1.2-1.8-1.2h-1.1v2.7H568.2z"/>
							<path class="st35" d="M573.5,288.8c-0.1-2.1,1.4-3.9,3.5-4h0.1c2.2,0,3.3,1.6,3.3,3.7c0,0.3,0,0.7-0.1,1h-4.5
								c0.1,0.9,1,1.6,1.9,1.5c0.6,0,1.1-0.2,1.6-0.5l0.8,1.4c-0.8,0.5-1.8,0.8-2.8,0.9c-2,0.1-3.8-1.5-3.9-3.5
								C573.5,289.1,573.5,288.9,573.5,288.8z M578.4,287.9c0-0.8-0.3-1.3-1.2-1.3c-0.7,0-1.4,0.6-1.4,1.3H578.4z"/>
							<path class="st35" d="M581.9,285h1.9l0.2,1h0.1c0.6-0.7,1.4-1.1,2.3-1.1c0.9-0.1,1.7,0.4,2.1,1.3c0.6-0.7,1.4-1.2,2.4-1.3
								c1.7,0,2.4,1.2,2.4,3.1v4.7h-2.4v-4.4c0-1.1-0.3-1.4-0.9-1.4c-0.5,0.1-0.9,0.3-1.2,0.7v5.1h-2.4v-4.4c0-1.1-0.3-1.4-0.9-1.4
								c-0.5,0.1-0.9,0.3-1.2,0.7v5.1h-2.4L581.9,285L581.9,285z"/>
							<path class="st35" d="M594.7,288.8c-0.1-2.1,1.4-3.9,3.5-4h0.1c2.2,0,3.3,1.6,3.3,3.7c0,0.3,0,0.7-0.1,1H597
								c0.1,0.9,1,1.6,1.9,1.5c0.6,0,1.1-0.2,1.6-0.5l0.8,1.4c-0.8,0.5-1.8,0.8-2.8,0.9c-2,0.1-3.8-1.5-3.9-3.6
								C594.7,289.1,594.7,288.9,594.7,288.8z M599.6,287.9c0-0.8-0.3-1.3-1.2-1.3c-0.7,0-1.4,0.6-1.4,1.3H599.6z"/>
							<path class="st35" d="M602.8,288.8c0-2.5,1.6-4,3.2-4c0.7,0,1.4,0.3,1.8,0.8l-0.1-1.1v-2.6h2.4v10.7h-2l-0.2-0.7l0,0
								c-0.5,0.5-1.2,0.9-2,0.9C604,292.8,602.8,291.3,602.8,288.8z M607.7,290.2v-3c-0.3-0.3-0.8-0.5-1.2-0.5c-0.7,0-1.3,0.6-1.3,2
								s0.5,2.1,1.3,2.1C607,290.9,607.4,290.6,607.7,290.2L607.7,290.2z"/>
							<path class="st35" d="M611.8,282.7c-0.1-0.7,0.5-1.4,1.2-1.4c0.7-0.1,1.4,0.5,1.4,1.2c0.1,0.7-0.5,1.4-1.2,1.4h-0.1
								c-0.7,0.1-1.3-0.4-1.3-1.1C611.8,282.8,611.8,282.7,611.8,282.7z M612,285h2.4v7.6H612V285z"/>
							<path class="st35" d="M615.8,290.5c0-1.6,1.2-2.5,4.2-2.8c-0.1-0.6-0.4-1-1.2-1c-0.7,0-1.4,0.3-2,0.6l-0.8-1.5
								c1-0.6,2.1-1,3.3-1c2,0,3.1,1.1,3.1,3.5v4.3h-1.9l-0.2-0.8h-0.1c-0.6,0.6-1.4,0.9-2.2,1c-1.2,0-2.2-0.9-2.3-2.1
								C615.8,290.6,615.8,290.5,615.8,290.5z M620,290.4v-1.2c-1.5,0.2-2,0.6-2,1.1s0.3,0.7,0.8,0.7
								C619.3,290.9,619.7,290.7,620,290.4L620,290.4z"/>
							<path class="st35" d="M624.5,289.8v-3h-1V285l1.2-0.1l0.3-2.3h2v2.3h1.8v1.9H627v2.9c0,0.9,0.4,1.2,1,1.2
								c0.2,0,0.5,0,0.7-0.1l0.4,1.7c-0.6,0.2-1.1,0.3-1.7,0.3C625.3,292.8,624.5,291.6,624.5,289.8z"/>
							<path class="st35" d="M630,282.7c-0.1-0.7,0.5-1.4,1.2-1.4c0.7-0.1,1.4,0.5,1.4,1.2c0.1,0.7-0.5,1.4-1.2,1.4h-0.1
								c-0.7,0.1-1.3-0.4-1.3-1.1C630,282.8,630,282.7,630,282.7z M630.2,285h2.4v7.6h-2.4V285z"/>
							<path class="st35" d="M633.9,288.8c0.1-2.1,1.9-3.6,4-3.5s3.6,1.9,3.5,4c-0.1,2-1.8,3.5-3.7,3.5c-2.1,0-3.7-1.7-3.7-3.8
								C633.9,289,633.9,288.9,633.9,288.8z M638.9,288.8c0-1.3-0.4-2.1-1.3-2.1s-1.3,0.8-1.3,2.1s0.4,2.1,1.3,2.1
								S639,290.1,638.9,288.8L638.9,288.8z"/>
							<path class="st35" d="M642.9,285h1.9l0.2,1h0.1c0.6-0.7,1.5-1.1,2.4-1.1c1.7,0,2.4,1.2,2.4,3.1v4.7h-2.4v-4.4
								c0-1.1-0.3-1.4-0.9-1.4c-0.5,0-1,0.3-1.3,0.7v5.1h-2.4V285z"/>
							<path class="st35" d="M654.2,289.9c0-1.2,0.7-2.3,1.8-2.8c-0.4-0.6-0.6-1.3-0.6-2.1c0-1.5,1.2-2.6,2.6-2.6c0.1,0,0.1,0,0.2,0
								c1.2-0.1,2.4,0.8,2.5,2c0,0.1,0,0.2,0,0.3c0,1.3-1,2.1-2.1,2.8c0.6,0.6,1.2,1.2,1.9,1.7c0.5-0.7,0.9-1.5,1.1-2.3h2.2
								c-0.4,1.2-0.9,2.3-1.7,3.4c0.5,0.3,1.1,0.5,1.7,0.6l-0.6,1.9c-0.9-0.2-1.8-0.5-2.6-1c-0.9,0.7-2,1-3.2,1
								C655.3,292.8,654.2,291.5,654.2,289.9z M657.9,291c0.4,0,0.8-0.1,1.2-0.3c-0.7-0.6-1.4-1.3-2-2c-0.4,0.3-0.6,0.7-0.6,1.1
								C656.4,290.5,657,291,657.9,291L657.9,291z M657.7,286.2c0.7-0.4,1.2-0.8,1.2-1.5c0-0.4-0.2-0.7-0.7-0.7s-0.9,0.4-0.9,1.1
								C657.4,285.5,657.5,285.9,657.7,286.2L657.7,286.2z"/>
							<path class="st35" d="M550.5,298.8h2.9c3.1,0,5.1,1.5,5.1,5s-2,5-4.9,5h-3L550.5,298.8z M553.3,306.9c1.6,0,2.8-0.8,2.8-3.1
								s-1.2-3-2.8-3H553v6.2L553.3,306.9z"/>
							<path class="st35" d="M560,298.9c0.1-0.7,0.7-1.3,1.5-1.2c0.6,0.1,1.2,0.6,1.2,1.2c-0.1,0.7-0.7,1.3-1.5,1.2
								C560.6,300,560.1,299.5,560,298.9z M560.2,301.1h2.4v7.6h-2.4V301.1z"/>
							<path class="st35" d="M563.7,307.8l1-1.3c0.6,0.5,1.3,0.7,2,0.7s0.9-0.2,0.9-0.6s-0.6-0.7-1.5-1c-1.1-0.4-2-1.1-2-2.3
								c0-1.4,1.2-2.4,3-2.4c1,0,2,0.4,2.7,1l-1,1.3c-0.5-0.4-1.1-0.6-1.7-0.6c-0.5,0-0.8,0.2-0.8,0.6s0.4,0.6,1.4,0.9
								c1.2,0.4,2.1,1.1,2.1,2.3s-1.1,2.5-3.2,2.5C565.7,309,564.6,308.6,563.7,307.8z"/>
							<path class="st35" d="M571.3,301.1h1.9l0.2,0.7h0.1c0.6-0.6,1.3-0.9,2.1-0.9c1.8,0,3,1.5,3,3.9c0,2.6-1.5,4.1-3.2,4.1
								c-0.7,0-1.3-0.3-1.8-0.8l0.1,1.2v2.2h-2.4L571.3,301.1L571.3,301.1z M576.1,304.9c0-1.3-0.4-2-1.2-2c-0.5,0-0.9,0.3-1.2,0.6
								v3c0.3,0.3,0.7,0.4,1.2,0.4C575.6,307,576.1,306.4,576.1,304.9z"/>
							<path class="st35" d="M580,305.9v-4.7h2.4v4.4c0,1.1,0.3,1.4,0.9,1.4c0.5,0,1-0.3,1.3-0.8v-5h2.4v7.6h-2l-0.2-1h-0.1
								c-0.6,0.8-1.4,1.2-2.4,1.2C580.8,309,580,307.8,580,305.9z"/>
							<path class="st35" d="M589.2,306v-3h-1v-1.8l1.2-0.1l0.3-2.3h2v2.3h1.8v1.9h-1.8v2.9c0,0.9,0.4,1.2,1,1.2
								c0.2,0,0.5,0,0.7-0.1l0.4,1.6c-0.6,0.2-1.1,0.3-1.7,0.3C590,309,589.2,307.8,589.2,306z"/>
							<path class="st35" d="M594.4,305c-0.1-2.1,1.4-3.9,3.5-4h0.1c2.2,0,3.3,1.6,3.3,3.7c0,0.4,0,0.7-0.1,1h-4.5
								c0.1,0.9,1,1.6,1.9,1.5c0.6,0,1.2-0.2,1.7-0.5l0.8,1.4c-0.8,0.6-1.8,0.9-2.7,0.9c-2.1,0.1-3.8-1.5-3.9-3.6
								C594.4,305.3,594.4,305.1,594.4,305z M599.2,304.1c0-0.8-0.3-1.3-1.2-1.3c-0.7,0-1.4,0.6-1.4,1.3H599.2z"/>
							<path class="st35" d="M606,298.8h3.7c2.1,0,3.9,0.7,3.9,3.1c0.1,1.2-0.6,2.4-1.7,2.9l2.2,4h-2.7l-1.8-3.5h-1.2v3.5H606V298.8
								z M609.5,303.4c1.1,0,1.8-0.5,1.8-1.4s-0.6-1.3-1.8-1.3h-1.1v2.7L609.5,303.4L609.5,303.4z"/>
							<path class="st35" d="M614.8,305c-0.1-2.1,1.4-3.9,3.5-4h0.1c2.2,0,3.3,1.6,3.3,3.7c0,0.4,0,0.7-0.1,1h-4.5
								c0.1,0.9,1,1.6,1.9,1.5c0.6,0,1.1-0.2,1.6-0.5l0.8,1.4c-0.8,0.6-1.8,0.9-2.8,0.9c-2.1,0.1-3.8-1.5-3.9-3.6
								C614.8,305.3,614.8,305.1,614.8,305z M619.7,304.1c0-0.8-0.3-1.3-1.2-1.3c-0.7,0-1.3,0.6-1.4,1.3H619.7z"/>
							<path class="st35" d="M622.5,307.8l1-1.3c0.6,0.5,1.3,0.7,2,0.7c0.6,0,0.9-0.2,0.9-0.6s-0.6-0.7-1.5-1c-1.1-0.4-2-1.1-2-2.3
								c0-1.4,1.2-2.4,3-2.4c1,0,2,0.4,2.7,1l-1,1.3c-0.5-0.4-1-0.6-1.6-0.6s-0.8,0.2-0.8,0.6s0.4,0.6,1.4,0.9
								c1.2,0.4,2.1,1.1,2.1,2.3s-1.1,2.5-3.2,2.5C624.4,309,623.3,308.5,622.5,307.8z"/>
							<path class="st35" d="M629.6,305c0.1-2.1,1.9-3.6,4-3.5s3.6,1.9,3.5,4c-0.1,2-1.8,3.5-3.8,3.5c-2.1,0-3.7-1.7-3.7-3.8
								C629.6,305.2,629.6,305.1,629.6,305z M634.6,305c0-1.2-0.4-2.1-1.3-2.1s-1.3,0.8-1.3,2.1s0.4,2.1,1.3,2.1
								S634.6,306.2,634.6,305L634.6,305z"/>
							<path class="st35" d="M638.5,306.3V298h2.4v8.4c0,0.5,0.2,0.6,0.4,0.6c0.1,0,0.2,0,0.3,0l0.3,1.8c-0.4,0.1-0.8,0.2-1.2,0.2
								C639.1,309,638.5,307.9,638.5,306.3z"/>
							<path class="st35" d="M642.9,305.9v-4.7h2.4v4.4c0,1.1,0.3,1.4,0.9,1.4c0.5,0,1-0.3,1.3-0.8v-5h2.4v7.6H648l-0.2-1h-0.1
								c-0.6,0.8-1.4,1.2-2.4,1.2C643.6,309,642.9,307.8,642.9,305.9z"/>
							<path class="st35" d="M652.1,306v-3h-1v-1.8l1.2-0.1l0.3-2.3h2v2.3h1.8v1.9h-1.8v2.9c0,0.9,0.4,1.2,1,1.2
								c0.2,0,0.5,0,0.7-0.1l0.4,1.6c-0.6,0.2-1.1,0.3-1.7,0.3C652.9,309,652.1,307.8,652.1,306z"/>
							<path class="st35" d="M657.6,298.9c0.1-0.7,0.7-1.3,1.5-1.2c0.6,0.1,1.2,0.6,1.2,1.2c-0.1,0.7-0.7,1.3-1.5,1.2
								C658.2,300,657.7,299.5,657.6,298.9z M657.8,301.1h2.4v7.6h-2.4V301.1z"/>
							<path class="st35" d="M661.6,305c0.1-2.1,1.9-3.6,4-3.5s3.6,1.9,3.5,4c-0.1,2-1.8,3.5-3.7,3.5c-2.1,0-3.7-1.7-3.7-3.7
								C661.6,305.2,661.6,305.1,661.6,305z M666.6,305c0-1.2-0.4-2.1-1.3-2.1s-1.3,0.8-1.3,2.1s0.4,2.1,1.3,2.1
								S666.6,306.2,666.6,305L666.6,305z"/>
							<path class="st35" d="M670.5,301.1h1.9l0.2,1h0.1c0.6-0.7,1.5-1.1,2.4-1.1c1.7,0,2.4,1.2,2.4,3.1v4.7h-2.4v-4.4
								c0-1.1-0.3-1.4-0.9-1.4c-0.5,0-1,0.3-1.3,0.7v5.1h-2.4V301.1z"/>
							<path class="st36" d="M491.1,651.8h6.3v2h-3.9v1.9h3.4v2h-3.4v2.1h4.1v2h-6.5V651.8z"/>
							<path class="st36" d="M498.8,657.9c-0.1-2.1,1.6-3.9,3.7-4c0.1,0,0.2,0,0.3,0c0.8,0,1.6,0.3,2.2,0.8l-1.1,1.5
								c-0.3-0.2-0.6-0.4-1-0.4c-1.1,0-1.7,0.8-1.7,2.1s0.7,2.1,1.6,2.1c0.5,0,0.9-0.2,1.3-0.5l0.9,1.5c-1.6,1.4-4,1.2-5.4-0.4
								C499,659.8,498.7,658.9,498.8,657.9L498.8,657.9z"/>
							<path class="st36" d="M505.7,657.9c0.1-2.1,1.9-3.6,4-3.5s3.6,1.9,3.5,4c-0.1,2-1.8,3.5-3.8,3.5c-2.1,0-3.7-1.7-3.7-3.8
								C505.7,658.1,505.7,658,505.7,657.9z M510.7,657.9c0-1.3-0.4-2.1-1.3-2.1s-1.3,0.8-1.3,2.1s0.4,2.1,1.3,2.1
								S510.8,659.2,510.7,657.9L510.7,657.9z"/>
							<path class="st36" d="M514.7,654.1h1.9l0.2,1h0.1c0.6-0.7,1.5-1.1,2.4-1.1c1.7,0,2.4,1.2,2.4,3.1v4.7h-2.4v-4.4
								c0-1.1-0.3-1.4-0.9-1.4c-0.5,0-1,0.3-1.3,0.7v5.1h-2.4V654.1z"/>
							<path class="st36" d="M523.1,657.9c0.1-2.1,1.9-3.6,4-3.5s3.6,1.9,3.5,4c-0.1,2-1.8,3.5-3.8,3.5c-2.1,0-3.7-1.7-3.7-3.8
								C523.1,658.1,523.1,658,523.1,657.9z M528.1,657.9c0-1.3-0.4-2.1-1.3-2.1s-1.3,0.8-1.3,2.1s0.4,2.1,1.3,2.1
								S528.1,659.2,528.1,657.9L528.1,657.9z"/>
							<path class="st36" d="M532,654.1h2l0.2,1h0.1c0.6-0.7,1.4-1.1,2.3-1.1c0.9-0.1,1.7,0.4,2.1,1.3c0.6-0.7,1.4-1.2,2.4-1.3
								c1.7,0,2.4,1.2,2.4,3.1v4.7H541v-4.4c0-1.1-0.3-1.4-0.9-1.4c-0.5,0.1-0.9,0.3-1.2,0.7v5.1h-2.4v-4.4c0-1.1-0.3-1.4-0.9-1.4
								c-0.5,0.1-0.9,0.3-1.2,0.7v5.1H532V654.1z"/>
							<path class="st36" d="M545.1,651.8c-0.1-0.7,0.5-1.4,1.2-1.4c0.7-0.1,1.4,0.5,1.4,1.2c0.1,0.7-0.5,1.4-1.2,1.4h-0.1
								c-0.7,0.1-1.3-0.4-1.3-1.1C545.1,651.9,545.1,651.9,545.1,651.8z M545.2,654.1h2.4v7.6h-2.4V654.1z"/>
							<path class="st36" d="M549,657.9c-0.1-2.1,1.6-3.9,3.7-4c0.1,0,0.2,0,0.3,0c0.8,0,1.6,0.3,2.2,0.8l-1.1,1.5
								c-0.3-0.2-0.6-0.4-1-0.4c-1.1,0-1.7,0.8-1.7,2.1s0.7,2.1,1.6,2.1c0.5,0,0.9-0.2,1.3-0.5l0.9,1.5c-1.6,1.4-4,1.2-5.4-0.4
								C549.2,659.8,548.9,658.9,549,657.9L549,657.9z"/>
							<path class="st36" d="M559.9,651.8h2.4v10h-2.4V651.8z"/>
							<path class="st36" d="M564.4,654.1h1.9l0.2,1h0.1c0.6-0.7,1.4-1.1,2.3-1.1c0.9-0.1,1.7,0.4,2.1,1.3c0.6-0.7,1.4-1.2,2.4-1.3
								c1.7,0,2.4,1.2,2.4,3.1v4.7h-2.4v-4.4c0-1.1-0.3-1.4-0.9-1.4c-0.5,0.1-0.9,0.3-1.2,0.7v5.1h-2.4v-4.4c0-1.1-0.3-1.4-0.9-1.4
								c-0.5,0.1-0.9,0.3-1.2,0.7v5.1h-2.4L564.4,654.1L564.4,654.1z"/>
							<path class="st36" d="M577.6,654.1h1.9l0.2,0.7h0.1c0.6-0.6,1.3-0.9,2.1-0.9c1.8,0,3,1.5,3,3.9c0,2.6-1.5,4.1-3.2,4.1
								c-0.7,0-1.3-0.3-1.8-0.8l0.1,1.2v2.2h-2.4L577.6,654.1z M582.5,657.8c0-1.3-0.4-2-1.2-2c-0.5,0-0.9,0.3-1.2,0.7v3
								c0.3,0.3,0.7,0.5,1.2,0.5C581.9,660,582.5,659.4,582.5,657.8L582.5,657.8z"/>
							<path class="st36" d="M586,659.6c0-1.6,1.2-2.5,4.2-2.8c-0.1-0.6-0.4-1-1.2-1c-0.7,0-1.4,0.3-2,0.6l-0.8-1.5
								c1-0.6,2.1-1,3.3-1c2,0,3.1,1.1,3.1,3.5v4.3h-1.9l-0.2-0.8h-0.1c-0.6,0.6-1.4,0.9-2.2,1c-1.2,0-2.2-0.9-2.3-2.2
								C586,659.7,586,659.7,586,659.6z M590.2,659.5v-1.2c-1.5,0.2-2,0.6-2,1.2s0.3,0.7,0.8,0.7
								C589.5,660.1,589.9,659.8,590.2,659.5L590.2,659.5z"/>
							<path class="st36" d="M594,657.9c-0.1-2.1,1.6-3.9,3.7-4c0.1,0,0.2,0,0.3,0c0.8,0,1.6,0.3,2.2,0.8l-1.1,1.5
								c-0.3-0.2-0.6-0.4-1-0.4c-1.1,0-1.7,0.8-1.7,2.1s0.7,2.1,1.6,2.1c0.5,0,0.9-0.2,1.3-0.5l0.9,1.5c-1.6,1.4-4,1.2-5.4-0.4
								C594.2,659.8,593.9,658.9,594,657.9L594,657.9z"/>
							<path class="st36" d="M602.1,658.9V656h-1v-1.8l1.2-0.1l0.3-2.3h2v2.3h1.8v1.9h-1.8v2.9c0,0.9,0.4,1.2,1,1.2
								c0.2,0,0.5,0,0.7-0.1l0.4,1.7c-0.6,0.2-1.1,0.3-1.7,0.3C602.9,661.9,602.1,660.7,602.1,658.9z"/>
							<path class="st36" d="M494.4,675.2c0-1.2,0.7-2.3,1.8-2.8c-0.4-0.6-0.6-1.3-0.6-2.1c0-1.5,1.2-2.6,2.6-2.6c0.1,0,0.1,0,0.2,0
								c1.2-0.1,2.4,0.7,2.5,2c0,0.1,0,0.2,0,0.3c0,1.3-1,2.1-2.1,2.8c0.6,0.6,1.2,1.2,1.9,1.7c0.5-0.7,0.9-1.5,1.1-2.3h2.2
								c-0.4,1.2-0.9,2.3-1.7,3.3c0.5,0.3,1.1,0.5,1.7,0.6l-0.6,1.9c-0.9-0.2-1.8-0.5-2.6-1c-0.9,0.7-2,1-3.2,1
								C495.5,678.1,494.4,676.8,494.4,675.2z M498,676.3c0.4,0,0.8-0.1,1.2-0.3c-0.7-0.6-1.4-1.3-2-2c-0.4,0.3-0.6,0.7-0.6,1.1
								C496.6,675.8,497.2,676.3,498,676.3L498,676.3z M497.8,671.5c0.7-0.4,1.2-0.8,1.2-1.5c0-0.5-0.2-0.7-0.7-0.7
								s-0.9,0.4-0.9,1.1C497.5,670.8,497.6,671.1,497.8,671.5L497.8,671.5z"/>
							<path class="st36" d="M507.9,676.6l1.3-1.5c0.7,0.6,1.6,0.9,2.5,1c0.9,0,1.3-0.3,1.3-0.9s-0.5-0.8-1.4-1.1l-1.3-0.5
								c-1.2-0.4-2-1.5-2-2.7c0-1.7,1.5-3,3.6-3c1.2,0,2.4,0.4,3.2,1.2l-1.2,1.5c-0.6-0.4-1.3-0.7-2-0.7s-1.2,0.3-1.2,0.8
								s0.6,0.8,1.5,1.1l1.2,0.5c1.2,0.3,2,1.5,2,2.7c0,1.7-1.4,3.1-3.8,3.1C510.3,678.1,509,677.6,507.9,676.6z"/>
							<path class="st36" d="M516.9,675v-4.7h2.4v4.4c0,1.1,0.3,1.4,0.9,1.4c0.5,0,1-0.3,1.3-0.8v-5h2.4v7.6H522l-0.2-1h-0.1
								c-0.6,0.8-1.4,1.2-2.4,1.2C517.6,678.1,516.9,676.9,516.9,675z"/>
							<path class="st36" d="M525,676.9l1-1.3c0.6,0.5,1.3,0.7,2,0.7s0.9-0.2,0.9-0.6s-0.7-0.7-1.5-1c-1.1-0.4-2-1.1-2-2.3
								c0-1.5,1.2-2.4,3-2.4c1,0,2,0.4,2.7,1l-1,1.3c-0.5-0.4-1.1-0.5-1.7-0.5c-0.5,0-0.8,0.2-0.8,0.5s0.4,0.6,1.4,0.9
								c1.2,0.4,2.1,1.1,2.1,2.3s-1.1,2.5-3.2,2.5C526.9,678.1,525.8,677.7,525,676.9z"/>
							<path class="st36" d="M533,675.1v-3h-1v-1.8l1.2-0.1l0.3-2.3h2v2.3h1.8v1.9h-1.8v2.9c0,0.9,0.4,1.2,1,1.2
								c0.2,0,0.5,0,0.7-0.1l0.4,1.7c-0.6,0.2-1.1,0.3-1.7,0.3C533.8,678.1,533,676.9,533,675.1z"/>
							<path class="st36" d="M538.2,675.8c0-1.6,1.2-2.5,4.3-2.8c0-0.6-0.4-1-1-1c-0.1,0-0.1,0-0.2,0c-0.7,0-1.4,0.3-2,0.7l-0.8-1.5
								c1-0.6,2.1-1,3.3-1c2,0,3.1,1.1,3.1,3.5v4.3H543l-0.2-0.8h-0.1c-0.6,0.6-1.4,1-2.2,1c-1.2,0-2.2-0.9-2.3-2.1
								C538.2,675.9,538.2,675.8,538.2,675.8z M542.5,675.6v-1.2c-1.5,0.2-2,0.6-2,1.2s0.3,0.7,0.8,0.7
								C541.8,676.2,542.2,676,542.5,675.6z"/>
							<path class="st36" d="M546.5,668c-0.1-0.7,0.5-1.4,1.2-1.4c0.7-0.1,1.4,0.5,1.4,1.2c0.1,0.7-0.5,1.4-1.2,1.4h-0.1
								c-0.7,0.1-1.3-0.4-1.3-1.1C546.5,668.1,546.5,668,546.5,668z M546.7,670.3h2.3v7.6h-2.4L546.7,670.3z"/>
							<path class="st36" d="M550.9,670.3h1.9l0.2,1h0.1c0.6-0.7,1.5-1.1,2.4-1.1c1.7,0,2.4,1.2,2.4,3.1v4.7h-2.4v-4.4
								c0-1.1-0.3-1.4-0.9-1.4c-0.5,0-1,0.3-1.3,0.7v5.1h-2.4V670.3z"/>
							<path class="st36" d="M559.3,675.8c0-1.6,1.2-2.5,4.3-2.8c0-0.6-0.4-1-1-1c-0.1,0-0.1,0-0.2,0c-0.7,0-1.4,0.3-2,0.7l-0.8-1.5
								c1-0.6,2.1-1,3.3-1c2,0,3.1,1.1,3.1,3.5v4.3h-2l-0.2-0.8h-0.1c-0.6,0.6-1.4,1-2.2,1c-1.2,0-2.2-0.9-2.3-2.1
								C559.3,675.9,559.3,675.8,559.3,675.8z M563.6,675.6v-1.2c-1.5,0.2-2,0.6-2,1.2s0.3,0.7,0.8,0.7
								C562.8,676.2,563.3,676,563.6,675.6z"/>
							<path class="st36" d="M569.9,677.1L569.9,677.1l-0.2,0.8h-1.9v-10.7h2.4v2.6v1.2c0.5-0.5,1.3-0.8,2-0.8c1.8,0,3,1.5,3,3.9
								c0,2.6-1.5,4.1-3.2,4.1C571.1,678.1,570.4,677.7,569.9,677.1z M572.6,674c0-1.3-0.4-2-1.2-2c-0.5,0-0.9,0.3-1.2,0.6v3
								c0.3,0.3,0.7,0.4,1.2,0.4C572,676.1,572.6,675.5,572.6,674L572.6,674z"/>
							<path class="st36" d="M576.4,668c-0.1-0.7,0.5-1.4,1.2-1.4c0.7-0.1,1.4,0.5,1.4,1.2c0.1,0.7-0.5,1.4-1.2,1.4h-0.1
								c-0.7,0.1-1.3-0.4-1.3-1.1C576.4,668.1,576.4,668,576.4,668z M576.5,670.3h2.4v7.6h-2.4V670.3z"/>
							<path class="st36" d="M580.8,675.4v-8.3h2.4v8.3c0,0.5,0.2,0.6,0.4,0.6c0.1,0,0.2,0,0.3,0l0.3,1.8c-0.4,0.1-0.8,0.2-1.2,0.2
								C581.3,678.1,580.8,677,580.8,675.4z"/>
							<path class="st36" d="M585.1,668c-0.1-0.7,0.5-1.4,1.2-1.4c0.7-0.1,1.4,0.5,1.4,1.2c0.1,0.7-0.5,1.4-1.2,1.4h-0.1
								c-0.7,0.1-1.3-0.4-1.3-1.1C585.1,668.1,585.1,668,585.1,668z M585.2,670.3h2.4v7.6h-2.4V670.3z"/>
							<path class="st36" d="M589.8,675.1v-3h-1v-1.8l1.2-0.1l0.3-2.3h2v2.3h1.7v1.9h-1.8v2.9c0,0.9,0.4,1.2,1,1.2
								c0.2,0,0.5,0,0.7-0.1l0.4,1.7c-0.6,0.2-1.1,0.3-1.7,0.3C590.6,678.1,589.8,676.9,589.8,675.1z"/>
							<path class="st36" d="M595.5,680.7l0.4-1.8c0.2,0,0.3,0.1,0.5,0.1c0.6,0,1.1-0.4,1.3-0.9l0.1-0.4l-2.9-7.4h2.4l1,3.2
								c0.2,0.7,0.4,1.4,0.6,2.2h0.1c0.2-0.7,0.3-1.5,0.5-2.2l0.9-3.2h2.3l-2.5,7.6c-0.8,2-1.6,2.9-3.4,2.9
								C596.2,680.9,595.8,680.8,595.5,680.7z"/>
							<path class="st37" d="M637.5,479c0-3.3,2.2-5.2,4.9-5.2c1.2,0,2.4,0.4,3.2,1.3l-1.3,1.5c-0.5-0.5-1.2-0.7-1.9-0.7
								c-1.5,0-2.5,1.2-2.5,3.1s0.9,3.1,2.8,3.1c0.3,0,0.7-0.1,1-0.3v-1.6H642v-2h3.7v4.7c-0.9,0.8-2.1,1.2-3.3,1.2
								C639.7,484.1,637.5,482.4,637.5,479z"/>
							<path class="st37" d="M647.2,480.1c0.1-2.1,1.9-3.6,4-3.5s3.6,1.9,3.5,4c-0.1,2-1.8,3.5-3.7,3.5c-2.1,0-3.7-1.7-3.7-3.7
								C647.2,480.3,647.2,480.2,647.2,480.1z M652.2,480.1c0-1.3-0.4-2.1-1.3-2.1s-1.3,0.8-1.3,2.1s0.4,2.1,1.3,2.1
								S652.3,481.4,652.2,480.1L652.2,480.1z"/>
							<path class="st37" d="M655.2,476.3h2.4l1,3.5c0.2,0.8,0.4,1.5,0.6,2.4h0.1c0.2-0.8,0.4-1.6,0.6-2.4l0.9-3.5h2.3l-2.5,7.6
								h-2.8L655.2,476.3z"/>
							<path class="st37" d="M663.3,480.1c-0.1-2.1,1.4-3.9,3.5-4h0.1c2.2,0,3.3,1.6,3.3,3.7c0,0.3,0,0.7-0.1,1h-4.5
								c0.1,0.9,1,1.6,1.9,1.5c0.6,0,1.1-0.2,1.6-0.5l0.8,1.4c-0.8,0.6-1.8,0.9-2.8,0.9c-2.1,0.1-3.8-1.5-3.9-3.6
								C663.3,480.4,663.3,480.2,663.3,480.1z M668.2,479.2c0-0.8-0.3-1.3-1.2-1.3c-0.7,0-1.4,0.6-1.4,1.3H668.2z"/>
							<path class="st37" d="M671.8,476.3h1.9l0.2,1.3h0.1c0.4-0.9,1.2-1.4,2.2-1.5c0.3,0,0.6,0,0.9,0.1l-0.5,2
								c-0.3-0.1-0.5-0.1-0.8-0.1c-0.8,0.1-1.5,0.6-1.7,1.4v4.4h-2.4L671.8,476.3z"/>
							<path class="st37" d="M678,476.3h2l0.2,1h0.1c0.6-0.7,1.5-1.1,2.4-1.1c1.7,0,2.4,1.2,2.4,3.1v4.7h-2.4v-4.4
								c0-1.1-0.3-1.4-0.9-1.4c-0.5,0-1,0.3-1.3,0.7v5.1H678V476.3z"/>
							<path class="st37" d="M686.8,476.3h1.9l0.2,1h0.1c0.6-0.7,1.4-1.1,2.3-1.1c0.9-0.1,1.7,0.4,2.1,1.3c0.6-0.7,1.4-1.2,2.4-1.3
								c1.7,0,2.4,1.2,2.4,3.1v4.7h-2.4v-4.4c0-1.1-0.3-1.4-0.9-1.4c-0.5,0.1-0.9,0.3-1.2,0.7v5.1h-2.4v-4.4c0-1.1-0.3-1.4-0.9-1.4
								c-0.5,0.1-0.9,0.3-1.2,0.7v5.1h-2.4L686.8,476.3L686.8,476.3z"/>
							<path class="st37" d="M699.6,480.1c-0.1-2.1,1.4-3.9,3.5-4h0.1c2.2,0,3.3,1.6,3.3,3.7c0,0.3,0,0.7-0.1,1h-4.5
								c0.1,0.9,1,1.6,1.9,1.5c0.6,0,1.1-0.2,1.6-0.5l0.8,1.4c-0.8,0.6-1.8,0.9-2.8,0.9c-2,0.1-3.8-1.5-3.9-3.5
								C699.6,480.4,699.6,480.2,699.6,480.1z M704.5,479.2c0-0.8-0.3-1.3-1.2-1.3c-0.7,0-1.3,0.6-1.4,1.3H704.5z"/>
							<path class="st37" d="M708,476.3h2l0.2,1h0.1c0.6-0.7,1.5-1.1,2.4-1.1c1.7,0,2.4,1.2,2.4,3.1v4.7h-2.4v-4.4
								c0-1.1-0.3-1.4-0.9-1.4c-0.5,0-1,0.3-1.3,0.7v5.1h-2.4L708,476.3z"/>
							<path class="st37" d="M717.1,481.1v-3h-1v-1.8l1.2-0.1l0.3-2.3h2v2.3h1.8v1.9h-1.8v2.9c0,0.9,0.4,1.2,1,1.2
								c0.2,0,0.5,0,0.7-0.1l0.4,1.7c-0.6,0.2-1.1,0.3-1.7,0.3C717.9,484.1,717.1,482.9,717.1,481.1z"/>
							<path class="st37" d="M631.3,497.4c0-1.2,0.7-2.3,1.8-2.8c-0.4-0.6-0.6-1.3-0.6-2.1c0-1.5,1.2-2.6,2.6-2.6c0.1,0,0.1,0,0.2,0
								c1.2-0.1,2.4,0.7,2.5,2c0,0.1,0,0.2,0,0.3c0,1.3-1,2.1-2.1,2.8c0.6,0.6,1.2,1.2,1.9,1.7c0.5-0.7,0.9-1.5,1.1-2.3h2.2
								c-0.4,1.2-0.9,2.3-1.7,3.4c0.5,0.3,1.1,0.5,1.7,0.6l-0.6,1.9c-0.9-0.2-1.8-0.5-2.6-1c-0.9,0.7-2,1-3.2,1
								C632.4,500.2,631.3,498.9,631.3,497.4z M634.9,498.4c0.4,0,0.8-0.1,1.2-0.3c-0.7-0.6-1.4-1.3-2-2c-0.4,0.3-0.6,0.7-0.6,1.1
								C633.5,498,634.1,498.4,634.9,498.4z M634.7,493.7c0.7-0.4,1.2-0.8,1.2-1.5c0-0.4-0.2-0.7-0.7-0.7s-0.9,0.4-0.9,1.1
								C634.4,492.9,634.5,493.3,634.7,493.7z"/>
							<path class="st37" d="M644.8,498.8l1.3-1.5c0.7,0.6,1.6,0.9,2.5,1c0.9,0,1.3-0.3,1.3-0.9s-0.5-0.8-1.4-1.1l-1.3-0.5
								c-1.2-0.4-2-1.5-2-2.7c0-1.7,1.5-3,3.6-3c1.2,0,2.4,0.4,3.2,1.2l-1.2,1.5c-0.6-0.4-1.3-0.7-2-0.7s-1.2,0.3-1.2,0.8
								s0.6,0.8,1.5,1.1l1.2,0.5c1.2,0.3,2,1.5,2,2.7c0,1.7-1.4,3.1-3.8,3.1C647.2,500.3,645.9,499.8,644.8,498.8z"/>
							<path class="st37" d="M654,497.2v-3h-1v-1.8l1.2-0.1l0.3-2.3h2v2.3h1.8v1.9h-1.8v2.9c0,0.9,0.4,1.2,1,1.2
								c0.2,0,0.5,0,0.7-0.1l0.4,1.7c-0.6,0.2-1.1,0.3-1.7,0.3C654.8,500.2,654,499,654,497.2z"/>
							<path class="st37" d="M659.3,497.9c0-1.6,1.2-2.5,4.2-2.8c-0.1-0.6-0.4-1-1.2-1c-0.7,0-1.4,0.3-2,0.6l-0.8-1.5
								c1-0.6,2.1-1,3.3-1c2,0,3.1,1.1,3.1,3.5v4.3H664l-0.2-0.8h-0.1c-0.6,0.6-1.4,0.9-2.2,1c-1.2,0-2.2-0.9-2.3-2.1
								C659.3,498,659.3,498,659.3,497.9z M663.5,497.8v-1.2c-1.5,0.2-2,0.6-2,1.1s0.3,0.7,0.8,0.7S663.2,498.2,663.5,497.8z"/>
							<path class="st37" d="M667.7,489.3h2.3v6l0,0l2.3-2.9h2.6l-2.7,3.2l2.8,4.5h-2.6l-1.7-2.9l-0.9,1v1.9h-2.3L667.7,489.3z"/>
							<path class="st37" d="M675.5,496.2c-0.1-2.1,1.4-3.9,3.5-4h0.1c2.2,0,3.3,1.6,3.3,3.7c0,0.3,0,0.7-0.1,1h-4.5
								c0.1,0.9,1,1.6,1.9,1.5c0.6,0,1.1-0.2,1.6-0.5l0.8,1.4c-0.8,0.5-1.8,0.8-2.8,0.9c-2,0.1-3.8-1.5-3.9-3.5
								C675.4,496.5,675.5,496.4,675.5,496.2z M680.3,495.4c0-0.8-0.3-1.3-1.2-1.3c-0.7,0-1.3,0.6-1.4,1.3H680.3z"/>
							<path class="st37" d="M683.9,489.3h2.4v2.6l-0.1,1.4c0.6-0.6,1.5-1,2.3-1c1.7,0,2.4,1.2,2.4,3.1v4.7h-2.4v-4.4
								c0-1.1-0.3-1.4-0.9-1.4c-0.5,0-1,0.3-1.3,0.7v5.1h-2.4V489.3z"/>
							<path class="st37" d="M692.3,496.2c0.1-2.1,1.9-3.6,4-3.5s3.6,1.9,3.5,4c-0.1,2-1.8,3.5-3.8,3.5c-2.1,0-3.7-1.7-3.7-3.8
								C692.3,496.4,692.3,496.3,692.3,496.2z M697.3,496.2c0-1.3-0.4-2.1-1.3-2.1s-1.3,0.8-1.3,2.1s0.4,2.1,1.3,2.1
								S697.3,497.5,697.3,496.2L697.3,496.2z"/>
							<path class="st37" d="M701.2,497.6v-8.3h2.4v8.4c0,0.5,0.2,0.6,0.4,0.6c0.1,0,0.2,0,0.3,0l0.3,1.8c-0.4,0.1-0.8,0.2-1.2,0.2
								C701.8,500.2,701.2,499.2,701.2,497.6z"/>
							<path class="st37" d="M705.3,496.2c0-2.5,1.6-4,3.2-4c0.7,0,1.4,0.3,1.8,0.8l-0.1-1.1v-2.6h2.4V500h-2l-0.2-0.7l0,0
								c-0.5,0.5-1.2,0.9-2,0.9C706.5,500.2,705.3,498.7,705.3,496.2z M710.2,497.7v-3c-0.3-0.3-0.8-0.4-1.2-0.5
								c-0.7,0-1.3,0.6-1.3,2s0.5,2.1,1.3,2.1C709.5,498.3,709.9,498.1,710.2,497.7z"/>
							<path class="st37" d="M714,496.2c-0.1-2.1,1.4-3.9,3.5-4h0.1c2.2,0,3.3,1.6,3.3,3.7c0,0.3,0,0.7-0.1,1h-4.5
								c0.1,0.9,1,1.6,1.9,1.5c0.6,0,1.1-0.2,1.6-0.5l0.8,1.4c-0.8,0.5-1.8,0.8-2.8,0.9c-2,0.1-3.8-1.5-3.9-3.5
								C714,496.5,714,496.4,714,496.2z M718.9,495.4c0-0.8-0.3-1.3-1.2-1.3c-0.7,0-1.3,0.6-1.4,1.3H718.9z"/>
							<path class="st37" d="M722.5,492.4h1.9l0.2,1.3h0.1c0.4-0.9,1.2-1.4,2.2-1.5c0.3,0,0.6,0,0.9,0.1l-0.4,2
								c-0.3-0.1-0.5-0.1-0.8-0.1c-0.8,0.1-1.4,0.6-1.7,1.4v4.4h-2.4V492.4z"/>
							<path class="st37" d="M648.4,506.2h3.6c2.1,0,3.9,0.7,3.9,3.1c0.1,1.2-0.6,2.4-1.7,2.9l2.2,4h-2.7l-1.8-3.5h-1.2v3.5h-2.4
								L648.4,506.2z M651.8,510.8c1.1,0,1.8-0.5,1.8-1.5s-0.6-1.3-1.8-1.3h-1.1v2.7L651.8,510.8z"/>
							<path class="st37" d="M657.1,512.4c-0.1-2.1,1.4-3.9,3.5-4h0.1c2.2,0,3.3,1.6,3.3,3.7c0,0.3,0,0.7-0.1,1h-4.5
								c0.1,0.9,1,1.6,1.9,1.5c0.6,0,1.1-0.2,1.7-0.5l0.8,1.4c-0.8,0.6-1.8,0.9-2.7,0.9c-2.1,0.1-3.8-1.5-3.9-3.6
								C657.1,512.7,657.1,512.5,657.1,512.4z M662,511.5c0-0.8-0.3-1.3-1.2-1.3c-0.7,0-1.4,0.6-1.4,1.3H662z"/>
							<path class="st37" d="M665.5,513.8v-8.3h2.4v8.3c0,0.5,0.2,0.6,0.4,0.6c0.1,0,0.2,0,0.3,0l0.3,1.8c-0.4,0.1-0.8,0.2-1.2,0.2
								C666.1,516.4,665.5,515.3,665.5,513.8z"/>
							<path class="st37" d="M669.6,514.1c0-1.6,1.2-2.5,4.3-2.8c0-0.6-0.4-1-1-1c-0.1,0-0.1,0-0.2,0c-0.7,0-1.4,0.3-2,0.6l-0.8-1.5
								c1-0.6,2.1-1,3.3-1c2,0,3.1,1.1,3.1,3.5v4.3h-1.9l-0.2-0.8h-0.1c-0.6,0.6-1.4,0.9-2.2,1c-1.2,0-2.2-0.9-2.3-2.1
								C669.6,514.2,669.6,514.1,669.6,514.1z M673.9,514v-1.2c-1.5,0.2-2,0.6-2,1.2s0.3,0.7,0.8,0.7
								C673.2,514.6,673.6,514.3,673.9,514L673.9,514z"/>
							<path class="st37" d="M678.3,513.4v-2.9h-1v-1.8l1.2-0.1l0.3-2.3h2v2.3h1.8v1.9h-1.8v2.9c0,0.9,0.4,1.2,1,1.2
								c0.2,0,0.5,0,0.7-0.1l0.4,1.7c-0.6,0.2-1.1,0.3-1.7,0.3C679.1,516.4,678.3,515.2,678.3,513.4z"/>
							<path class="st37" d="M683.8,506.3c-0.1-0.7,0.5-1.4,1.2-1.5s1.4,0.5,1.5,1.2s-0.5,1.4-1.2,1.5h-0.1
								c-0.7,0.1-1.3-0.4-1.3-1.1C683.8,506.4,683.8,506.3,683.8,506.3z M684,508.6h2.4v7.6H684V508.6z"/>
							<path class="st37" d="M687.8,512.4c0.1-2.1,1.9-3.6,4-3.5s3.6,1.9,3.5,4c-0.1,2-1.8,3.5-3.7,3.5c-2.1,0-3.7-1.7-3.7-3.7
								C687.8,512.6,687.8,512.5,687.8,512.4z M692.8,512.4c0-1.3-0.4-2.1-1.3-2.1s-1.3,0.8-1.3,2.1c0,1.3,0.4,2.1,1.3,2.1
								S692.8,513.7,692.8,512.4L692.8,512.4z"/>
							<path class="st37" d="M696.8,508.6h1.9l0.2,1h0.1c0.6-0.7,1.5-1.1,2.4-1.1c1.7,0,2.4,1.2,2.4,3.1v4.7h-2.4v-4.4
								c0-1.1-0.3-1.4-0.9-1.4c-0.5,0-1,0.3-1.3,0.7v5.1h-2.4V508.6z"/>
							<path class="st37" d="M704.9,515.3l1-1.3c0.6,0.5,1.3,0.7,2,0.7s0.9-0.2,0.9-0.6s-0.7-0.7-1.5-1c-1.1-0.4-2-1.1-2-2.3
								c0-1.5,1.2-2.4,3-2.4c1,0,2,0.4,2.7,1l-1,1.3c-0.5-0.4-1.1-0.6-1.7-0.6c-0.5,0-0.8,0.2-0.8,0.6s0.4,0.6,1.4,0.9
								c1.2,0.4,2.1,1.1,2.1,2.3s-1.1,2.5-3.2,2.5C706.8,516.4,705.7,516,704.9,515.3z"/>
							<polygon class="st38" points="298,737.5 402.5,737.2 512.8,598.3 187.2,599.1 							"/>
							<path class="st39" d="M299,662.1h3.5c2.1,0,3.7,0.6,3.7,2.5c0,0.9-0.5,1.8-1.3,2.2v0.1c1.1,0.2,1.9,1.2,1.8,2.3
								c0,2-1.8,3-3.9,3H299V662.1z M302.4,666.1c1,0,1.5-0.5,1.5-1.1s-0.5-1-1.5-1h-1v2.2L302.4,666.1z M302.6,670.3
								c1.2,0,1.8-0.4,1.8-1.3s-0.6-1.2-1.8-1.2h-1.2v2.4L302.6,670.3L302.6,670.3z"/>
							<path class="st39" d="M308.2,669.2v-4.7h2.4v4.4c0,1.1,0.3,1.4,0.9,1.4c0.5,0,1-0.3,1.3-0.8v-5h2.4v7.6h-1.9l-0.2-1H313
								c-0.6,0.8-1.4,1.2-2.4,1.2C308.9,672.3,308.2,671.1,308.2,669.2z"/>
							<path class="st39" d="M316.3,671.2l1-1.3c0.6,0.5,1.3,0.7,2,0.7c0.6,0,0.9-0.2,0.9-0.6s-0.6-0.7-1.5-1c-1.1-0.4-2-1.1-2-2.3
								c0-1.4,1.2-2.4,3-2.4c1,0,2,0.4,2.7,1l-1,1.3c-0.5-0.4-1-0.6-1.6-0.6s-0.8,0.2-0.8,0.6s0.4,0.6,1.4,0.9
								c1.2,0.4,2.1,1.1,2.1,2.3s-1.1,2.5-3.2,2.5C318.2,672.3,317.1,671.9,316.3,671.2z"/>
							<path class="st39" d="M323.7,662.2c-0.1-0.7,0.5-1.4,1.2-1.5s1.4,0.5,1.5,1.2s-0.5,1.4-1.2,1.5h-0.1
								c-0.7,0.1-1.3-0.4-1.3-1.1C323.7,662.3,323.7,662.2,323.7,662.2z M323.9,664.5h2.4v7.6h-2.4V664.5z"/>
							<path class="st39" d="M328.1,664.5h1.9l0.2,1h0.1c0.6-0.7,1.5-1.1,2.4-1.1c1.7,0,2.4,1.2,2.4,3.1v4.7h-2.4v-4.4
								c0-1.1-0.3-1.4-0.9-1.4c-0.5,0-1,0.3-1.3,0.7v5.1h-2.3v-7.7H328.1z"/>
							<path class="st39" d="M336.5,668.3c-0.1-2.1,1.4-3.9,3.5-4h0.1c2.2,0,3.3,1.6,3.3,3.7c0,0.3,0,0.7-0.1,1h-4.5
								c0.1,0.9,1,1.6,1.9,1.5c0.6,0,1.2-0.2,1.6-0.5l0.8,1.4c-0.8,0.6-1.8,0.9-2.8,0.9c-2.1,0.1-3.8-1.5-3.9-3.6
								C336.5,668.6,336.5,668.4,336.5,668.3z M341.3,667.4c0-0.8-0.3-1.3-1.2-1.3c-0.7,0-1.4,0.6-1.4,1.3H341.3z"/>
							<path class="st39" d="M344.2,671.2l1-1.3c0.6,0.5,1.3,0.7,2,0.7c0.6,0,0.9-0.2,0.9-0.6s-0.6-0.7-1.5-1c-1.1-0.4-2-1.1-2-2.3
								c0-1.4,1.2-2.4,3-2.4c1,0,2,0.4,2.7,1l-1,1.3c-0.5-0.4-1-0.6-1.6-0.6c-0.5,0-0.8,0.2-0.8,0.6s0.4,0.6,1.4,0.9
								c1.2,0.4,2.1,1.1,2.1,2.3s-1.1,2.5-3.2,2.5C346.1,672.3,345,671.9,344.2,671.2z"/>
							<path class="st39" d="M351,671.2l1-1.3c0.6,0.5,1.3,0.7,2,0.7c0.6,0,0.9-0.2,0.9-0.6s-0.6-0.7-1.5-1c-1.1-0.4-2-1.1-2-2.3
								c0-1.4,1.2-2.4,3-2.4c1,0,2,0.4,2.7,1l-1,1.3c-0.5-0.4-1-0.6-1.6-0.6s-0.8,0.2-0.8,0.6s0.4,0.6,1.4,0.9
								c1.2,0.4,2.1,1.1,2.1,2.3s-1.1,2.5-3.2,2.5C352.9,672.3,351.9,671.9,351,671.2z"/>
							<path class="st39" d="M361.8,662.1h2.6l1.6,4.3c0.2,0.6,0.4,1.2,0.5,1.8h0.1c0.2-0.6,0.3-1.2,0.5-1.8l1.5-4.3h2.6v10H369
								v-3.5c0-1,0.2-2.7,0.3-3.7h-0.1l-0.8,2.6l-1.4,3.7h-1.4l-1.3-3.7l-0.8-2.6h-0.1c0.1,1,0.3,2.7,0.3,3.7v3.5h-2.1L361.8,662.1z
								"/>
							<path class="st39" d="M373,668.3c0.1-2.1,1.9-3.6,4-3.5s3.6,1.9,3.5,4c-0.1,2-1.8,3.5-3.8,3.5c-2.1,0-3.7-1.7-3.7-3.8
								C373,668.5,373,668.4,373,668.3z M378,668.3c0-1.3-0.4-2.1-1.3-2.1s-1.3,0.8-1.3,2.1s0.4,2.1,1.3,2.1S378,669.6,378,668.3z"
								/>
							<path class="st39" d="M381.6,668.3c0-2.5,1.6-4,3.1-4c0.7,0,1.4,0.3,1.8,0.8l-0.1-1.1v-2.6h2.4v10.7h-2l-0.2-0.7l0,0
								c-0.5,0.5-1.2,0.9-2,0.9C382.8,672.3,381.6,670.8,381.6,668.3z M386.5,669.7v-3c-0.3-0.3-0.8-0.4-1.2-0.4
								c-0.7,0-1.3,0.6-1.3,2s0.5,2.1,1.3,2.1C385.8,670.4,386.2,670.1,386.5,669.7z"/>
							<path class="st39" d="M390.3,668.3c-0.1-2.1,1.4-3.9,3.5-4h0.1c2.2,0,3.3,1.6,3.3,3.7c0,0.3,0,0.7-0.1,1h-4.5
								c0.1,0.9,1,1.6,1.9,1.5c0.6,0,1.1-0.2,1.6-0.5l0.8,1.4c-0.8,0.6-1.8,0.9-2.8,0.9c-2.1,0.1-3.8-1.5-3.9-3.6
								C390.3,668.6,390.3,668.4,390.3,668.3z M395.2,667.4c0-0.8-0.3-1.3-1.2-1.3c-0.7,0-1.3,0.6-1.4,1.3H395.2z"/>
							<path class="st39" d="M398.7,669.7v-8.3h2.4v8.3c0,0.5,0.2,0.6,0.4,0.6c0.1,0,0.2,0,0.3,0l0.3,1.8c-0.4,0.1-0.8,0.2-1.2,0.2
								C399.2,672.3,398.7,671.2,398.7,669.7z"/>
							<path class="st39" d="M308.3,685.6c0-1.2,0.7-2.3,1.8-2.8c-0.4-0.6-0.6-1.3-0.6-2c0-1.5,1.2-2.6,2.6-2.6c0.1,0,0.1,0,0.2,0
								c1.2-0.1,2.4,0.7,2.5,2c0,0.1,0,0.2,0,0.3c0,1.3-1,2.1-2.1,2.8c0.6,0.6,1.2,1.2,1.9,1.7c0.5-0.7,0.9-1.5,1.1-2.3h2.1
								c-0.3,1.2-0.9,2.3-1.6,3.3c0.5,0.3,1.1,0.5,1.7,0.6l-0.6,1.9c-0.9-0.2-1.8-0.5-2.6-1c-0.9,0.7-2,1-3.2,1
								C309.4,688.5,308.3,687.1,308.3,685.6z M312,686.7c0.4,0,0.8-0.1,1.2-0.3c-0.7-0.6-1.4-1.3-2-2c-0.4,0.3-0.6,0.7-0.6,1.1
								C310.5,686.2,311.1,686.7,312,686.7L312,686.7z M311.8,681.9c0.7-0.4,1.2-0.8,1.2-1.5c0-0.4-0.2-0.7-0.6-0.7
								s-0.9,0.4-0.9,1.1C311.5,681.1,311.6,681.5,311.8,681.9z"/>
							<path class="st39" d="M321.5,678.3h2.5l0.6,4.6c0.1,1,0.3,2.1,0.4,3.2l0,0c0.2-1.1,0.4-2.2,0.6-3.2l1-4.6h2l1,4.6
								c0.2,1,0.4,2.1,0.6,3.2h0.1c0.1-1.1,0.2-2.2,0.4-3.2l0.7-4.6h2.3l-1.8,10h-3l-0.9-4.4c-0.2-0.8-0.3-1.6-0.4-2.4h-0.1
								c-0.1,0.8-0.2,1.6-0.4,2.4l-0.9,4.4h-3L321.5,678.3z"/>
							<path class="st39" d="M334.3,684.5c0.1-2.1,1.9-3.6,4-3.5s3.6,1.9,3.5,4c-0.1,2-1.8,3.5-3.8,3.5c-2.1,0-3.7-1.7-3.7-3.8
								C334.3,684.6,334.3,684.5,334.3,684.5z M339.3,684.5c0-1.3-0.4-2.1-1.3-2.1s-1.3,0.8-1.3,2.1s0.4,2.1,1.3,2.1
								S339.4,685.7,339.3,684.5L339.3,684.5z"/>
							<path class="st39" d="M343.3,680.7h1.9l0.2,1.3h0.1c0.4-0.9,1.2-1.4,2.2-1.5c0.3,0,0.6,0,0.9,0.2l-0.4,2
								c-0.3-0.1-0.5-0.1-0.8-0.1c-0.8,0.1-1.4,0.6-1.6,1.4v4.4h-2.4L343.3,680.7z"/>
							<path class="st39" d="M349.5,677.5h2.4v6l0,0l2.3-2.9h2.6l-2.7,3.2l2.8,4.5h-2.5l-1.7-2.9l-0.9,1v1.9h-2.4v-10.8H349.5z"/>
							<path class="st39" d="M358.6,682.5h-1v-1.8l1-0.1v-0.3c-0.2-1.4,0.8-2.8,2.3-3c0.2,0,0.4,0,0.6,0c0.5,0,1.1,0.1,1.5,0.3
								l-0.4,1.7c-0.3-0.1-0.5-0.1-0.8-0.1c-0.5,0-0.8,0.3-0.8,1v0.4h1.4v1.8H361v5.8h-2.4V682.5z"/>
							<path class="st39" d="M363.1,684.5c0.1-2.1,1.9-3.6,4-3.5s3.6,1.9,3.5,4c-0.1,2-1.8,3.5-3.8,3.5c-2.1,0-3.7-1.7-3.7-3.8
								C363.1,684.6,363.1,684.5,363.1,684.5z M368.1,684.5c0-1.3-0.4-2.1-1.3-2.1s-1.3,0.8-1.3,2.1s0.4,2.1,1.3,2.1
								S368.1,685.7,368.1,684.5L368.1,684.5z"/>
							<path class="st39" d="M372.1,680.7h1.9l0.2,1.3h0.1c0.4-0.9,1.2-1.5,2.2-1.5c0.3,0,0.6,0,0.9,0.2l-0.5,2
								c-0.3-0.1-0.5-0.1-0.8-0.1c-0.8,0.1-1.5,0.6-1.7,1.4v4.4H372L372.1,680.7z"/>
							<path class="st39" d="M377.7,684.5c-0.1-2.1,1.6-3.9,3.7-4c0.1,0,0.2,0,0.3,0c0.8,0,1.6,0.3,2.2,0.8l-1.1,1.5
								c-0.3-0.2-0.6-0.4-1-0.4c-1.1,0-1.7,0.8-1.7,2.1s0.7,2.1,1.6,2.1c0.5,0,0.9-0.2,1.3-0.5l0.9,1.5c-1.6,1.4-4,1.2-5.4-0.4
								C378,686.4,377.7,685.4,377.7,684.5L377.7,684.5z"/>
							<path class="st39" d="M384.7,684.5c-0.1-2.1,1.4-3.9,3.5-4h0.1c2.2,0,3.3,1.6,3.3,3.7c0,0.3,0,0.7-0.1,1H387
								c0.1,0.9,1,1.6,1.9,1.5c0.6,0,1.1-0.2,1.6-0.5l0.8,1.4c-0.8,0.6-1.8,0.9-2.8,0.9c-2.1,0.1-3.8-1.5-3.9-3.5
								C384.7,684.7,384.7,684.6,384.7,684.5z M389.5,683.6c0-0.8-0.3-1.3-1.2-1.3c-0.7,0-1.3,0.6-1.4,1.3H389.5z"/>
							<path class="st39" d="M299.9,696.4h-2.7v-2h7.8v2h-2.7v8h-2.4L299.9,696.4z"/>
							<path class="st39" d="M305.3,696.8h1.9l0.2,1.3h0.1c0.4-0.9,1.2-1.4,2.2-1.5c0.3,0,0.6,0,0.9,0.2l-0.5,2
								c-0.3-0.1-0.5-0.1-0.8-0.1c-0.8,0.1-1.5,0.6-1.7,1.4v4.4h-2.4L305.3,696.8L305.3,696.8z"/>
							<path class="st39" d="M311.2,702.3c0-1.6,1.2-2.5,4.3-2.8c-0.1-0.6-0.4-1-1.2-1c-0.7,0-1.4,0.3-2,0.6l-0.8-1.5
								c1-0.6,2.1-1,3.3-1c2,0,3.1,1.1,3.1,3.5v4.3H316l-0.2-0.8h-0.1c-0.6,0.6-1.4,1-2.2,1C312.3,704.6,311.3,703.7,311.2,702.3
								C311.2,702.4,311.2,702.4,311.2,702.3z M315.5,702.2V701c-1.5,0.2-2,0.6-2,1.2s0.3,0.7,0.8,0.7
								C314.7,702.8,315.2,702.6,315.5,702.2L315.5,702.2z"/>
							<path class="st39" d="M319.6,696.8h1.9l0.2,1h0.1c0.6-0.7,1.5-1.1,2.4-1.1c1.7,0,2.4,1.2,2.4,3.1v4.7h-2.4V700
								c0-1.1-0.3-1.4-0.9-1.4c-0.5,0-1,0.3-1.3,0.7v5.1h-2.4L319.6,696.8L319.6,696.8z"/>
							<path class="st39" d="M327.8,703.5l1-1.3c0.6,0.5,1.3,0.7,2,0.7c0.6,0,0.9-0.2,0.9-0.6s-0.6-0.7-1.5-1c-1.1-0.4-2-1.1-2-2.3
								c0-1.5,1.2-2.4,3-2.4c1,0,2,0.4,2.7,1l-1,1.3c-0.5-0.4-1-0.5-1.6-0.5c-0.5,0-0.8,0.2-0.8,0.5s0.4,0.6,1.4,0.9
								c1.2,0.4,2.1,1.1,2.1,2.3s-1.1,2.5-3.2,2.5C329.7,704.7,328.6,704.2,327.8,703.5z"/>
							<path class="st39" d="M335.8,698.7h-1v-1.8l1-0.1v-0.3c-0.2-1.4,0.8-2.8,2.3-3c0.2,0,0.4,0,0.6,0c0.5,0,1.1,0.1,1.5,0.3
								l-0.4,1.7c-0.2-0.1-0.5-0.1-0.8-0.1c-0.5,0-0.8,0.3-0.8,1v0.4h1.4v1.9h-1.4v5.8h-2.4L335.8,698.7L335.8,698.7z"/>
							<path class="st39" d="M340.3,700.6c0.1-2.1,1.9-3.6,4-3.5s3.6,1.9,3.5,4c-0.1,2-1.8,3.5-3.7,3.5c-2.1,0-3.7-1.7-3.7-3.7
								C340.3,700.8,340.3,700.7,340.3,700.6z M345.3,700.6c0-1.3-0.4-2.1-1.3-2.1s-1.3,0.8-1.3,2.1s0.4,2.1,1.3,2.1
								S345.3,701.9,345.3,700.6L345.3,700.6z"/>
							<path class="st39" d="M349.2,696.8h1.9l0.2,1.3h0.1c0.4-0.9,1.2-1.4,2.2-1.5c0.3,0,0.6,0,0.9,0.2l-0.5,2
								c-0.3-0.1-0.5-0.1-0.8-0.1c-0.8,0.1-1.5,0.6-1.7,1.4v4.4h-2.4L349.2,696.8z"/>
							<path class="st39" d="M355.5,696.8h1.9l0.2,1h0.1c0.6-0.7,1.4-1.1,2.3-1.1c0.9-0.1,1.7,0.4,2.1,1.3c0.6-0.7,1.4-1.2,2.4-1.3
								c1.7,0,2.4,1.2,2.4,3.1v4.7h-2.4V700c0-1.1-0.3-1.4-0.9-1.4c-0.5,0.1-0.9,0.3-1.2,0.7v5.1H360V700c0-1.1-0.3-1.4-0.9-1.4
								c-0.5,0.1-0.9,0.3-1.2,0.7v5.1h-2.4V696.8z"/>
							<path class="st39" d="M368.3,702.3c0-1.6,1.2-2.5,4.2-2.8c-0.1-0.6-0.4-1-1.2-1c-0.7,0-1.4,0.3-2,0.6l-0.8-1.5
								c1-0.6,2.1-1,3.3-1c2,0,3.1,1.1,3.1,3.5v4.3H373l-0.2-0.8h-0.1c-0.6,0.6-1.4,1-2.2,1c-1.2,0-2.2-0.9-2.3-2.1
								C368.3,702.5,368.3,702.4,368.3,702.3z M372.5,702.2V701c-1.5,0.2-2,0.6-2,1.2s0.3,0.7,0.8,0.7
								C371.8,702.8,372.3,702.6,372.5,702.2z"/>
							<path class="st39" d="M377,701.6v-3h-1v-1.8l1.2-0.1l0.3-2.3h2v2.3h1.8v1.9h-1.8v2.9c0,0.9,0.4,1.2,1,1.2
								c0.2,0,0.5,0,0.7-0.1l0.4,1.7c-0.6,0.2-1.1,0.3-1.7,0.3C377.8,704.6,377,703.4,377,701.6z"/>
							<path class="st39" d="M382.5,694.5c-0.1-0.7,0.5-1.4,1.2-1.4c0.7-0.1,1.4,0.5,1.4,1.2s-0.5,1.4-1.2,1.4h-0.1
								c-0.7,0.1-1.3-0.4-1.3-1.1C382.5,694.6,382.5,694.6,382.5,694.5z M382.6,696.8h2.4v7.6h-2.4V696.8z"/>
							<path class="st39" d="M386.5,700.6c0.1-2.1,1.9-3.6,4-3.5s3.6,1.9,3.5,4c-0.1,2-1.8,3.5-3.8,3.5c-2.1,0-3.7-1.7-3.7-3.8
								C386.4,700.8,386.4,700.7,386.5,700.6z M391.5,700.6c0-1.3-0.4-2.1-1.3-2.1s-1.3,0.8-1.3,2.1s0.4,2.1,1.3,2.1
								S391.5,701.9,391.5,700.6L391.5,700.6z"/>
							<path class="st39" d="M395.4,696.8h1.9l0.2,1h0.1c0.6-0.7,1.5-1.1,2.4-1.1c1.6,0,2.4,1.2,2.4,3.1v4.7H400V700
								c0-1.1-0.3-1.4-0.9-1.4c-0.5,0-1,0.3-1.3,0.7v5.1h-2.4L395.4,696.8L395.4,696.8z"/>
							<polygon class="st40" points="121.9,517.5 187.2,599.1 364.6,598.6 160.9,344.6 							"/>
							<path class="st41" d="M172.5,512.5c0-3.3,1.9-5.1,4.6-5.1s4.6,1.9,4.6,5.1s-1.9,5.2-4.6,5.2S172.5,515.8,172.5,512.5z
								 M179.2,512.5c0-2-0.8-3.1-2.1-3.1s-2.1,1.1-2.1,3.1s0.8,3.2,2.1,3.2S179.2,514.5,179.2,512.5L179.2,512.5z"/>
							<path class="st41" d="M183.4,510h1.9l0.2,0.7h0.1c0.6-0.6,1.3-0.9,2.1-0.9c1.8,0,3,1.5,3,3.9c0,2.6-1.6,4.1-3.2,4.1
								c-0.7,0-1.3-0.3-1.8-0.8l0.1,1.2v2.2h-2.4L183.4,510z M188.2,513.7c0-1.3-0.4-2-1.2-2c-0.5,0-0.9,0.3-1.2,0.7v3
								c0.3,0.3,0.7,0.5,1.1,0.5C187.6,515.8,188.2,515.2,188.2,513.7L188.2,513.7z"/>
							<path class="st41" d="M191.8,513.8c-0.1-2.1,1.4-3.9,3.5-4h0.1c2.2,0,3.3,1.6,3.3,3.7c0,0.3,0,0.7-0.1,1h-4.5
								c0.1,1,1,1.7,1.9,1.6l0,0c0.6,0,1.2-0.2,1.6-0.5l0.8,1.4c-0.8,0.6-1.8,0.9-2.7,0.9c-2.1,0.1-3.8-1.4-3.9-3.5
								C191.7,514.1,191.7,513.9,191.8,513.8z M196.6,512.9c0-0.8-0.3-1.3-1.2-1.3c-0.7,0-1.4,0.6-1.4,1.3H196.6z"/>
							<path class="st41" d="M200.2,510h1.9l0.2,1.3h0.1c0.4-0.9,1.2-1.5,2.2-1.5c0.3,0,0.6,0,0.9,0.1l-0.4,2
								c-0.3-0.1-0.5-0.1-0.8-0.1c-0.8,0.1-1.5,0.6-1.7,1.4v4.3h-2.4V510z"/>
							<path class="st41" d="M206.1,515.5c0-1.6,1.2-2.5,4.2-2.8c-0.1-0.6-0.4-1-1.2-1c-0.7,0-1.4,0.3-2,0.6l-0.8-1.5
								c1-0.6,2.1-1,3.3-1c2,0,3.1,1.1,3.1,3.5v4.3h-1.9l-0.2-0.8h-0.1c-0.6,0.6-1.4,0.9-2.2,1C207.1,517.8,206.1,516.9,206.1,515.5
								C206.1,515.6,206.1,515.5,206.1,515.5z M210.3,515.3v-1.2c-1.5,0.2-2,0.6-2,1.2s0.3,0.7,0.8,0.7
								C209.6,515.9,210,515.7,210.3,515.3z"/>
							<path class="st41" d="M214.8,514.8v-3h-1V510l1.2-0.1l0.3-2.3h2v2.4h1.8v1.9h-1.8v2.9c0,0.9,0.4,1.2,1,1.2
								c0.2,0,0.5,0,0.7-0.1l0.4,1.7c-0.6,0.2-1.1,0.3-1.7,0.3C215.5,517.8,214.8,516.6,214.8,514.8z"/>
							<path class="st41" d="M220.3,507.6c-0.1-0.7,0.5-1.4,1.2-1.4c0.7-0.1,1.4,0.5,1.4,1.2c0.1,0.7-0.5,1.4-1.2,1.4h-0.1
								c-0.7,0.1-1.3-0.4-1.3-1.1C220.3,507.8,220.3,507.7,220.3,507.6z M220.4,510h2.4v7.6h-2.4V510z"/>
							<path class="st41" d="M224.2,513.8c0.1-2.1,1.9-3.6,4-3.5s3.6,1.9,3.5,4c-0.1,2-1.8,3.5-3.8,3.5c-2.1,0-3.7-1.7-3.7-3.8
								C224.2,513.9,224.2,513.8,224.2,513.8z M229.2,513.8c0-1.3-0.4-2.1-1.3-2.1s-1.3,0.8-1.3,2.1s0.4,2.1,1.3,2.1
								S229.2,515,229.2,513.8L229.2,513.8z"/>
							<path class="st41" d="M233.2,510h1.9l0.2,1h0.1c0.6-0.7,1.5-1.1,2.4-1.1c1.7,0,2.4,1.2,2.4,3.1v4.7h-2.4v-4.4
								c0-1.1-0.3-1.4-0.9-1.4c-0.5,0-1,0.3-1.3,0.7v5.1h-2.4V510z"/>
							<path class="st41" d="M241.6,515.5c0-1.6,1.2-2.5,4.2-2.8c0-0.6-0.4-1-1-1c-0.1,0-0.1,0-0.2,0c-0.7,0-1.4,0.3-2,0.6l-0.8-1.5
								c1-0.6,2.1-1,3.3-1c2,0,3.1,1.1,3.1,3.5v4.3h-1.9l-0.2-0.8H246c-0.6,0.6-1.4,0.9-2.2,1C242.6,517.8,241.6,516.8,241.6,515.5
								C241.6,515.5,241.6,515.5,241.6,515.5z M245.8,515.3v-1.2c-1.5,0.2-2,0.6-2,1.2s0.3,0.7,0.8,0.7
								C245.1,515.9,245.5,515.7,245.8,515.3z"/>
							<path class="st41" d="M250,515.1v-8.3h2.4v8.3c0,0.5,0.2,0.7,0.4,0.7c0.1,0,0.2,0,0.3,0l0.3,1.8c-0.4,0.1-0.8,0.2-1.2,0.2
								C250.5,517.8,250,516.7,250,515.1z"/>
							<path class="st41" d="M175.4,531c0-1.2,0.7-2.3,1.8-2.8c-0.4-0.6-0.6-1.3-0.6-2.1c0-1.5,1.2-2.6,2.6-2.6c0.1,0,0.1,0,0.2,0
								c1.2-0.1,2.4,0.7,2.5,2c0,0.1,0,0.2,0,0.3c0,1.3-1,2.1-2.1,2.8c0.6,0.6,1.2,1.2,1.9,1.7c0.5-0.7,0.9-1.5,1.1-2.3h2.1
								c-0.4,1.2-0.9,2.3-1.7,3.3c0.5,0.3,1.1,0.5,1.7,0.6l-0.6,1.9c-0.9-0.2-1.8-0.5-2.6-1c-0.9,0.7-2,1-3.2,1
								C176.6,533.9,175.4,532.6,175.4,531z M179.1,532.1c0.4,0,0.8-0.1,1.2-0.3c-0.7-0.6-1.4-1.3-2-2c-0.4,0.3-0.6,0.7-0.6,1.1
								C177.7,531.6,178.2,532.1,179.1,532.1L179.1,532.1z M178.9,527.3c0.7-0.4,1.2-0.8,1.2-1.5c0-0.4-0.2-0.7-0.7-0.7
								s-0.9,0.4-0.9,1.1C178.6,526.6,178.7,527,178.9,527.3L178.9,527.3z"/>
							<path class="st41" d="M189.6,523.8h6.4v2h-4v2.2h3.4v2H192v3.8h-2.4V523.8z"/>
							<path class="st41" d="M197.3,523.8c-0.1-0.7,0.5-1.4,1.2-1.4c0.7-0.1,1.4,0.5,1.4,1.2c0.1,0.7-0.5,1.4-1.2,1.4h-0.1
								c-0.7,0.1-1.3-0.4-1.3-1.1C197.3,523.9,197.3,523.9,197.3,523.8z M197.5,526.1h2.4v7.6h-2.4V526.1z"/>
							<path class="st41" d="M201.7,526.1h1.9l0.2,1h0.1c0.6-0.7,1.5-1.1,2.4-1.1c1.6,0,2.4,1.2,2.4,3.1v4.7h-2.4v-4.4
								c0-1.1-0.3-1.4-0.9-1.4c-0.5,0-1,0.3-1.3,0.7v5.1h-2.4V526.1z"/>
							<path class="st41" d="M210.1,531.6c0-1.6,1.2-2.5,4.2-2.8c-0.1-0.6-0.4-1-1.2-1c-0.7,0-1.4,0.3-2,0.6l-0.8-1.5
								c1-0.6,2.1-1,3.3-1c2,0,3.1,1.1,3.1,3.5v4.3h-1.9l-0.2-0.8h-0.1c-0.6,0.6-1.4,0.9-2.2,1c-1.2,0-2.2-0.9-2.3-2.1
								C210.1,531.7,210.1,531.7,210.1,531.6z M214.4,531.5v-1.2c-1.5,0.2-2,0.6-2,1.2s0.3,0.7,0.8,0.7
								C213.6,532.1,214.1,531.8,214.4,531.5z"/>
							<path class="st41" d="M218.6,526.1h1.9l0.2,1h0.1c0.6-0.7,1.5-1.1,2.4-1.1c1.7,0,2.4,1.2,2.4,3.1v4.7h-2.4v-4.4
								c0-1.1-0.3-1.4-0.9-1.4c-0.5,0-1,0.3-1.3,0.7v5.1h-2.4V526.1z"/>
							<path class="st41" d="M227,529.9c-0.1-2.1,1.6-3.9,3.7-4c0.1,0,0.2,0,0.3,0c0.8,0,1.6,0.3,2.2,0.8l-1.1,1.5
								c-0.3-0.2-0.6-0.4-1-0.4c-1.1,0-1.7,0.8-1.7,2.1s0.7,2.1,1.6,2.1c0.5,0,0.9-0.2,1.3-0.5l0.9,1.5c-1.6,1.4-4,1.2-5.4-0.5
								C227.2,531.8,226.9,530.9,227,529.9L227,529.9z"/>
							<path class="st41" d="M234.3,523.8c-0.1-0.7,0.5-1.4,1.2-1.4c0.7-0.1,1.4,0.5,1.4,1.2c0.1,0.7-0.5,1.4-1.2,1.4h-0.1
								c-0.7,0.1-1.3-0.4-1.3-1.1C234.3,523.9,234.3,523.9,234.3,523.8z M234.4,526.1h2.4v7.6h-2.4V526.1z"/>
							<path class="st41" d="M238.3,531.6c0-1.6,1.2-2.5,4.2-2.8c-0.1-0.6-0.4-1-1.2-1c-0.7,0-1.4,0.3-2,0.6l-0.8-1.5
								c1-0.6,2.1-1,3.3-1c2,0,3.1,1.1,3.1,3.5v4.3H243l-0.2-0.8h-0.1c-0.6,0.6-1.4,0.9-2.2,1c-1.2,0.1-2.2-0.9-2.3-2.1
								C238.3,531.7,238.3,531.7,238.3,531.6z M242.5,531.5v-1.2c-1.5,0.2-2,0.6-2,1.2s0.3,0.7,0.8,0.7
								C241.8,532.1,242.3,531.8,242.5,531.5z"/>
							<path class="st41" d="M246.7,531.3V523h2.4v8.3c0,0.5,0.2,0.7,0.4,0.7c0.1,0,0.2,0,0.3,0l0.3,1.8c-0.4,0.1-0.8,0.2-1.2,0.2
								C247.2,533.9,246.7,532.9,246.7,531.3z"/>
							<path class="st41" d="M179.3,539.9h3.7c2.1,0,3.9,0.7,3.9,3.1c0.1,1.2-0.6,2.4-1.7,2.9l2.2,4h-2.7l-1.8-3.5h-1.2v3.5h-2.4
								V539.9z M182.8,544.5c1.1,0,1.8-0.5,1.8-1.4s-0.6-1.3-1.8-1.3h-1.1v2.7H182.8z"/>
							<path class="st41" d="M188.1,546.1c-0.1-2.1,1.4-3.9,3.5-4h0.1c2.2,0,3.3,1.6,3.3,3.7c0,0.3,0,0.7-0.1,1h-4.5
								c0.1,0.9,1,1.6,1.9,1.5c0.6,0,1.1-0.2,1.6-0.5l0.8,1.4c-0.8,0.6-1.8,0.9-2.8,0.9c-2.1,0.1-3.8-1.5-3.9-3.6
								C188.1,546.3,188.1,546.2,188.1,546.1z M193,545.2c0-0.8-0.3-1.3-1.2-1.3c-0.7,0-1.3,0.6-1.4,1.3H193z"/>
							<path class="st41" d="M195.8,548.9l1-1.3c0.6,0.5,1.3,0.7,2,0.7c0.6,0,0.9-0.2,0.9-0.6s-0.6-0.7-1.5-1c-1.1-0.4-2-1.1-2-2.3
								c0-1.4,1.2-2.4,2.9-2.4c1,0,2,0.4,2.7,1l-1,1.3c-0.5-0.4-1-0.6-1.6-0.6s-0.8,0.2-0.8,0.6s0.4,0.6,1.4,0.9
								c1.2,0.4,2.1,1.1,2.1,2.3s-1.1,2.5-3.2,2.5C197.7,550.1,196.6,549.7,195.8,548.9z"/>
							<path class="st41" d="M203.2,540c0.1-0.7,0.7-1.3,1.5-1.2c0.6,0.1,1.2,0.6,1.2,1.2c-0.1,0.7-0.7,1.3-1.5,1.2
								C203.8,541.2,203.2,540.6,203.2,540z M203.4,542.3h2.4v7.6h-2.4V542.3z"/>
							<path class="st41" d="M207.6,547.4v-8.3h2.4v8.3c0,0.5,0.2,0.6,0.4,0.6c0.1,0,0.2,0,0.3,0l0.3,1.8c-0.4,0.1-0.8,0.2-1.2,0.2
								C208.1,550.1,207.6,549,207.6,547.4z"/>
							<path class="st41" d="M211.9,540c-0.1-0.7,0.5-1.4,1.2-1.5s1.4,0.5,1.5,1.2s-0.5,1.4-1.2,1.5h-0.1c-0.7,0.1-1.3-0.4-1.3-1.1
								C211.9,540.1,211.9,540,211.9,540z M212,542.3h2.4v7.6H212V542.3z"/>
							<path class="st41" d="M215.9,546.1c-0.1-2.1,1.4-3.9,3.5-4h0.1c2.2,0,3.3,1.6,3.3,3.7c0,0.3,0,0.7-0.1,1h-4.5
								c0.1,0.9,1,1.6,1.9,1.5c0.6,0,1.1-0.2,1.6-0.5l0.8,1.4c-0.8,0.6-1.8,0.9-2.8,0.9c-2.1,0.1-3.8-1.5-3.9-3.6
								C215.8,546.3,215.8,546.2,215.9,546.1z M220.7,545.2c0-0.8-0.3-1.3-1.2-1.3c-0.7,0-1.4,0.6-1.4,1.3H220.7z"/>
							<path class="st41" d="M224.3,542.3h1.9l0.2,1h0.1c0.6-0.7,1.5-1.1,2.4-1.1c1.6,0,2.4,1.2,2.4,3.1v4.7h-2.4v-4.4
								c0-1.1-0.3-1.4-0.9-1.4c-0.5,0-1,0.3-1.3,0.7v5.1h-2.4V542.3z"/>
							<path class="st41" d="M232.7,546.1c-0.1-2.1,1.6-3.9,3.7-4c0.1,0,0.2,0,0.3,0c0.8,0,1.6,0.3,2.2,0.8l-1.1,1.5
								c-0.3-0.2-0.6-0.4-1-0.4c-1.1,0-1.7,0.8-1.7,2.1s0.7,2.1,1.6,2.1c0.5,0,0.9-0.2,1.3-0.5l0.9,1.5c-0.7,0.6-1.6,0.9-2.5,0.9
								c-2,0.1-3.7-1.5-3.8-3.6C232.7,546.4,232.7,546.2,232.7,546.1z"/>
							<path class="st41" d="M239.6,546.1c-0.1-2.1,1.4-3.9,3.5-4h0.1c2.2,0,3.3,1.6,3.3,3.7c0,0.3,0,0.7-0.1,1h-4.5
								c0.1,0.9,1,1.6,1.9,1.5c0.6,0,1.1-0.2,1.6-0.5l0.8,1.4c-0.8,0.6-1.8,0.9-2.8,0.9c-2.1,0.1-3.8-1.5-3.9-3.6
								C239.6,546.3,239.6,546.2,239.6,546.1z M244.5,545.2c0-0.8-0.3-1.3-1.2-1.3c-0.7,0-1.4,0.6-1.4,1.3H244.5z"/>
							<polygon class="st42" points="183.8,242.6 160.9,344.6 271.9,483 344.3,165 							"/>
							<path class="st43" d="M198.7,308.8h2.9c3,0,5.1,1.5,5.1,5s-2,5-4.9,5h-3L198.7,308.8z M201.4,316.9c1.6,0,2.8-0.8,2.8-3.1
								s-1.2-3-2.8-3h-0.3v6.1H201.4z"/>
							<path class="st43" d="M208.2,308.9c-0.1-0.7,0.5-1.4,1.2-1.4c0.7-0.1,1.4,0.5,1.4,1.2c0.1,0.7-0.5,1.4-1.2,1.4h-0.1
								c-0.7,0.1-1.3-0.4-1.3-1.1C208.2,309,208.2,308.9,208.2,308.9z M208.3,311.2h2.4v7.6h-2.4V311.2z"/>
							<path class="st43" d="M212.1,320.1c0-0.7,0.5-1.3,1.1-1.5v-0.1c-0.4-0.3-0.7-0.8-0.7-1.3c0-0.6,0.4-1.1,0.8-1.4v-0.1
								c-0.6-0.5-1-1.2-1-2c0-1.9,1.5-2.8,3.2-2.8c0.4,0,0.8,0.1,1.2,0.2h2.8v1.7h-1.2c0.2,0.3,0.2,0.6,0.2,0.9c0,1.8-1.4,2.6-3,2.6
								c-0.3,0-0.6,0-0.9-0.1c-0.2,0.1-0.3,0.3-0.2,0.5c0,0.4,0.3,0.5,1.1,0.5h1.2c1.9,0,2.9,0.6,2.9,2c0,1.6-1.7,2.8-4.3,2.8
								C213.5,322,212.1,321.5,212.1,320.1z M217.3,319.7c0-0.5-0.4-0.6-1.1-0.6h-0.7c-0.4,0-0.7,0-1.1-0.1
								c-0.2,0.2-0.4,0.4-0.4,0.7c0,0.5,0.6,0.8,1.6,0.8S217.3,320.2,217.3,319.7L217.3,319.7z M216.4,313.8c0-0.8-0.4-1.2-1-1.2
								s-1,0.4-1,1.2s0.4,1.2,1,1.2S216.4,314.6,216.4,313.8z"/>
							<path class="st43" d="M220.6,308.9c-0.1-0.7,0.5-1.4,1.2-1.4c0.7-0.1,1.4,0.5,1.4,1.2c0.1,0.7-0.5,1.4-1.2,1.4h-0.1
								c-0.7,0.1-1.3-0.4-1.3-1.1C220.6,309,220.6,308.9,220.6,308.9z M220.7,311.2h2.4v7.6h-2.4V311.2z"/>
							<path class="st43" d="M225.3,316v-3h-1v-1.8l1.2-0.1l0.3-2.3h2v2.3h1.8v1.9h-1.8v3c0,0.9,0.4,1.2,1,1.2c0.2,0,0.5,0,0.7-0.1
								l0.4,1.7c-0.6,0.2-1.2,0.3-1.8,0.3C226.1,319,225.3,317.8,225.3,316z"/>
							<path class="st43" d="M230.5,316.7c0-1.6,1.2-2.5,4.2-2.8c-0.1-0.6-0.4-1-1.2-1c-0.7,0-1.4,0.3-2,0.6l-0.8-1.5
								c1-0.6,2.1-1,3.3-1c2,0,3.1,1.1,3.1,3.5v4.3h-1.9L235,318l0,0c-0.6,0.6-1.4,1-2.2,1c-1.2,0-2.3-0.9-2.3-2.1
								C230.5,316.8,230.5,316.8,230.5,316.7z M234.8,316.6v-1.2c-1.5,0.2-2,0.6-2,1.1s0.3,0.7,0.8,0.7
								C234.1,317.1,234.5,316.9,234.8,316.6z"/>
							<path class="st43" d="M238.9,316.4v-8.3h2.4v8.4c0,0.5,0.2,0.6,0.4,0.6c0.1,0,0.2,0,0.3,0l0.3,1.8c-0.4,0.1-0.8,0.2-1.2,0.2
								C239.5,319,238.9,318,238.9,316.4z"/>
							<path class="st43" d="M248.6,310.8h-2.7v-2h7.8v2H251v8h-2.4V310.8z"/>
							<path class="st43" d="M254.1,311.2h1.9l0.2,1.3h0.1c0.4-0.9,1.2-1.4,2.2-1.5c0.3,0,0.6,0,0.9,0.1l-0.5,2
								c-0.3-0.1-0.5-0.1-0.8-0.1c-0.8,0.1-1.5,0.6-1.7,1.4v4.4H254L254.1,311.2z"/>
							<path class="st43" d="M260.3,315.9v-4.7h2.4v4.4c0,1.1,0.3,1.4,0.9,1.4c0.5,0,1-0.3,1.3-0.8v-5h2.4v7.6h-1.9l-0.2-1H265
								c-0.6,0.8-1.4,1.2-2.4,1.2C261,319,260.3,317.8,260.3,315.9z"/>
							<path class="st43" d="M268.4,317.9l1-1.3c0.6,0.5,1.3,0.7,2,0.7c0.6,0,0.9-0.2,0.9-0.6s-0.6-0.7-1.5-1c-1.1-0.4-2-1.1-2-2.3
								c0-1.5,1.2-2.4,3-2.4c1,0,2,0.4,2.7,1l-1,1.3c-0.5-0.4-1-0.5-1.6-0.5s-0.8,0.2-0.8,0.5s0.4,0.6,1.4,0.9
								c1.2,0.4,2.1,1.1,2.1,2.3s-1.1,2.5-3.2,2.5C270.3,319,269.2,318.6,268.4,317.9z"/>
							<path class="st43" d="M276.4,316v-3h-1v-1.8l1.2-0.1l0.3-2.3h2v2.3h1.8v1.9h-1.8v3c0,0.9,0.4,1.2,1,1.2c0.2,0,0.5,0,0.7-0.1
								l0.4,1.7c-0.6,0.2-1.1,0.3-1.7,0.3C277.2,319,276.4,317.8,276.4,316z"/>
							<path class="st43" d="M193.2,332.3c0-1.2,0.7-2.3,1.8-2.8c-0.4-0.6-0.6-1.3-0.6-2.1c0-1.5,1.2-2.6,2.6-2.6c0.1,0,0.1,0,0.2,0
								c1.2-0.1,2.4,0.8,2.5,2c0,0.1,0,0.2,0,0.3c0,1.3-1,2.1-2.1,2.8c0.6,0.6,1.2,1.2,1.9,1.7c0.5-0.7,0.9-1.5,1.1-2.3h2.1
								c-0.3,1.2-0.9,2.3-1.6,3.3c0.5,0.3,1.1,0.5,1.7,0.6l-0.6,1.9c-0.9-0.2-1.8-0.5-2.6-1c-0.9,0.7-2,1-3.2,1
								C194.4,335.2,193.2,333.8,193.2,332.3z M196.9,333.4c0.4,0,0.8-0.1,1.2-0.3c-0.7-0.6-1.4-1.3-2-2c-0.4,0.3-0.6,0.7-0.6,1.1
								C195.5,332.9,196.1,333.4,196.9,333.4z M196.7,328.6c0.7-0.4,1.2-0.8,1.2-1.5c0-0.5-0.2-0.7-0.6-0.7s-0.9,0.4-0.9,1.1
								C196.4,327.8,196.5,328.2,196.7,328.6z"/>
							<path class="st43" d="M207.5,325h6.3v2h-3.9v1.9h3.4v2h-3.4v2.1h4.1v2h-6.5L207.5,325z"/>
							<path class="st43" d="M215.1,331.2c-0.1-2.1,1.6-3.9,3.7-4c0.1,0,0.2,0,0.3,0c0.8,0,1.6,0.3,2.2,0.8l-1.1,1.5
								c-0.3-0.2-0.6-0.4-1-0.4c-1.1,0-1.7,0.8-1.7,2.1s0.7,2.1,1.6,2.1c0.5,0,0.9-0.2,1.3-0.5l0.9,1.5c-0.7,0.6-1.6,0.9-2.5,0.9
								c-2,0.1-3.7-1.5-3.8-3.6C215.1,331.4,215.1,331.3,215.1,331.2z"/>
							<path class="st43" d="M222.1,331.2c0.1-2.1,1.9-3.6,4-3.5s3.6,1.9,3.5,4c-0.1,2-1.8,3.5-3.7,3.5c-2.1,0-3.7-1.7-3.7-3.7
								C222.1,331.3,222.1,331.2,222.1,331.2z M227.1,331.2c0-1.3-0.4-2.1-1.3-2.1s-1.3,0.8-1.3,2.1s0.4,2.1,1.3,2.1
								S227.1,332.4,227.1,331.2L227.1,331.2z"/>
							<path class="st43" d="M230.3,334l1-1.3c0.6,0.5,1.3,0.7,2,0.7c0.6,0,0.9-0.2,0.9-0.6s-0.6-0.7-1.5-1c-1.1-0.4-2-1.1-2-2.3
								c0-1.4,1.2-2.4,2.9-2.4c1,0,2,0.4,2.7,1l-1,1.3c-0.5-0.4-1.1-0.6-1.6-0.6c-0.6,0-0.8,0.2-0.8,0.6s0.4,0.6,1.4,0.9
								c1.2,0.4,2.1,1.1,2.1,2.3s-1.1,2.5-3.2,2.5C232.2,335.1,231.1,334.7,230.3,334z"/>
							<path class="st43" d="M237.7,337.7l0.4-1.8c0.2,0.1,0.3,0.1,0.5,0.1c0.6,0,1.1-0.4,1.3-0.9l0.1-0.4l-2.9-7.4h2.4l1,3.2
								c0.2,0.7,0.4,1.4,0.6,2.2h0.1c0.2-0.7,0.3-1.5,0.5-2.2l0.9-3.2h2.3l-2.6,7.7c-0.8,2-1.6,2.9-3.4,2.9
								C238.5,337.9,238.1,337.9,237.7,337.7z"/>
							<path class="st43" d="M245.1,334l1-1.3c0.6,0.5,1.3,0.7,2,0.7c0.6,0,0.9-0.2,0.9-0.6s-0.6-0.7-1.4-1c-1.1-0.4-2-1.1-2-2.3
								c0-1.4,1.2-2.4,2.9-2.4c1,0,2,0.4,2.7,1l-1,1.3c-0.5-0.4-1-0.6-1.6-0.6s-0.8,0.2-0.8,0.6s0.4,0.6,1.4,0.9
								c1.2,0.4,2.1,1.1,2.1,2.3s-1.1,2.5-3.2,2.5C247,335.1,246,334.7,245.1,334z"/>
							<path class="st43" d="M253.1,332.1v-2.9h-1v-1.8l1.2-0.1l0.3-2.3h2v2.3h1.8v1.9h-1.8v2.9c0,0.9,0.4,1.2,1,1.2
								c0.2,0,0.5,0,0.7-0.1l0.4,1.7c-0.6,0.2-1.1,0.3-1.7,0.3C253.9,335.2,253.1,334,253.1,332.1z"/>
							<path class="st43" d="M258.3,331.2c-0.1-2.1,1.4-3.9,3.5-4h0.1c2.2,0,3.3,1.6,3.3,3.7c0,0.4,0,0.7-0.1,1h-4.5
								c0.1,0.9,1,1.6,1.9,1.5c0.6,0,1.1-0.2,1.6-0.5l0.8,1.4c-0.8,0.6-1.8,0.9-2.8,0.9c-2.1,0.1-3.8-1.5-3.9-3.6
								C258.3,331.5,258.3,331.3,258.3,331.2z M263.1,330.3c0-0.8-0.3-1.3-1.2-1.3c-0.7,0-1.4,0.6-1.4,1.3H263.1z"/>
							<path class="st43" d="M266.7,327.4h1.9l0.2,1h0.1c0.6-0.7,1.4-1.1,2.3-1.1c0.9-0.1,1.7,0.4,2.1,1.3c0.6-0.7,1.4-1.2,2.4-1.3
								c1.6,0,2.4,1.2,2.4,3.1v4.8h-2.4v-4.4c0-1.1-0.3-1.4-0.9-1.4c-0.5,0.1-0.9,0.3-1.2,0.7v5.1h-2.4v-4.4c0-1.1-0.3-1.4-0.9-1.4
								c-0.5,0.1-0.9,0.3-1.2,0.7v5.1h-2.4V327.4z"/>
							<path class="st43" d="M279.2,334l1-1.3c0.6,0.5,1.3,0.7,2,0.7c0.6,0,0.9-0.2,0.9-0.6s-0.6-0.7-1.5-1c-1.1-0.4-2-1.1-2-2.3
								c0-1.4,1.2-2.4,2.9-2.4c1,0,2,0.4,2.7,1l-1,1.3c-0.5-0.4-1-0.6-1.6-0.6c-0.5,0-0.8,0.2-0.8,0.6s0.4,0.6,1.4,0.9
								c1.2,0.4,2.1,1.1,2.1,2.3s-1.1,2.5-3.2,2.5C281.1,335.2,280,334.7,279.2,334z"/>
							<polygon class="st44" points="607.8,272.2 620.9,251.2 619,266 							"/>
							<polygon class="st45" points="620.9,251.2 597.3,266 607.8,272.2 							"/>
							<polygon class="st46" points="602.5,268.6 616.1,244.3 607.8,247.4 							"/>
							<polygon class="st47" points="689.4,463 675.3,450.8 684.8,450.5 							"/>
							<polygon class="st48" points="679.7,441.5 675.3,450.8 684.8,450.5 							"/>
							<polygon class="st37" points="672.4,445 675.3,450.8 679.7,441.5 							"/>
							<polygon class="st37" points="658,452.7 670.7,449 673.6,454.8 							"/>
							<polygon class="st49" points="561.6,626.1 557.4,621.1 573,619.6 							"/>
							<polygon class="st50" points="540.1,616.9 547.5,628 556.7,625.4 							"/>
							<polygon class="st36" points="547.5,628 554.5,635.6 560.8,630.4 556.7,625.4 							"/>
							<polygon class="st51" points="334,644.7 349.6,644 345.8,638.8 							"/>
							<polygon class="st52" points="350.6,639.8 353.4,629.8 346.8,634.5 							"/>
							<polygon class="st39" points="360,637.8 350.6,639.8 353.4,629.8 							"/>
							<polygon class="st53" points="366.7,649.3 350.6,639.8 360,637.8 							"/>
							<polygon class="st54" points="225.1,481.6 199.8,486.4 218.2,472.7 							"/>
							<polygon class="st41" points="206.4,474.3 199.8,486.4 218.2,472.7 							"/>
							<polygon class="st55" points="201.7,494 221.6,477.6 209.9,494 							"/>
							<polygon class="st43" points="240.2,279.9 244.2,285 255.9,278.8 							"/>
							<polygon class="st56" points="223.1,275.1 230.1,286.4 239.4,284.2 							"/>
							<polygon class="st43" points="236.9,294.2 239.4,284.2 230.1,286.4 							"/>
							<polygon class="st57" points="243.4,289.3 239.4,284.2 236.9,294.2 							"/>
						</g>
						<polygon class="st11" points="426.5,185.2 421.9,173.8 440.3,188.8 						"/>
						<polygon class="st58" points="429.1,164.6 421.9,173.8 440.3,188.8 						"/>
						<polygon class="st59" points="447.4,185 445.4,176.8 426,169.2 						"/>
					</g>
				</g>
			</g>
		</g>
	</g>
</g>
</svg>
