<?xml version="1.0" encoding="utf-8"?>
<!-- Generator: Adobe Illustrator 24.3.0, SVG Export Plug-In . SVG Version: 6.00 Build 0)  -->
<svg version="1.1" id="Layer_1" xmlns="http://www.w3.org/2000/svg" xmlns:xlink="http://www.w3.org/1999/xlink" x="0px" y="0px"
	 viewBox="0 0 745 443" style="enable-background:new 0 0 745 443;" xml:space="preserve">
<style type="text/css">
	.st0{opacity:0.5;}
	.st1{clip-path:url(#SVGID_2_);}
	.st2{opacity:0.8;}
	.st3{fill:none;stroke:#99AFC1;stroke-width:1.68;stroke-miterlimit:10;}
	.st4{fill:none;stroke:#99AFC1;stroke-width:0.56;stroke-miterlimit:10;}
	.st5{fill:#99AFC1;}
	.st6{font-family:'SourceSansPro-SemiboldIt';}
	.st7{font-size:12.34px;}
	.st8{letter-spacing:2;}
	.st9{letter-spacing:3;}
	.st10{opacity:0.18;}
	.st11{fill:#FFFFFF;}
	.st12{opacity:5.000000e-02;fill:#FFFFFF;enable-background:new    ;}
	.st13{opacity:5.000000e-02;fill:#0F3A5D;enable-background:new    ;}
	.st14{fill:none;stroke:#3D3D3D;stroke-width:4.04;stroke-linecap:round;stroke-linejoin:round;stroke-dasharray:0,8.89;}
	.st15{fill:#E1523D;}
	.st16{font-family:'SourceSansPro-Bold';}
	.st17{font-size:12.91px;}
	.st18{font-size:12.8719px;}
	.st19{font-size:12.8271px;}
	.st20{font-size:12.8874px;}
	.st21{font-size:12.968px;}
	.st22{font-size:12.9442px;}
	.st23{font-size:12.8796px;}
	.st24{font-size:12.9261px;}
	.st25{font-size:12.8427px;}
	.st26{font-size:12.9158px;}
	.st27{font-size:12.9319px;}
	.st28{font-size:12.9744px;}
	.st29{opacity:0.3;}
	.st30{fill:none;stroke:#5781A6;stroke-width:1.62;stroke-miterlimit:10;}
	.st31{fill:none;stroke:#0067B1;stroke-width:1.62;stroke-miterlimit:10;}
	.st32{fill:none;stroke:#00C9D4;stroke-width:1.62;stroke-miterlimit:10;}
	.st33{fill:#5781A6;}
	.st34{font-size:15.35px;}
	.st35{fill:#00C9D4;}
	.st36{fill:#0067B1;}
	.st37{fill:none;stroke:#AFB2B3;stroke-width:1.62;stroke-miterlimit:10;}
	.st38{fill:#AFB2B3;}
	.st39{fill:none;stroke:#1BB680;stroke-width:1.62;stroke-miterlimit:10;}
	.st40{fill:#1BB680;}
	.st41{fill:none;stroke:#008FBE;stroke-width:1.62;stroke-miterlimit:10;}
	.st42{fill:#008FBE;}
	.st43{fill:#BDD5EA;}
	.st44{fill:#3F92C9;}
	.st45{fill:#B2EFF2;}
	.st46{fill:#9EEAEF;}
	.st47{fill:#D9DADB;}
	.st48{fill:#D1D0D0;}
	.st49{fill:#E0E0E0;}
	.st50{fill:#AFE5D3;}
	.st51{fill:#6BD0AC;}
	.st52{fill:#61BAD7;}
	.st53{fill:#ADDBEA;}
	.st54{fill:#B5C8D8;}
	.st55{fill:#90ACC4;}
	.st56{fill:#003763;stroke:#003763;stroke-width:1.62;stroke-miterlimit:10;}
	.st57{fill:#8097A9;}
	.st58{fill:#B7C4CE;}
</style>
<g>
	<g id="Layer_1_1_">
		<g class="st0">
			<g>
				<defs>
					<rect id="SVGID_1_" width="745" height="443"/>
				</defs>
				<clipPath id="SVGID_2_">
					<use xlink:href="#SVGID_1_"  style="overflow:visible;"/>
				</clipPath>
				<g class="st1">
					<g class="st2">
						<line class="st3" x1="378.2" y1="-35.8" x2="25.3" y2="575.4"/>
						<line class="st4" x1="383" y1="-27.5" x2="25.3" y2="575.4"/>
						<line class="st4" x1="25.3" y1="575.4" x2="388" y2="-18.8"/>
						<line class="st4" x1="25.3" y1="575.4" x2="397.8" y2="-1.8"/>
						<line class="st4" x1="25.3" y1="575.4" x2="393.2" y2="-9.8"/>
						<line class="st4" x1="30.1" y1="567.1" x2="731" y2="575.4"/>
						<line class="st4" x1="731" y1="575.4" x2="35.1" y2="558.4"/>
						<line class="st4" x1="731" y1="575.4" x2="45" y2="541.4"/>
						<line class="st4" x1="731" y1="575.4" x2="40.3" y2="549.4"/>
						<line class="st4" x1="721.4" y1="575.4" x2="378.2" y2="-35.8"/>
						<line class="st4" x1="378.2" y1="-35.8" x2="711.4" y2="575.4"/>
						<line class="st4" x1="378.2" y1="-35.8" x2="691.7" y2="575.4"/>
						<line class="st4" x1="378.2" y1="-35.8" x2="701" y2="575.4"/>
						<line class="st3" x1="731" y1="575.4" x2="378.2" y2="-35.8"/>
						<line class="st3" x1="25.3" y1="575.4" x2="731" y2="575.4"/>
						<text transform="matrix(0.5 -0.866 0.866 0.5 336.0699 19.1297)" class="st5 st6 st7 st8">C</text>
						<text transform="matrix(0.5 -0.866 0.866 0.5 340.855 10.8426)" class="st5 st6 st7 st9">OMP</text>
						<text transform="matrix(0.5 -0.866 0.866 0.5 357.64 -18.2307)" class="st5 st6 st7 st9">E</text>
						<text transform="matrix(0.5 -0.866 0.866 0.5 362.3651 -26.4143)" class="st5 st6 st7 st9">TE</text>
						<text transform="matrix(0.5 0.866 -0.866 0.5 704.3496 514.0999)" class="st5 st6 st7 st9">PR</text>
						<text transform="matrix(0.5 0.866 -0.866 0.5 714.6396 531.9229)" class="st5 st6 st7 st8">O</text>
						<text transform="matrix(0.5 0.866 -0.866 0.5 720.0947 541.3712)" class="st5 st6 st7 st9">T</text>
						<text transform="matrix(0.5 0.866 -0.866 0.5 724.9199 549.7283)" class="st5 st6 st7 st8">E</text>
						<text transform="matrix(0.5 0.866 -0.866 0.5 729.5547 557.7564)" class="st5 st6 st7 st8">C</text>
						<text transform="matrix(0.5 0.866 -0.866 0.5 734.4199 566.1827)" class="st5 st6 st7 st9">T</text>
						<text transform="matrix(1 0 0 1 25.3 591.68)" class="st5 st6 st7 st9">ADA</text>
						<text transform="matrix(1 0 0 1 55.56 591.68)" class="st5 st6 st7 st8">P</text>
						<text transform="matrix(1 0 0 1 65.29 591.68)" class="st5 st6 st7 st9">T</text>
					</g>
					<g class="st10">
						<path class="st11" d="M375.8,287.6c1.1,0,2.2,0,3.3,0.1l-3.6-5.8l-3.7,5.9C373.1,287.6,374.5,287.6,375.8,287.6z"/>
						<path class="st11" d="M324,312.5c0.7-0.9,1.4-1.7,2.1-2.6l-6.8-0.8l2.3,6.5C322.4,314.6,323.2,313.5,324,312.5z"/>
						<path class="st11" d="M311.2,368.5c-0.2-1.1-0.5-2.2-0.6-3.3l-4.9,4.8l6.5,2.3C311.9,371.1,311.5,369.8,311.2,368.5z"/>
						<path class="st11" d="M347,413.4c-1-0.5-2-1-3-1.5l0.8,6.8l5.9-3.7C349.4,414.5,348.2,414,347,413.4z"/>
						<path class="st11" d="M404.4,413.5c-1,0.5-2,0.9-3,1.4l5.8,3.7l0.8-6.9C406.8,412.3,405.6,412.9,404.4,413.5z"/>
						<path class="st11" d="M440.3,368.7c-0.3,1.1-0.5,2.2-0.8,3.2l6.5-2.2l-4.9-4.9C440.9,366.1,440.6,367.4,440.3,368.7z"/>
						<path class="st11" d="M427.7,312.7c0.7,0.9,1.4,1.8,2,2.7l2.3-6.5l-6.9,0.8C426,310.6,426.8,311.6,427.7,312.7z"/>
					</g>
					<polygon class="st12" points="310.2,403 408.7,275.3 464.1,361 					"/>
					<polygon class="st13" points="443.4,402.9 350.6,281.9 301.1,382.6 					"/>
					<polygon class="st12" points="390.8,259.6 294.3,407.6 456.2,392.5 					"/>
					<polygon class="st12" points="309.2,307.1 354.3,439.2 465.3,350.9 					"/>
					<path class="st14" d="M267.6,404.9c-17-34.9-16.1-75.9,2.4-110"/>
					<text transform="matrix(0.5589 0.8292 -0.8292 0.5589 271.8799 419.0999)" class="st15 st16 st17">R</text>
					<text transform="matrix(0.6346 0.7728 -0.7728 0.6346 278.8003 428.99)" class="st15 st16 st17">E</text>
					<text transform="matrix(0.7021 0.7121 -0.7121 0.7021 286.0205 437.4998)" class="st15 st16 st18">A</text>
					<text transform="matrix(0.7649 0.6441 -0.6441 0.7649 294.2492 445.5399)" class="st15 st16 st19">L</text>
					<text transform="matrix(0.8088 0.5881 -0.5881 0.8088 302.07 451.9199)" class="st15 st16 st17">-</text>
					<text transform="matrix(0.8486 0.5291 -0.5291 0.8486 308.1595 456.28)" class="st15 st16 st27">T</text>
					<text transform="matrix(0.888 0.4599 -0.4599 0.888 317.7601 461.98)" class="st15 st16 st17">I</text>
					<text transform="matrix(0.9257 0.3782 -0.3782 0.9257 324.9002 465.62)" class="st15 st16 st17">M</text>
					<text transform="matrix(0.96 0.28 -0.28 0.96 338.03 470.67)" class="st15 st16 st17">E</text>
					<text transform="matrix(0.9909 0.1349 -0.1349 0.9909 355.0399 474.87)" class="st15 st16 st17">D</text>
					
						<text transform="matrix(0.9992 3.996804e-02 -3.996804e-02 0.9992 367.1499 476.3097)" class="st15 st16" style="font-size:12.9203px;">A</text>
					<text transform="matrix(0.9991 -4.344502e-02 4.344502e-02 0.9991 377.61 476.59)" class="st15 st16 st17">T</text>
					<text transform="matrix(0.9914 -0.1312 0.1312 0.9914 388.34 475.97)" class="st15 st16 st17">A</text>
					<text transform="matrix(0.9627 -0.2707 0.2707 0.9627 405.9501 472.8706)" class="st15 st16" style="font-size:12.8744px;">A</text>
					<text transform="matrix(0.9294 -0.3691 0.3691 0.9294 417.0101 469.5301)" class="st15 st16 st17">N</text>
					<text transform="matrix(0.8881 -0.4597 0.4597 0.8881 428.7599 464.6099)" class="st15 st16 st17">A</text>
					<text transform="matrix(0.8425 -0.5388 0.5388 0.8425 438.89 459.1302)" class="st15 st16 st17">L</text>
					<text transform="matrix(0.8 -0.6 0.6 0.8 446.9001 453.8801)" class="st15 st16 st17">Y</text>
					<text transform="matrix(0.7413 -0.6712 0.6712 0.7413 455.2897 447.3388)" class="st15 st16 st20">T</text>
					<text transform="matrix(0.6869 -0.7267 0.7267 0.6869 463.4199 439.6908)" class="st15 st16 st21">I</text>
					<text transform="matrix(0.6283 -0.7779 0.7779 0.6283 468.8196 433.8694)" class="st15 st16 st22">C</text>
					<text transform="matrix(0.556 -0.8312 0.8312 0.556 475.71 425.0603)" class="st15 st16 st17">S</text>
					<text transform="matrix(0.6 -0.8 0.8 0.6 279.09 286.1203)" class="st15 st16 st17">R</text>
					<text transform="matrix(0.6712 -0.7413 0.7413 0.6712 285.7994 277.4795)" class="st15 st16 st20">E</text>
					<text transform="matrix(0.7317 -0.6816 0.6816 0.7317 292.64 270.0998)" class="st15 st16 st23">A</text>
					<text transform="matrix(0.787 -0.6169 0.6169 0.787 300.3701 263.0999)" class="st15 st16 st17">L</text>
					<text transform="matrix(0.829 -0.5593 0.5593 0.829 307.7201 257.4901)" class="st15 st16 st24">-</text>
					<text transform="matrix(0.8645 -0.5026 0.5026 0.8645 313.2101 253.7905)" class="st15 st16 st25">T</text>
					<text transform="matrix(0.898 -0.4401 0.4401 0.898 322.1299 248.7799)" class="st15 st16 st17">I</text>
					<text transform="matrix(0.9318 -0.3629 0.3629 0.9318 328.35 245.73)" class="st15 st16 st17">M</text>
					<text transform="matrix(0.9627 -0.2706 0.2706 0.9627 340.36 241.28)" class="st15 st16 st17">E</text>
					<text transform="matrix(0.9909 -0.1345 0.1345 0.9909 355.69 237.56)" class="st15 st16 st17">D</text>
					<text transform="matrix(0.999 -4.501428e-02 4.501428e-02 0.999 366.66 236.22)" class="st15 st16 st17">A</text>
					<text transform="matrix(0.9996 2.998651e-02 -2.998651e-02 0.9996 376.1394 235.8801)" class="st15 st16 st26">T</text>
					<text transform="matrix(0.9934 0.1148 -0.1148 0.9934 385.8 236.29)" class="st15 st16 st17">A</text>
					<text transform="matrix(0.9684 0.2496 -0.2496 0.9684 401.7497 238.7301)" class="st15 st16 st27">A</text>
					<text transform="matrix(0.9408 0.3389 -0.3389 0.9408 411.7698 241.43)" class="st15 st16 st17">N</text>
					<text transform="matrix(0.9051 0.4251 -0.4251 0.9051 422.5698 245.4901)" class="st15 st16 st17">A</text>
					<text transform="matrix(0.8655 0.5009 -0.5009 0.8655 431.9401 250.0501)" class="st15 st16 st17">L</text>
					<text transform="matrix(0.829 0.5593 -0.5593 0.829 439.3894 254.4402)" class="st15 st16 st24">Y</text>
					<text transform="matrix(0.777 0.6295 -0.6295 0.777 447.2601 259.9401)" class="st15 st16 st17">T</text>
					<text transform="matrix(0.7317 0.6816 -0.6816 0.7317 455.1194 266.5207)" class="st15 st16 st23">I</text>
					<text transform="matrix(0.6766 0.7363 -0.7363 0.6766 460.17 271.3304)" class="st15 st16 st28">C</text>
					<text transform="matrix(0.6129 0.7902 -0.7902 0.6129 466.9503 278.8599)" class="st15 st16 st17">S</text>
					<path class="st14" d="M484,404.9c17-34.9,16.1-75.9-2.4-110"/>
					<g class="st29">
						<polygon class="st30" points="378.2,26.9 284,72.3 244.6,245.2 537.9,103.9 						"/>
						<polygon class="st31" points="694.9,423.8 671.6,322 511.7,245.2 584.5,562.5 						"/>
						<polygon class="st32" points="519.5,644.3 584.5,562.5 544.8,389.6 342.2,644.6 						"/>
						<text transform="matrix(1 0 0 1 307.24 120.12)" class="st33 st16 st34">E</text>
						<text transform="matrix(1 0 0 1 315.57 120.12)" class="st33 st16 st34">s</text>
						<text transform="matrix(1 0 0 1 322.26 120.12)" class="st33 st16 st34">c</text>
						<text transform="matrix(1 0 0 1 329.2 120.12)" class="st33 st16 st34">a</text>
						<text transform="matrix(1 0 0 1 337.12 120.12)" class="st33 st16 st34">l</text>
						<text transform="matrix(1 0 0 1 341.42 120.12)" class="st33 st16 st34">a</text>
						<text transform="matrix(1 0 0 1 349.32 120.12)" class="st33 st16 st34">t</text>
						<text transform="matrix(1 0 0 1 355.13 120.12)" class="st33 st16 st34">i</text>
						<text transform="matrix(1 0 0 1 359.2 120.12)" class="st33 st16 st34">o</text>
						<text transform="matrix(1 0 0 1 367.58 120.12)" class="st33 st16 st34">n </text>
						<text transform="matrix(1 0 0 1 379.17 120.12)" class="st33 st16 st34">P</text>
						<text transform="matrix(1 0 0 1 388.06 120.12)" class="st33 st16 st34">l</text>
						<text transform="matrix(1 0 0 1 392.36 120.12)" class="st33 st16 st34">a</text>
						<text transform="matrix(1 0 0 1 400.32 120.12)" class="st33 st16 st34">n</text>
						<text transform="matrix(1 0 0 1 408.98 120.12)" class="st33 st16 st34">n</text>
						<text transform="matrix(1 0 0 1 417.62 120.12)" class="st33 st16 st34">in</text>
						<text transform="matrix(1 0 0 1 430.33 120.12)" class="st33 st16 st34">g </text>
						<text transform="matrix(1 0 0 1 334.3 136.28)" class="st33 st16 st34">&amp; </text>
						<text transform="matrix(1 0 0 1 347.42 136.28)" class="st33 st16 st34">R</text>
						<text transform="matrix(1 0 0 1 356.66 136.28)" class="st33 st16 st34">e</text>
						<text transform="matrix(1 0 0 1 364.43 136.28)" class="st33 st16 st34">s</text>
						<text transform="matrix(1 0 0 1 371.18 136.28)" class="st33 st16 st34">p</text>
						<text transform="matrix(1 0 0 1 379.85 136.28)" class="st33 st16 st34">o</text>
						<text transform="matrix(1 0 0 1 388.22 136.28)" class="st33 st16 st34">n</text>
						<text transform="matrix(1 0 0 1 396.85 136.28)" class="st33 st16 st34">se</text>
						<path class="st35" d="M430.9,559.1h6.3v2h-3.9v1.9h3.4v2h-3.4v2.1h4.1v2h-6.5L430.9,559.1z"/>
						<path class="st35" d="M438.5,565.2c-0.1-2.1,1.6-3.9,3.7-4c0.1,0,0.2,0,0.3,0c0.8,0,1.6,0.3,2.2,0.8l-1.1,1.5
							c-0.3-0.2-0.6-0.4-1-0.4c-1.1,0-1.7,0.8-1.7,2.1s0.7,2.1,1.6,2.1c0.5,0,0.9-0.2,1.3-0.5l0.9,1.5c-1.6,1.4-4,1.2-5.4-0.5
							C438.8,567.1,438.4,566.2,438.5,565.2L438.5,565.2z"/>
						<path class="st35" d="M445.5,565.2c0.1-2.1,1.9-3.6,4-3.5s3.6,1.9,3.5,4c-0.1,2-1.8,3.5-3.8,3.5c-2.1,0-3.7-1.7-3.7-3.7
							C445.5,565.4,445.5,565.3,445.5,565.2z M450.5,565.2c0-1.3-0.4-2.1-1.3-2.1s-1.3,0.8-1.3,2.1s0.4,2.1,1.3,2.1
							S450.5,566.5,450.5,565.2L450.5,565.2z"/>
						<path class="st35" d="M454.4,561.4h1.9l0.2,1h0.1c0.6-0.7,1.5-1.1,2.4-1.1c1.7,0,2.4,1.2,2.4,3.1v4.7H459v-4.4
							c0-1.1-0.3-1.4-0.9-1.4c-0.5,0-1,0.3-1.3,0.7v5.1h-2.4L454.4,561.4z"/>
						<path class="st35" d="M462.8,565.2c0.1-2.1,1.9-3.6,4-3.5s3.6,1.9,3.5,4c-0.1,2-1.8,3.5-3.8,3.5c-2.1,0-3.7-1.7-3.7-3.7
							C462.8,565.4,462.8,565.3,462.8,565.2z M467.8,565.2c0-1.3-0.4-2.1-1.3-2.1s-1.3,0.8-1.3,2.1s0.4,2.1,1.3,2.1
							S467.9,566.5,467.8,565.2L467.8,565.2z"/>
						<path class="st35" d="M471.8,561.4h1.9l0.2,1h0.1c0.6-0.7,1.4-1.1,2.3-1.1c0.9-0.1,1.7,0.4,2.1,1.2c0.6-0.7,1.4-1.2,2.4-1.2
							c1.7,0,2.4,1.2,2.4,3.1v4.7h-2.4v-4.4c0-1.1-0.3-1.4-0.9-1.4c-0.5,0.1-0.9,0.3-1.2,0.7v5.1h-2.4v-4.4c0-1.1-0.3-1.4-0.9-1.4
							c-0.5,0.1-0.9,0.3-1.2,0.7v5.1h-2.4V561.4z"/>
						<path class="st35" d="M484.8,559.1c-0.1-0.7,0.5-1.4,1.2-1.5s1.4,0.5,1.5,1.2c0.1,0.7-0.5,1.4-1.2,1.5c0,0-0.1,0-0.1,0
							c-0.7,0.1-1.3-0.4-1.3-1.1C484.8,559.2,484.8,559.2,484.8,559.1z M485,561.4h2.4v7.6H485L485,561.4z"/>
						<path class="st35" d="M488.8,565.2c-0.1-2.1,1.6-3.9,3.7-4c0.1,0,0.2,0,0.3,0c0.8,0,1.6,0.3,2.2,0.8l-1.1,1.5
							c-0.3-0.2-0.6-0.4-1-0.4c-1.1,0-1.7,0.8-1.7,2.1s0.7,2.1,1.6,2.1c0.5,0,0.9-0.2,1.3-0.5l0.9,1.5c-0.7,0.6-1.6,0.9-2.5,0.9
							c-2,0.1-3.7-1.6-3.8-3.6C488.7,565.5,488.7,565.4,488.8,565.2z"/>
						<path class="st35" d="M499.6,559.1h2.4v10h-2.4L499.6,559.1z"/>
						<path class="st35" d="M504.1,561.4h1.9l0.2,1h0.1c0.6-0.7,1.4-1.1,2.3-1.1c0.9-0.1,1.7,0.4,2.1,1.2c0.6-0.7,1.4-1.2,2.4-1.2
							c1.7,0,2.4,1.2,2.4,3.1v4.7h-2.4v-4.4c0-1.1-0.3-1.4-0.9-1.4c-0.5,0.1-0.9,0.3-1.2,0.7v5.1h-2.4v-4.4c0-1.1-0.3-1.4-0.9-1.4
							c-0.5,0.1-0.9,0.3-1.2,0.7v5.1h-2.4V561.4z"/>
						<path class="st35" d="M517.3,561.4h1.9l0.2,0.7h0.1c0.6-0.6,1.3-0.9,2.1-0.9c1.8,0,3,1.5,3,3.9c0,2.6-1.5,4.1-3.2,4.1
							c-0.7,0-1.3-0.3-1.8-0.8l0.1,1.2v2.2h-2.4L517.3,561.4z M522.2,565.1c0-1.3-0.4-2-1.2-2c-0.5,0-0.9,0.3-1.2,0.6v3
							c0.3,0.3,0.7,0.4,1.2,0.4C521.6,567.3,522.2,566.7,522.2,565.1L522.2,565.1z"/>
						<path class="st35" d="M525.7,566.9c0-1.6,1.2-2.5,4.2-2.8c-0.1-0.6-0.4-1-1.2-1c-0.7,0-1.4,0.3-2,0.7l-0.8-1.5
							c1-0.6,2.1-1,3.3-1c2,0,3.1,1.1,3.1,3.5v4.3h-1.9l-0.2-0.8h-0.1c-0.6,0.6-1.4,1-2.2,1c-1.2,0-2.2-0.9-2.3-2.2
							C525.7,567.1,525.7,567,525.7,566.9z M530,566.8v-1.2c-1.5,0.2-2,0.6-2,1.2s0.3,0.7,0.8,0.7
							C529.2,567.4,529.7,567.2,530,566.8L530,566.8z"/>
						<path class="st35" d="M533.7,565.2c-0.1-2.1,1.6-3.9,3.7-4c0.1,0,0.2,0,0.3,0c0.8,0,1.6,0.3,2.2,0.8l-1.1,1.5
							c-0.3-0.2-0.6-0.4-1-0.4c-1.1,0-1.7,0.8-1.7,2.1s0.7,2.1,1.6,2.1c0.5,0,0.9-0.2,1.3-0.5l0.9,1.5c-1.6,1.4-4,1.2-5.4-0.5
							C534,567.1,533.6,566.2,533.7,565.2L533.7,565.2z"/>
						<path class="st35" d="M541.8,566.2v-2.9h-1v-1.8l1.2-0.1l0.3-2.3h2v2.3h1.7v1.9h-1.8v2.9c0,0.9,0.4,1.2,1,1.2
							c0.2,0,0.5,0,0.7-0.1l0.4,1.7c-0.6,0.2-1.1,0.3-1.7,0.3C542.6,569.2,541.8,568,541.8,566.2z"/>
						<path class="st35" d="M434.1,582.5c0-1.2,0.7-2.3,1.8-2.8c-0.4-0.6-0.6-1.3-0.6-2.1c0-1.5,1.2-2.6,2.6-2.6c0.1,0,0.1,0,0.2,0
							c1.2-0.1,2.4,0.7,2.5,2c0,0.1,0,0.2,0,0.3c0,1.3-1,2.1-2.1,2.8c0.6,0.6,1.2,1.2,1.9,1.7c0.5-0.7,0.9-1.5,1.1-2.3h2.1
							c-0.4,1.2-0.9,2.3-1.7,3.3c0.5,0.3,1.1,0.5,1.7,0.6l-0.6,1.9c-0.9-0.2-1.8-0.5-2.6-1c-0.9,0.7-2,1-3.2,1
							C435.2,585.4,434.1,584.1,434.1,582.5z M437.8,583.6c0.4,0,0.8-0.1,1.2-0.3c-0.7-0.6-1.4-1.3-2-2c-0.4,0.3-0.6,0.7-0.6,1.1
							C436.3,583.1,436.9,583.6,437.8,583.6z M437.5,578.8c0.7-0.4,1.2-0.8,1.2-1.5c0-0.5-0.2-0.7-0.7-0.7s-0.9,0.4-0.9,1.1
							C437.3,578.1,437.4,578.5,437.5,578.8L437.5,578.8z"/>
						<path class="st35" d="M447.7,583.9l1.3-1.5c0.7,0.6,1.6,1,2.5,1c0.9,0,1.3-0.3,1.3-0.9s-0.5-0.8-1.4-1.1l-1.3-0.6
							c-1.2-0.4-2-1.5-2-2.7c0-1.7,1.5-3,3.6-3c1.2,0,2.4,0.4,3.2,1.2l-1.2,1.5c-0.6-0.4-1.3-0.7-2-0.7c-0.7,0-1.2,0.3-1.2,0.8
							s0.6,0.8,1.5,1.1l1.2,0.5c1.2,0.3,2,1.5,2,2.7c0,1.7-1.4,3.1-3.8,3.1C450,585.5,448.7,584.9,447.7,583.9z"/>
						<path class="st35" d="M456.6,582.3v-4.7h2.4v4.4c0,1.1,0.3,1.4,0.9,1.4c0.5,0,1-0.3,1.3-0.8v-5h2.4v7.6h-1.9l-0.2-1h-0.1
							c-0.6,0.7-1.4,1.2-2.4,1.2C457.3,585.4,456.6,584.2,456.6,582.3z"/>
						<path class="st35" d="M464.7,584.2l1-1.3c0.6,0.5,1.3,0.7,2,0.7c0.6,0,0.9-0.2,0.9-0.6s-0.6-0.7-1.5-1c-1.1-0.4-2-1.1-2-2.3
							c0-1.4,1.2-2.4,3-2.4c1,0,2,0.4,2.7,1l-1,1.3c-0.5-0.4-1.1-0.5-1.6-0.5c-0.5,0-0.8,0.2-0.8,0.5s0.4,0.6,1.4,0.9
							c1.2,0.4,2.1,1.1,2.1,2.3s-1.1,2.5-3.2,2.5C466.6,585.4,465.6,585,464.7,584.2z"/>
						<path class="st35" d="M472.7,582.4v-3h-1v-1.8l1.2-0.1l0.3-2.3h2v2.3h1.8v1.8h-1.8v2.9c0,0.9,0.4,1.2,1,1.2
							c0.2,0,0.5,0,0.7-0.1l0.4,1.7c-0.6,0.2-1.1,0.3-1.7,0.3C473.5,585.4,472.7,584.2,472.7,582.4z"/>
						<path class="st35" d="M478,583.1c0-1.6,1.2-2.5,4.3-2.8c0-0.6-0.4-1-1-1c-0.1,0-0.1,0-0.2,0c-0.7,0-1.4,0.3-2,0.6l-0.8-1.5
							c1-0.6,2.1-1,3.3-1c2,0,3.1,1.1,3.1,3.5v4.3h-1.9l-0.2-0.8h-0.1c-0.6,0.6-1.4,0.9-2.2,1c-1.2,0-2.2-0.9-2.3-2.2
							C478,583.2,478,583.1,478,583.1z M482.3,583v-1.2c-1.5,0.2-2,0.6-2,1.2s0.3,0.7,0.8,0.7C481.5,583.5,481.9,583.3,482.3,583
							L482.3,583z"/>
						<path class="st35" d="M486.2,575.3c-0.1-0.7,0.5-1.4,1.2-1.4c0.7-0.1,1.4,0.5,1.4,1.2s-0.5,1.4-1.2,1.4c0,0-0.1,0-0.1,0
							c-0.7,0.1-1.3-0.4-1.3-1.1C486.2,575.4,486.2,575.3,486.2,575.3z M486.4,577.6h2.4v7.6h-2.4V577.6z"/>
						<path class="st35" d="M490.6,577.6h1.9l0.2,1h0.1c0.6-0.7,1.5-1.1,2.4-1.1c1.7,0,2.4,1.2,2.4,3.1v4.7h-2.4v-4.4
							c0-1-0.3-1.4-0.9-1.4c-0.5,0-1,0.3-1.3,0.7v5.1h-2.4V577.6z"/>
						<path class="st35" d="M499,583.1c0-1.6,1.2-2.5,4.3-2.8c0-0.6-0.4-1-1-1c-0.1,0-0.1,0-0.2,0c-0.7,0-1.4,0.3-2,0.6l-0.8-1.5
							c1-0.6,2.1-1,3.3-1c2,0,3.1,1.1,3.1,3.5v4.3h-1.9l-0.2-0.8h-0.1c-0.6,0.6-1.4,0.9-2.2,1c-1.2,0-2.2-0.9-2.3-2.2
							C499,583.2,499,583.1,499,583.1z M503.3,583v-1.2c-1.5,0.2-2,0.6-2,1.2s0.3,0.7,0.8,0.7C502.5,583.6,503,583.4,503.3,583
							L503.3,583z"/>
						<path class="st35" d="M509.6,584.4L509.6,584.4l-0.2,0.8h-1.9v-10.7h2.4v2.6v1.2c0.5-0.5,1.3-0.8,2-0.8c1.8,0,3,1.5,3,3.9
							c0,2.6-1.5,4.1-3.2,4.1C510.8,585.4,510.1,585,509.6,584.4z M512.3,581.3c0-1.3-0.4-2-1.2-2c-0.5,0-0.9,0.3-1.2,0.6v3
							c0.3,0.3,0.7,0.5,1.1,0.5C511.7,583.5,512.3,582.8,512.3,581.3L512.3,581.3z"/>
						<path class="st35" d="M516.1,575.3c-0.1-0.7,0.5-1.4,1.2-1.4c0.7-0.1,1.4,0.5,1.4,1.2c0.1,0.7-0.5,1.4-1.2,1.4
							c0,0-0.1,0-0.1,0c-0.7,0.1-1.3-0.4-1.3-1.1C516.1,575.4,516.1,575.3,516.1,575.3z M516.2,577.6h2.4v7.6h-2.4V577.6z"/>
						<path class="st35" d="M520.5,582.7v-8.2h2.4v8.3c0,0.5,0.2,0.6,0.4,0.6c0.1,0,0.2,0,0.3,0l0.3,1.8c-0.4,0.1-0.8,0.2-1.2,0.2
							C521,585.4,520.5,584.3,520.5,582.7z"/>
						<path class="st35" d="M524.8,575.3c-0.1-0.7,0.5-1.4,1.2-1.4c0.7-0.1,1.4,0.5,1.4,1.2c0.1,0.7-0.5,1.4-1.2,1.4
							c0,0-0.1,0-0.1,0c-0.7,0.1-1.3-0.4-1.3-1.1C524.8,575.4,524.8,575.3,524.8,575.3z M525,577.6h2.4v7.6H525L525,577.6z"/>
						<path class="st35" d="M529.5,582.4v-3h-1v-1.8l1.2-0.1l0.3-2.3h2v2.3h1.8v1.8H532v2.9c0,0.9,0.4,1.2,1,1.2
							c0.2,0,0.5,0,0.7-0.1l0.4,1.7c-0.6,0.2-1.1,0.3-1.7,0.3C530.3,585.4,529.5,584.2,529.5,582.4z"/>
						<path class="st35" d="M535.2,588l0.4-1.8c0.2,0,0.3,0.1,0.5,0.1c0.6,0,1.1-0.3,1.3-0.9l0.1-0.4l-2.9-7.4h2.4l1,3.2
							c0.2,0.7,0.4,1.4,0.6,2.2h0.1c0.2-0.7,0.3-1.4,0.5-2.2l0.9-3.2h2.3l-2.6,7.6c-0.8,2-1.6,2.9-3.4,2.9
							C535.9,588.2,535.5,588.1,535.2,588z"/>
						<path class="st36" d="M577.2,386.3c0-3.3,2.2-5.2,4.9-5.2c1.2,0,2.4,0.4,3.2,1.3l-1.3,1.4c-0.5-0.5-1.2-0.7-1.9-0.7
							c-1.5,0-2.5,1.2-2.5,3.1s0.9,3.1,2.8,3.1c0.4,0,0.7-0.1,1-0.3v-1.6h-1.6v-2h3.7v4.7c-0.9,0.8-2.1,1.2-3.3,1.2
							C579.4,391.4,577.2,389.7,577.2,386.3z"/>
						<path class="st36" d="M586.9,387.4c0.1-2.1,1.9-3.6,4-3.5c2.1,0.1,3.6,1.9,3.5,4c-0.1,2-1.8,3.5-3.7,3.5
							c-2.1,0-3.7-1.7-3.7-3.7C586.9,387.6,586.9,387.5,586.9,387.4z M591.9,387.4c0-1.3-0.4-2.1-1.3-2.1s-1.3,0.8-1.3,2.1
							s0.4,2.1,1.3,2.1S592,388.7,591.9,387.4L591.9,387.4z"/>
						<path class="st36" d="M594.9,383.6h2.4l1,3.5c0.2,0.8,0.4,1.5,0.6,2.3h0.1c0.2-0.8,0.4-1.6,0.6-2.3l0.9-3.5h2.3l-2.5,7.6h-2.8
							L594.9,383.6z"/>
						<path class="st36" d="M603.1,387.4c-0.1-2.1,1.4-3.9,3.5-4c0,0,0.1,0,0.1,0c2.2,0,3.3,1.6,3.3,3.7c0,0.3,0,0.7-0.1,1h-4.5
							c0.1,0.9,1,1.6,1.9,1.5c0.6,0,1.1-0.2,1.6-0.5l0.8,1.4c-0.8,0.6-1.8,0.9-2.8,0.9c-2,0.1-3.8-1.5-3.9-3.5
							C603.1,387.7,603.1,387.5,603.1,387.4z M607.9,386.5c0-0.8-0.3-1.3-1.2-1.3c-0.7,0-1.4,0.6-1.4,1.3H607.9z"/>
						<path class="st36" d="M611.5,383.6h1.9l0.2,1.3h0.1c0.4-0.9,1.2-1.4,2.2-1.5c0.3,0,0.6,0,0.9,0.1l-0.5,2
							c-0.3-0.1-0.5-0.1-0.8-0.1c-0.8,0.1-1.5,0.6-1.7,1.4v4.4h-2.4V383.6z"/>
						<path class="st36" d="M617.8,383.6h1.9l0.2,1h0.1c0.6-0.7,1.5-1.1,2.4-1.1c1.7,0,2.4,1.2,2.4,3.1v4.7h-2.4v-4.4
							c0-1.1-0.3-1.4-0.9-1.4c-0.5,0-1,0.3-1.3,0.7v5.1h-2.4L617.8,383.6z"/>
						<path class="st36" d="M626.6,383.6h1.9l0.2,1h0.1c0.6-0.7,1.4-1.1,2.3-1.1c0.9-0.1,1.7,0.4,2.1,1.2c0.6-0.7,1.4-1.2,2.4-1.2
							c1.7,0,2.4,1.2,2.4,3.1v4.7h-2.4v-4.4c0-1.1-0.3-1.4-0.9-1.4c-0.5,0.1-0.9,0.3-1.2,0.7v5.1H631v-4.4c0-1.1-0.3-1.4-0.9-1.4
							c-0.5,0.1-0.9,0.3-1.2,0.7v5.1h-2.4L626.6,383.6z"/>
						<path class="st36" d="M639.3,387.4c-0.1-2.1,1.4-3.9,3.5-4c0,0,0.1,0,0.1,0c2.2,0,3.3,1.6,3.3,3.7c0,0.3,0,0.7-0.1,1h-4.5
							c0.1,0.9,1,1.6,1.9,1.5c0.6,0,1.1-0.2,1.6-0.5l0.8,1.4c-0.8,0.6-1.8,0.9-2.8,0.9c-2,0.1-3.8-1.5-3.9-3.5
							C639.3,387.7,639.3,387.5,639.3,387.4z M644.2,386.5c0-0.8-0.3-1.3-1.2-1.3c-0.7,0-1.3,0.6-1.4,1.3H644.2z"/>
						<path class="st36" d="M647.8,383.6h1.9l0.2,1h0.1c0.6-0.7,1.5-1.1,2.4-1.1c1.7,0,2.4,1.2,2.4,3.1v4.7h-2.4v-4.4
							c0-1.1-0.3-1.4-0.9-1.4c-0.5,0-1,0.3-1.3,0.7v5.1h-2.4L647.8,383.6z"/>
						<path class="st36" d="M656.9,388.4v-2.9h-1v-1.8l1.2-0.1l0.3-2.3h2v2.3h1.7v1.9h-1.8v2.9c0,0.9,0.4,1.2,1,1.2
							c0.2,0,0.5,0,0.7-0.1l0.4,1.7c-0.6,0.2-1.1,0.3-1.7,0.3C657.6,391.4,656.9,390.2,656.9,388.4z"/>
						<path class="st36" d="M571,404.7c0-1.2,0.7-2.3,1.8-2.8c-0.4-0.6-0.6-1.3-0.6-2.1c0-1.4,1.1-2.6,2.6-2.6c0.1,0,0.1,0,0.2,0
							c1.2-0.1,2.4,0.7,2.5,2c0,0.1,0,0.2,0,0.3c0,1.3-1,2.1-2.1,2.8c0.6,0.6,1.2,1.2,1.9,1.7c0.5-0.7,0.9-1.5,1.1-2.3h2.2
							c-0.4,1.2-0.9,2.3-1.7,3.3c0.5,0.3,1.1,0.5,1.7,0.6l-0.6,1.9c-0.9-0.2-1.8-0.5-2.6-1c-0.9,0.7-2,1-3.2,1
							C572.1,407.6,571,406.2,571,404.7z M574.7,405.8c0.4,0,0.8-0.1,1.2-0.3c-0.7-0.6-1.4-1.3-2-2c-0.4,0.3-0.6,0.7-0.6,1.1
							C573.2,405.3,573.8,405.8,574.7,405.8L574.7,405.8z M574.5,401c0.7-0.4,1.2-0.8,1.2-1.5c0-0.5-0.2-0.7-0.7-0.7
							s-0.9,0.4-0.9,1.1C574.2,400.3,574.3,400.6,574.5,401L574.5,401z"/>
						<path class="st36" d="M584.6,406.1l1.3-1.5c0.7,0.6,1.6,0.9,2.5,1c0.9,0,1.3-0.3,1.3-0.9s-0.5-0.8-1.4-1.1L587,403
							c-1.2-0.4-2-1.5-2-2.7c0-1.7,1.5-3,3.6-3c1.2,0,2.4,0.4,3.2,1.2l-1.3,1.5c-0.6-0.4-1.3-0.7-2-0.7c-0.7,0-1.2,0.3-1.2,0.8
							s0.6,0.8,1.5,1.1l1.2,0.5c1.2,0.3,2,1.5,2,2.7c0,1.7-1.4,3.1-3.8,3.1C586.9,407.6,585.6,407.1,584.6,406.1z"/>
						<path class="st36" d="M593.8,404.6v-3h-1v-1.8l1.2-0.1l0.3-2.3h2v2.3h1.8v1.9h-1.8v2.9c0,0.9,0.4,1.2,1,1.2
							c0.2,0,0.5,0,0.7-0.1l0.4,1.6c-0.6,0.2-1.1,0.3-1.7,0.3C594.5,407.6,593.8,406.4,593.8,404.6z"/>
						<path class="st36" d="M599,405.2c0-1.6,1.2-2.5,4.2-2.8c0-0.6-0.4-1-1-1c-0.1,0-0.1,0-0.2,0c-0.7,0-1.4,0.3-2,0.6l-0.8-1.5
							c1-0.6,2.1-1,3.3-1c2,0,3.1,1.1,3.1,3.5v4.3h-1.9l-0.2-0.8h-0.1c-0.6,0.6-1.4,0.9-2.2,1c-1.2,0-2.2-0.9-2.3-2.1
							C599,405.4,599,405.3,599,405.2z M603.2,405.1v-1.2c-1.5,0.2-2,0.6-2,1.1s0.3,0.7,0.8,0.7
							C602.5,405.7,602.9,405.5,603.2,405.1L603.2,405.1z"/>
						<path class="st36" d="M607.4,396.7h2.3v6h0l2.3-2.9h2.6L612,403l2.8,4.5h-2.6l-1.7-2.9l-0.9,1v1.9h-2.3L607.4,396.7z"/>
						<path class="st36" d="M615.2,403.6c-0.1-2.1,1.4-3.9,3.5-4c0,0,0.1,0,0.1,0c2.2,0,3.3,1.6,3.3,3.7c0,0.4,0,0.7-0.1,1h-4.5
							c0.1,0.9,1,1.6,1.9,1.5c0.6,0,1.1-0.2,1.6-0.5l0.8,1.4c-0.8,0.6-1.8,0.9-2.8,0.9c-2.1,0.1-3.8-1.5-3.9-3.6
							C615.2,403.9,615.2,403.7,615.2,403.6z M620,402.7c0-0.8-0.3-1.3-1.2-1.3c-0.7,0-1.3,0.6-1.4,1.3H620z"/>
						<path class="st36" d="M623.6,396.7h2.4v2.6l-0.1,1.4c0.6-0.6,1.5-1,2.3-1c1.7,0,2.4,1.2,2.4,3.1v4.7h-2.4V403
							c0-1.1-0.3-1.4-0.9-1.4c-0.5,0-1,0.3-1.3,0.7v5.1h-2.4V396.7z"/>
						<path class="st36" d="M632,403.6c0.1-2.1,1.9-3.6,4-3.5c2.1,0.1,3.6,1.9,3.5,4c-0.1,2-1.8,3.5-3.8,3.5c-2.1,0-3.7-1.7-3.7-3.8
							C632,403.7,632,403.6,632,403.6z M637,403.6c0-1.2-0.4-2.1-1.3-2.1s-1.3,0.8-1.3,2.1s0.4,2.1,1.3,2.1S637,404.8,637,403.6z"/>
						<path class="st36" d="M640.9,404.9v-8.3h2.4v8.3c0,0.5,0.2,0.6,0.4,0.6c0.1,0,0.2,0,0.3,0l0.3,1.8c-0.4,0.1-0.8,0.2-1.2,0.2
							C641.5,407.6,640.9,406.5,640.9,404.9z"/>
						<path class="st36" d="M645,403.6c0-2.5,1.6-4,3.2-4c0.7,0,1.4,0.3,1.8,0.8l-0.1-1.1v-2.6h2.4v10.7h-2l-0.2-0.7l0,0
							c-0.5,0.5-1.2,0.9-2,0.9C646.2,407.6,645,406,645,403.6z M649.9,405v-3c-0.3-0.3-0.8-0.4-1.2-0.4c-0.7,0-1.3,0.6-1.3,2
							s0.5,2.1,1.3,2.1C649.2,405.6,649.7,405.4,649.9,405z"/>
						<path class="st36" d="M653.8,403.6c-0.1-2.1,1.4-3.9,3.5-4c0,0,0.1,0,0.1,0c2.2,0,3.3,1.6,3.3,3.7c0,0.4,0,0.7-0.1,1h-4.5
							c0.1,0.9,1,1.6,1.9,1.5c0.6,0,1.1-0.2,1.6-0.5l0.8,1.4c-0.8,0.6-1.8,0.9-2.8,0.9c-2.1,0.1-3.8-1.5-3.9-3.6
							C653.7,403.9,653.7,403.7,653.8,403.6z M658.6,402.7c0-0.8-0.3-1.3-1.2-1.3c-0.7,0-1.3,0.6-1.4,1.3H658.6z"/>
						<path class="st36" d="M662.2,399.8h1.9l0.2,1.3h0.1c0.4-0.9,1.2-1.4,2.2-1.5c0.3,0,0.6,0,0.9,0.2l-0.4,2
							c-0.3-0.1-0.5-0.1-0.8-0.1c-0.8,0.1-1.5,0.6-1.7,1.4v4.4h-2.4L662.2,399.8z"/>
						<path class="st36" d="M588.1,413.5h3.7c2.1,0,3.9,0.7,3.9,3.1c0.1,1.2-0.6,2.4-1.7,2.9l2.2,4h-2.7l-1.8-3.6h-1.2v3.5h-2.4
							V413.5z M591.6,418.1c1.1,0,1.8-0.5,1.8-1.4s-0.6-1.3-1.8-1.3h-1.1v2.7H591.6z"/>
						<path class="st36" d="M596.9,419.7c-0.1-2.1,1.4-3.9,3.5-4c0,0,0.1,0,0.1,0c2.2,0,3.3,1.6,3.3,3.7c0,0.3,0,0.7-0.1,1h-4.5
							c0.1,0.9,1,1.6,1.9,1.5c0.6,0,1.2-0.2,1.7-0.5l0.8,1.4c-0.8,0.6-1.8,0.9-2.7,0.9c-2.1,0.1-3.8-1.5-3.9-3.6
							C596.8,420,596.9,419.9,596.9,419.7z M601.7,418.9c0-0.8-0.3-1.3-1.2-1.3c-0.7,0-1.4,0.6-1.4,1.3H601.7z"/>
						<path class="st36" d="M605.2,421.1v-8.3h2.4v8.4c0,0.5,0.2,0.6,0.4,0.6c0.1,0,0.2,0,0.3,0l0.3,1.8c-0.4,0.1-0.8,0.2-1.2,0.2
							C605.8,423.7,605.2,422.7,605.2,421.1z"/>
						<path class="st36" d="M609.3,421.4c0-1.6,1.2-2.5,4.2-2.8c0-0.6-0.4-1-1-1c-0.1,0-0.1,0-0.2,0c-0.7,0-1.4,0.3-2,0.6l-0.8-1.5
							c1-0.6,2.1-1,3.3-1c2,0,3.1,1.1,3.1,3.5v4.3h-2l-0.2-0.8h-0.1c-0.6,0.6-1.4,1-2.2,1c-1.2,0-2.2-1-2.2-2.2
							C609.3,421.5,609.3,421.5,609.3,421.4z M613.6,421.3v-1.2c-1.5,0.2-2,0.6-2,1.2s0.3,0.7,0.8,0.7
							C612.9,421.9,613.3,421.7,613.6,421.3z"/>
						<path class="st36" d="M618,420.7v-3h-1V416l1.2-0.1l0.3-2.3h2v2.3h1.8v1.9h-1.8v2.9c0,0.9,0.4,1.2,1,1.2c0.2,0,0.5,0,0.7-0.1
							l0.4,1.7c-0.6,0.2-1.1,0.3-1.7,0.3C618.8,423.7,618,422.5,618,420.7z"/>
						<path class="st36" d="M623.6,413.6c0.1-0.7,0.7-1.3,1.5-1.2c0.6,0.1,1.2,0.6,1.2,1.2c-0.1,0.7-0.7,1.3-1.5,1.2
							C624.1,414.8,623.6,414.3,623.6,413.6z M623.7,415.9h2.4v7.6h-2.4V415.9z"/>
						<path class="st36" d="M627.5,419.7c0.1-2.1,1.9-3.6,4-3.5s3.6,1.9,3.5,4c-0.1,2-1.8,3.5-3.7,3.5c-2.1,0-3.7-1.7-3.7-3.7
							C627.5,419.9,627.5,419.8,627.5,419.7z M632.5,419.7c0-1.3-0.4-2.1-1.3-2.1s-1.3,0.8-1.3,2.1s0.4,2.1,1.3,2.1
							S632.5,421,632.5,419.7L632.5,419.7z"/>
						<path class="st36" d="M636.5,415.9h1.9l0.2,1h0.1c0.6-0.7,1.5-1.1,2.4-1.1c1.7,0,2.4,1.2,2.4,3.1v4.7h-2.4v-4.4
							c0-1.1-0.3-1.4-0.9-1.4c-0.5,0-1,0.3-1.3,0.7v5.1h-2.4L636.5,415.9z"/>
						<path class="st36" d="M644.6,422.6l1-1.3c0.6,0.5,1.3,0.7,2,0.7c0.7,0,0.9-0.2,0.9-0.6s-0.7-0.7-1.5-1c-1.1-0.4-2-1.1-2-2.3
							c0-1.4,1.2-2.4,3-2.4c1,0,2,0.4,2.7,1l-1,1.3c-0.5-0.4-1-0.5-1.6-0.5c-0.5,0-0.8,0.2-0.8,0.5s0.4,0.6,1.4,0.9
							c1.2,0.4,2.1,1.1,2.1,2.3s-1.1,2.5-3.2,2.5C646.5,423.8,645.4,423.3,644.6,422.6z"/>
						<polygon class="st37" points="237.8,644.8 342.2,644.6 452.6,505.7 126.9,506.4 						"/>
						<path class="st38" d="M238.7,569.5h3.5c2.1,0,3.7,0.5,3.7,2.5c0,0.9-0.5,1.8-1.3,2.2v0.1c1.1,0.2,1.9,1.2,1.8,2.3
							c0,2-1.8,2.9-3.9,2.9h-3.8V569.5z M242.1,573.5c1,0,1.5-0.4,1.5-1.1s-0.5-1-1.5-1h-1v2.1L242.1,573.5z M242.3,577.7
							c1.2,0,1.8-0.4,1.8-1.3s-0.6-1.2-1.8-1.2h-1.2v2.5H242.3z"/>
						<path class="st38" d="M247.9,576.5v-4.7h2.4v4.4c0,1.1,0.3,1.4,0.9,1.4c0.5,0,1-0.3,1.3-0.8v-5h2.4v7.6h-1.9l-0.2-1h-0.1
							c-0.6,0.8-1.4,1.2-2.4,1.2C248.6,579.6,247.9,578.4,247.9,576.5z"/>
						<path class="st38" d="M256,578.5l1-1.3c0.6,0.5,1.3,0.7,2,0.7c0.6,0,0.9-0.2,0.9-0.6s-0.6-0.7-1.5-1c-1.1-0.4-2-1.1-2-2.3
							c0-1.4,1.2-2.4,3-2.4c1,0,2,0.4,2.7,1l-1,1.3c-0.5-0.4-1-0.5-1.6-0.5c-0.6,0-0.8,0.2-0.8,0.5s0.4,0.6,1.4,0.9
							c1.2,0.4,2.1,1.1,2.1,2.3s-1.1,2.5-3.2,2.5C257.9,579.6,256.8,579.2,256,578.5z"/>
						<path class="st38" d="M263.4,569.5c-0.1-0.7,0.5-1.4,1.2-1.4c0.7-0.1,1.4,0.5,1.4,1.2s-0.5,1.4-1.2,1.4c0,0-0.1,0-0.1,0
							c-0.7,0.1-1.3-0.4-1.3-1.1C263.4,569.6,263.4,569.6,263.4,569.5z M263.6,571.8h2.4v7.6h-2.4V571.8z"/>
						<path class="st38" d="M267.8,571.8h1.9l0.2,1h0.1c0.6-0.7,1.5-1.1,2.4-1.1c1.7,0,2.4,1.2,2.4,3.1v4.7h-2.4V575
							c0-1.1-0.3-1.4-0.9-1.4c-0.5,0-1,0.3-1.3,0.7v5.1h-2.4L267.8,571.8z"/>
						<path class="st38" d="M276.2,575.6c-0.1-2.1,1.4-3.9,3.5-4c0,0,0.1,0,0.1,0c2.2,0,3.3,1.6,3.3,3.7c0,0.3,0,0.7-0.1,1h-4.5
							c0.1,0.9,1,1.6,1.9,1.5c0.6,0,1.2-0.2,1.6-0.5l0.8,1.4c-0.8,0.6-1.8,0.9-2.8,0.9c-2,0.1-3.8-1.5-3.9-3.5
							C276.2,575.9,276.2,575.8,276.2,575.6z M281.1,574.8c0-0.8-0.3-1.3-1.2-1.3c-0.7,0-1.4,0.6-1.4,1.3H281.1z"/>
						<path class="st38" d="M283.9,578.5l1-1.3c0.6,0.5,1.3,0.7,2,0.7c0.6,0,0.9-0.2,0.9-0.6s-0.6-0.7-1.5-1c-1.1-0.4-2-1.1-2-2.3
							c0-1.4,1.2-2.4,2.9-2.4c1,0,2,0.4,2.7,1l-1,1.3c-0.5-0.4-1-0.5-1.6-0.5c-0.5,0-0.8,0.2-0.8,0.5s0.4,0.6,1.4,0.9
							c1.2,0.4,2.1,1.1,2.1,2.3s-1.1,2.5-3.2,2.5C285.8,579.6,284.7,579.2,283.9,578.5z"/>
						<path class="st38" d="M290.8,578.5l1-1.3c0.6,0.5,1.3,0.7,2,0.7c0.6,0,0.9-0.2,0.9-0.6s-0.6-0.7-1.5-1c-1.1-0.4-2-1.1-2-2.3
							c0-1.4,1.2-2.4,3-2.4c1,0,2,0.4,2.7,1l-1,1.3c-0.5-0.4-1-0.5-1.6-0.5c-0.6,0-0.8,0.2-0.8,0.5s0.4,0.6,1.4,0.9
							c1.2,0.4,2.1,1.1,2.1,2.3s-1.1,2.5-3.2,2.5C292.6,579.6,291.6,579.2,290.8,578.5z"/>
						<path class="st38" d="M301.5,569.5h2.6l1.6,4.3c0.2,0.6,0.4,1.2,0.5,1.8h0.1c0.2-0.6,0.3-1.2,0.5-1.8l1.5-4.3h2.6v10h-2.2V576
							c0-1,0.2-2.7,0.3-3.7h-0.1l-0.8,2.6l-1.4,3.7h-1.4l-1.3-3.7l-0.8-2.6h-0.1c0.1,1,0.3,2.7,0.3,3.7v3.5h-2.1L301.5,569.5z"/>
						<path class="st38" d="M312.7,575.6c0.1-2.1,1.9-3.6,4-3.5s3.6,1.9,3.5,4c-0.1,2-1.8,3.5-3.8,3.5c-2.1,0-3.7-1.7-3.7-3.8
							C312.7,575.8,312.7,575.7,312.7,575.6z M317.7,575.6c0-1.3-0.4-2.1-1.3-2.1s-1.3,0.8-1.3,2.1s0.4,2.1,1.3,2.1
							S317.7,576.9,317.7,575.6L317.7,575.6z"/>
						<path class="st38" d="M321.3,575.6c0-2.5,1.6-4,3.1-4c0.7,0,1.4,0.3,1.9,0.8l-0.1-1.1v-2.6h2.4v10.7h-2l-0.2-0.7h0
							c-0.5,0.5-1.2,0.9-2,0.9C322.5,579.6,321.3,578.1,321.3,575.6z M326.2,577v-3c-0.3-0.3-0.8-0.4-1.2-0.5c-0.7,0-1.3,0.6-1.3,2
							s0.5,2.1,1.3,2.1C325.5,577.7,325.9,577.5,326.2,577z"/>
						<path class="st38" d="M330,575.6c-0.1-2.1,1.4-3.9,3.5-4c0,0,0.1,0,0.1,0c2.2,0,3.3,1.6,3.3,3.7c0,0.3,0,0.7-0.1,1h-4.5
							c0.1,0.9,1,1.6,1.9,1.5c0.6,0,1.1-0.2,1.6-0.5l0.8,1.4c-0.8,0.6-1.8,0.9-2.8,0.9c-2.1,0.1-3.8-1.5-3.9-3.6
							C330,575.9,330,575.8,330,575.6z M334.9,574.8c0-0.8-0.3-1.3-1.2-1.3c-0.7,0-1.4,0.6-1.4,1.3H334.9z"/>
						<path class="st38" d="M338.4,577v-8.3h2.4v8.3c0,0.5,0.2,0.7,0.4,0.7c0.1,0,0.2,0,0.3,0l0.3,1.8c-0.4,0.1-0.8,0.2-1.2,0.2
							C339,579.6,338.4,578.6,338.4,577z"/>
						<path class="st38" d="M248,592.9c0-1.2,0.7-2.3,1.8-2.8c-0.4-0.6-0.6-1.3-0.6-2.1c0-1.5,1.2-2.6,2.6-2.6c0.1,0,0.1,0,0.2,0
							c1.2-0.1,2.4,0.8,2.5,2c0,0.1,0,0.2,0,0.3c0,1.3-1,2.1-2.1,2.8c0.6,0.6,1.2,1.2,1.9,1.7c0.5-0.7,0.9-1.5,1.1-2.3h2.2
							c-0.4,1.2-0.9,2.3-1.6,3.3c0.5,0.3,1.1,0.5,1.7,0.6l-0.6,1.9c-0.9-0.2-1.8-0.5-2.6-1c-0.9,0.7-2,1-3.2,1
							C249.1,595.8,248,594.5,248,592.9z M251.7,594c0.4,0,0.8-0.1,1.2-0.3c-0.7-0.6-1.4-1.3-2-2c-0.4,0.3-0.6,0.7-0.6,1.1
							C250.2,593.5,250.8,594,251.7,594L251.7,594z M251.5,589.2c0.7-0.4,1.2-0.8,1.2-1.5c0-0.5-0.2-0.7-0.6-0.7s-0.9,0.4-0.9,1.1
							C251.2,588.5,251.3,588.8,251.5,589.2z"/>
						<path class="st38" d="M261.3,585.6h2.4l0.6,4.6c0.1,1.1,0.3,2.1,0.4,3.2h0.1c0.2-1.1,0.4-2.2,0.6-3.2l1-4.6h2l1,4.6
							c0.2,1,0.4,2.1,0.6,3.2h0.1c0.1-1.1,0.2-2.2,0.4-3.2l0.7-4.6h2.3l-1.8,10h-3l-0.9-4.4c-0.2-0.8-0.3-1.6-0.4-2.4h-0.1
							c-0.1,0.8-0.2,1.6-0.4,2.4l-0.9,4.4h-3L261.3,585.6z"/>
						<path class="st38" d="M274,591.8c0.1-2.1,1.9-3.6,4-3.5c2.1,0.1,3.6,1.9,3.5,4c-0.1,2-1.8,3.5-3.7,3.5c-2.1,0-3.7-1.7-3.7-3.7
							C274,592,274,591.9,274,591.8z M279,591.8c0-1.3-0.4-2.1-1.3-2.1s-1.3,0.8-1.3,2.1s0.4,2.1,1.3,2.1S279.1,593,279,591.8
							L279,591.8z"/>
						<path class="st38" d="M283,588h1.9l0.2,1.3h0.1c0.4-0.9,1.2-1.4,2.2-1.5c0.3,0,0.6,0,0.9,0.2l-0.4,2c-0.3-0.1-0.5-0.1-0.8-0.1
							c-0.8,0.1-1.5,0.6-1.7,1.4v4.4H283V588z"/>
						<path class="st38" d="M289.2,584.9h2.4v6l0,0l2.3-2.9h2.6l-2.7,3.2l2.8,4.5h-2.6l-1.7-2.9l-0.9,1v1.9h-2.4L289.2,584.9z"/>
						<path class="st38" d="M298.4,589.8h-1V588l1-0.1v-0.3c-0.2-1.4,0.8-2.8,2.3-3c0.2,0,0.4,0,0.6,0c0.5,0,1.1,0.1,1.6,0.3
							l-0.5,1.7c-0.2-0.1-0.5-0.1-0.8-0.1c-0.5,0-0.8,0.3-0.8,1v0.4h1.4v1.9h-1.4v5.8h-2.4V589.8z"/>
						<path class="st38" d="M302.8,591.8c0.1-2.1,1.9-3.6,4-3.5s3.6,1.9,3.5,4c-0.1,2-1.8,3.5-3.8,3.5c-2.1,0-3.7-1.7-3.7-3.7
							C302.8,592,302.8,591.9,302.8,591.8z M307.8,591.8c0-1.3-0.4-2.1-1.3-2.1s-1.3,0.8-1.3,2.1s0.4,2.1,1.3,2.1
							S307.9,593,307.8,591.8L307.8,591.8z"/>
						<path class="st38" d="M311.8,588h1.9l0.2,1.3h0.1c0.4-0.9,1.2-1.4,2.2-1.5c0.3,0,0.6,0,0.9,0.2l-0.5,2
							c-0.3-0.1-0.5-0.1-0.8-0.1c-0.8,0.1-1.5,0.6-1.7,1.4v4.4h-2.4V588z"/>
						<path class="st38" d="M317.5,591.8c-0.1-2.1,1.6-3.9,3.7-4c0.1,0,0.2,0,0.3,0c0.8,0,1.6,0.3,2.2,0.8l-1.1,1.5
							c-0.3-0.2-0.6-0.4-1-0.4c-1.1,0-1.7,0.8-1.7,2.1s0.7,2.1,1.6,2.1c0.5,0,0.9-0.2,1.3-0.5l0.9,1.5c-0.7,0.6-1.6,0.9-2.5,0.9
							c-2,0.1-3.7-1.6-3.8-3.6C317.4,592,317.4,591.9,317.5,591.8z"/>
						<path class="st38" d="M324.4,591.8c-0.1-2.1,1.4-3.9,3.5-4c0,0,0.1,0,0.1,0c2.2,0,3.3,1.6,3.3,3.7c0,0.3,0,0.7-0.1,1h-4.5
							c0.1,0.9,1,1.6,1.9,1.5c0.6,0,1.1-0.2,1.6-0.5l0.8,1.4c-0.8,0.6-1.8,0.9-2.8,0.9c-2,0.1-3.8-1.5-3.9-3.5
							C324.4,592,324.4,591.9,324.4,591.8z M329.3,590.9c0-0.8-0.3-1.3-1.2-1.3c-0.7,0-1.3,0.6-1.4,1.3H329.3z"/>
						<path class="st38" d="M239.6,603.8h-2.7v-2h7.8v2H242v8h-2.4L239.6,603.8z"/>
						<path class="st38" d="M245.1,604.1h1.9l0.2,1.3h0.1c0.4-0.9,1.2-1.5,2.2-1.5c0.3,0,0.6,0,0.9,0.2l-0.4,2
							c-0.3-0.1-0.5-0.1-0.8-0.1c-0.8,0.1-1.5,0.6-1.7,1.4v4.4h-2.4L245.1,604.1z"/>
						<path class="st38" d="M250.9,609.6c0-1.6,1.2-2.5,4.2-2.8c0-0.6-0.4-1-1-1c-0.1,0-0.1,0-0.2,0c-0.7,0-1.4,0.3-2,0.7l-0.8-1.5
							c1-0.6,2.1-1,3.3-1c2,0,3.1,1.1,3.1,3.5v4.3h-1.9l-0.2-0.8h-0.1c-0.6,0.6-1.4,1-2.2,1c-1.2,0-2.2-0.9-2.3-2.2
							C250.9,609.8,250.9,609.7,250.9,609.6z M255.2,609.5v-1.2c-1.5,0.2-2,0.6-2,1.2s0.3,0.7,0.8,0.7
							C254.5,610.1,254.9,609.9,255.2,609.5z"/>
						<path class="st38" d="M259.4,604.1h1.9l0.2,1h0.1c0.6-0.7,1.5-1.1,2.4-1.1c1.7,0,2.4,1.2,2.4,3.1v4.7H264v-4.4
							c0-1.1-0.3-1.4-0.9-1.4c-0.5,0-1,0.3-1.3,0.7v5.1h-2.4L259.4,604.1z"/>
						<path class="st38" d="M267.5,610.8l1-1.3c0.6,0.5,1.3,0.7,2,0.7c0.6,0,0.9-0.2,0.9-0.6s-0.6-0.7-1.5-1c-1.1-0.4-2-1.1-2-2.3
							c0-1.4,1.2-2.4,3-2.4c1,0,2,0.4,2.7,1l-1,1.3c-0.5-0.4-1.1-0.6-1.6-0.6c-0.5,0-0.8,0.2-0.8,0.6s0.4,0.6,1.4,0.9
							c1.2,0.4,2.1,1,2.1,2.3s-1.1,2.5-3.2,2.5C269.4,611.9,268.3,611.5,267.5,610.8z"/>
						<path class="st38" d="M275.5,606h-1v-1.8l1-0.1v-0.3c-0.2-1.4,0.8-2.8,2.3-3c0.2,0,0.4,0,0.6,0c0.5,0,1.1,0.1,1.5,0.3
							l-0.4,1.7c-0.2-0.1-0.5-0.1-0.8-0.1c-0.5,0-0.8,0.3-0.8,1v0.4h1.4v1.9h-1.4v5.8h-2.4V606z"/>
						<path class="st38" d="M280,607.9c0.1-2.1,1.9-3.6,4-3.5c2.1,0.1,3.6,1.9,3.5,4c-0.1,2-1.8,3.5-3.7,3.5c-2.1,0-3.7-1.7-3.7-3.8
							C280,608.1,280,608,280,607.9z M285,607.9c0-1.3-0.4-2.1-1.3-2.1s-1.3,0.8-1.3,2.1s0.4,2.1,1.3,2.1S285,609.2,285,607.9z"/>
						<path class="st38" d="M289,604.1h1.9l0.2,1.3h0.1c0.4-0.9,1.2-1.5,2.2-1.5c0.3,0,0.6,0,0.9,0.2l-0.5,2
							c-0.3-0.1-0.5-0.1-0.8-0.1c-0.8,0.1-1.5,0.6-1.7,1.4v4.4H289V604.1z"/>
						<path class="st38" d="M295.2,604.1h1.9l0.2,1h0.1c0.6-0.7,1.4-1.1,2.3-1.1c0.9-0.1,1.7,0.4,2.1,1.3c0.6-0.7,1.4-1.2,2.4-1.3
							c1.7,0,2.4,1.2,2.4,3.1v4.7h-2.4v-4.4c0-1.1-0.3-1.4-0.9-1.4c-0.5,0.1-0.9,0.3-1.2,0.7v5.1h-2.4v-4.4c0-1.1-0.3-1.4-0.9-1.4
							c-0.5,0.1-0.9,0.3-1.2,0.7v5.1h-2.4V604.1z"/>
						<path class="st38" d="M308,609.6c0-1.6,1.2-2.5,4.2-2.8c-0.1-0.6-0.4-1-1.2-1c-0.7,0-1.4,0.3-2,0.7l-0.8-1.5
							c1-0.6,2.1-1,3.3-1c2,0,3.1,1.1,3.1,3.5v4.3h-1.9l-0.2-0.8h-0.1c-0.6,0.6-1.4,1-2.2,1c-1.2,0-2.2-0.9-2.3-2.1
							C308,609.8,308,609.7,308,609.6z M312.2,609.5v-1.2c-1.5,0.2-2,0.6-2,1.2s0.3,0.7,0.8,0.7C311.5,610.1,312,609.9,312.2,609.5
							L312.2,609.5z"/>
						<path class="st38" d="M316.7,608.9V606h-1v-1.8l1.2-0.1l0.3-2.3h2v2.3h1.8v1.9h-1.9v2.9c0,0.9,0.4,1.2,1,1.2
							c0.2,0,0.5,0,0.7-0.1l0.4,1.7c-0.6,0.2-1.1,0.3-1.7,0.3C317.5,611.9,316.7,610.7,316.7,608.9z"/>
						<path class="st38" d="M322.2,601.8c-0.1-0.7,0.5-1.4,1.2-1.4c0.7-0.1,1.4,0.5,1.4,1.2s-0.5,1.4-1.2,1.4c0,0-0.1,0-0.1,0
							c-0.7,0.1-1.3-0.4-1.3-1.1C322.2,601.9,322.2,601.9,322.2,601.8z M322.4,604.1h2.4v7.6h-2.4V604.1z"/>
						<path class="st38" d="M326.2,607.9c0.1-2.1,1.9-3.6,4-3.5s3.6,1.9,3.5,4c-0.1,2-1.8,3.5-3.8,3.5c-2.1,0-3.7-1.7-3.7-3.8
							C326.2,608.1,326.2,608,326.2,607.9z M331.2,607.9c0-1.3-0.4-2.1-1.3-2.1s-1.3,0.8-1.3,2.1s0.4,2.1,1.3,2.1
							S331.2,609.2,331.2,607.9L331.2,607.9z"/>
						<path class="st38" d="M335.1,604.1h1.9l0.2,1h0.1c0.6-0.7,1.5-1.1,2.4-1.1c1.6,0,2.4,1.2,2.4,3.1v4.7h-2.4v-4.4
							c0-1.1-0.3-1.4-0.9-1.4c-0.5,0-1,0.3-1.3,0.7v5.1h-2.4V604.1z"/>
						<polygon class="st39" points="61.6,424.9 126.9,506.4 304.3,505.9 100.6,251.9 						"/>
						<path class="st40" d="M112.2,419.9c0-3.3,1.9-5.1,4.6-5.1s4.6,1.9,4.6,5.1s-1.9,5.2-4.6,5.2S112.2,423.1,112.2,419.9z
							 M118.9,419.9c0-2-0.8-3.1-2.1-3.1s-2.1,1.1-2.1,3.1s0.8,3.2,2.1,3.2S118.9,421.8,118.9,419.9z"/>
						<path class="st40" d="M123.1,417.3h1.9l0.2,0.7h0.1c0.6-0.6,1.3-0.9,2.1-0.9c1.8,0,3,1.5,3,3.9c0,2.6-1.6,4.1-3.2,4.1
							c-0.7,0-1.3-0.3-1.8-0.8l0.1,1.2v2.2h-2.4L123.1,417.3z M127.9,421c0-1.3-0.4-2-1.2-2c-0.5,0-0.9,0.3-1.2,0.6v3
							c0.3,0.3,0.7,0.5,1.2,0.5C127.3,423.1,127.9,422.5,127.9,421L127.9,421z"/>
						<path class="st40" d="M131.5,421.1c-0.1-2.1,1.4-3.9,3.5-4c0,0,0.1,0,0.1,0c2.2,0,3.3,1.6,3.3,3.7c0,0.3,0,0.7-0.1,1h-4.5
							c0.1,0.9,1,1.6,1.9,1.5c0.6,0,1.1-0.2,1.6-0.5l0.8,1.4c-0.8,0.5-1.8,0.8-2.7,0.9c-2,0.1-3.8-1.5-3.9-3.5
							C131.5,421.4,131.5,421.2,131.5,421.1z M136.3,420.2c0-0.8-0.3-1.3-1.2-1.3c-0.7,0-1.4,0.6-1.4,1.3H136.3z"/>
						<path class="st40" d="M139.9,417.3h1.9l0.2,1.3h0.1c0.4-0.9,1.2-1.4,2.2-1.5c0.3,0,0.6,0,0.9,0.1l-0.4,2
							c-0.3-0.1-0.5-0.1-0.8-0.1c-0.8,0.1-1.5,0.6-1.7,1.4v4.4h-2.4V417.3z"/>
						<path class="st40" d="M145.8,422.8c0-1.6,1.2-2.5,4.2-2.8c-0.1-0.6-0.4-1-1.2-1c-0.7,0-1.4,0.3-2,0.6l-0.8-1.5
							c1-0.6,2.1-1,3.3-1c2,0,3.1,1.1,3.1,3.5v4.3h-1.9l-0.2-0.8h-0.1c-0.6,0.6-1.4,0.9-2.2,1c-1.2,0-2.2-0.9-2.3-2.1
							C145.8,422.9,145.8,422.8,145.8,422.8z M150,422.6v-1.2c-1.5,0.2-2,0.6-2,1.1s0.3,0.7,0.8,0.7
							C149.3,423.2,149.7,423,150,422.6L150,422.6z"/>
						<path class="st40" d="M154.5,422.1v-3h-1v-1.8l1.2-0.1l0.3-2.3h2v2.3h1.8v1.9h-1.8v2.9c0,0.9,0.4,1.2,1,1.2
							c0.2,0,0.5,0,0.7-0.1l0.4,1.7c-0.6,0.2-1.1,0.3-1.7,0.3C155.3,425.1,154.5,423.9,154.5,422.1z"/>
						<path class="st40" d="M160,415c0.1-0.7,0.7-1.3,1.5-1.2c0.6,0.1,1.2,0.6,1.2,1.2c-0.1,0.7-0.7,1.3-1.5,1.2
							C160.6,416.2,160.1,415.6,160,415z M160.1,417.3h2.4v7.6h-2.4V417.3z"/>
						<path class="st40" d="M163.9,421.1c0.1-2.1,1.9-3.6,4-3.5c2.1,0.1,3.6,1.9,3.5,4c-0.1,2-1.8,3.5-3.8,3.5
							c-2.1,0-3.7-1.7-3.7-3.8C163.9,421.2,163.9,421.2,163.9,421.1z M168.9,421.1c0-1.3-0.4-2.1-1.3-2.1s-1.3,0.8-1.3,2.1
							s0.4,2.1,1.3,2.1S169,422.4,168.9,421.1L168.9,421.1z"/>
						<path class="st40" d="M172.9,417.3h1.9l0.2,1h0.1c0.6-0.7,1.5-1.1,2.4-1.1c1.7,0,2.4,1.2,2.4,3.1v4.7h-2.4v-4.4
							c0-1.1-0.3-1.4-0.9-1.4c-0.5,0-1,0.3-1.3,0.7v5.1h-2.4L172.9,417.3z"/>
						<path class="st40" d="M181.3,422.8c0-1.6,1.2-2.5,4.2-2.8c-0.1-0.6-0.4-1-1.2-1c-0.7,0-1.4,0.3-2,0.6l-0.8-1.5
							c1-0.6,2.1-1,3.3-1c2,0,3.1,1.1,3.1,3.5v4.3H186l-0.2-0.8h-0.1c-0.6,0.6-1.4,0.9-2.2,1c-1.2,0.1-2.2-0.9-2.3-2.1
							C181.3,422.9,181.3,422.8,181.3,422.8z M185.6,422.6v-1.2c-1.5,0.2-2,0.6-2,1.1s0.3,0.7,0.8,0.7
							C184.8,423.2,185.3,423,185.6,422.6L185.6,422.6z"/>
						<path class="st40" d="M189.7,422.4v-8.3h2.4v8.4c0,0.5,0.2,0.6,0.4,0.6c0.1,0,0.2,0,0.3,0l0.3,1.8c-0.4,0.1-0.8,0.2-1.2,0.2
							C190.2,425.1,189.7,424,189.7,422.4z"/>
						<path class="st40" d="M115.2,438.4c0-1.2,0.7-2.3,1.8-2.8c-0.4-0.6-0.6-1.3-0.6-2.1c0-1.4,1.1-2.6,2.6-2.6c0.1,0,0.1,0,0.2,0
							c1.2-0.1,2.4,0.7,2.5,2c0,0.1,0,0.2,0,0.3c0,1.3-1,2.1-2.1,2.8c0.6,0.6,1.2,1.2,1.9,1.7c0.5-0.7,0.9-1.5,1.1-2.3h2.2
							c-0.4,1.2-0.9,2.3-1.7,3.3c0.5,0.3,1.1,0.5,1.7,0.6l-0.6,1.9c-0.9-0.2-1.8-0.5-2.6-1c-0.9,0.7-2,1-3.2,1
							C116.3,441.2,115.2,439.9,115.2,438.4z M118.8,439.4c0.4,0,0.8-0.1,1.2-0.3c-0.7-0.6-1.4-1.3-2-2c-0.4,0.3-0.6,0.7-0.6,1.1
							C117.4,438.9,118,439.4,118.8,439.4z M118.6,434.6c0.7-0.4,1.2-0.8,1.2-1.5c0-0.5-0.2-0.7-0.7-0.7s-0.9,0.4-0.9,1.1
							C118.3,433.9,118.4,434.3,118.6,434.6L118.6,434.6z"/>
						<path class="st40" d="M129.4,431.1h6.4v2h-4v2.2h3.4v2h-3.4v3.8h-2.4L129.4,431.1z"/>
						<path class="st40" d="M137,431.1c0.1-0.7,0.7-1.3,1.5-1.2c0.6,0.1,1.2,0.6,1.2,1.2c-0.1,0.7-0.7,1.3-1.5,1.2
							C137.6,432.3,137.1,431.8,137,431.1z M137.2,433.4h2.4v7.6h-2.4V433.4z"/>
						<path class="st40" d="M141.4,433.4h1.9l0.2,1h0.1c0.6-0.7,1.5-1.1,2.4-1.1c1.6,0,2.4,1.2,2.4,3.1v4.7H146v-4.4
							c0-1.1-0.3-1.4-0.9-1.4c-0.5,0-1,0.3-1.3,0.7v5.1h-2.4L141.4,433.4z"/>
						<path class="st40" d="M149.8,438.9c0-1.6,1.2-2.5,4.2-2.8c-0.1-0.6-0.4-1-1.2-1c-0.7,0-1.4,0.3-2,0.6l-0.8-1.5
							c1-0.6,2.1-1,3.3-1c2,0,3.1,1.1,3.1,3.5v4.3h-1.9l-0.2-0.8h-0.1c-0.6,0.6-1.4,0.9-2.2,1c-1.2,0-2.2-0.9-2.3-2.2
							C149.8,439,149.8,439,149.8,438.9z M154.1,438.8v-1.2c-1.5,0.2-2,0.6-2,1.1s0.3,0.7,0.8,0.7
							C153.4,439.4,153.8,439.2,154.1,438.8L154.1,438.8z"/>
						<path class="st40" d="M158.3,433.4h1.9l0.2,1h0.1c0.6-0.7,1.5-1.1,2.4-1.1c1.7,0,2.4,1.2,2.4,3.1v4.7h-2.4v-4.4
							c0-1.1-0.3-1.4-0.9-1.4c-0.5,0-1,0.3-1.3,0.7v5.1h-2.4L158.3,433.4z"/>
						<path class="st40" d="M166.7,437.2c-0.1-2.1,1.6-3.9,3.7-4c0.1,0,0.2,0,0.3,0c0.8,0,1.6,0.3,2.2,0.8l-1.1,1.5
							c-0.3-0.2-0.6-0.4-1-0.4c-1.1,0-1.7,0.8-1.7,2.1s0.7,2.1,1.6,2.1c0.5,0,0.9-0.2,1.3-0.5l0.9,1.5c-0.7,0.6-1.6,0.9-2.5,0.9
							c-2,0.1-3.7-1.5-3.8-3.6C166.7,437.5,166.7,437.4,166.7,437.2z"/>
						<path class="st40" d="M174,431.1c0.1-0.7,0.7-1.3,1.5-1.2c0.6,0.1,1.2,0.6,1.2,1.2c-0.1,0.7-0.7,1.3-1.5,1.2
							C174.6,432.3,174.1,431.8,174,431.1z M174.2,433.4h2.4v7.6h-2.4V433.4z"/>
						<path class="st40" d="M178,438.9c0-1.6,1.2-2.5,4.2-2.8c0-0.6-0.4-1-1-1c-0.1,0-0.1,0-0.2,0c-0.7,0-1.4,0.3-2,0.6l-0.8-1.5
							c1-0.6,2.1-1,3.3-1c2,0,3.1,1.1,3.1,3.5v4.3h-1.9l-0.2-0.8h-0.1c-0.6,0.6-1.4,0.9-2.2,1c-1.2,0-2.2-0.9-2.3-2.1
							C178,439,178,439,178,438.9z M182.2,438.8v-1.2c-1.5,0.2-2,0.6-2,1.1s0.3,0.7,0.8,0.7C181.5,439.4,182,439.2,182.2,438.8
							L182.2,438.8z"/>
						<path class="st40" d="M186.4,438.6v-8.3h2.4v8.4c0,0.5,0.2,0.6,0.4,0.6c0.1,0,0.2,0,0.3,0l0.3,1.8c-0.4,0.1-0.8,0.2-1.2,0.2
							C187,441.2,186.4,440.2,186.4,438.6z"/>
						<path class="st40" d="M119.1,447.2h3.7c2.1,0,3.9,0.7,3.9,3.1c0.1,1.2-0.6,2.4-1.7,2.9l2.2,4h-2.7l-1.8-3.5h-1.2v3.5h-2.4
							V447.2z M122.5,451.8c1.1,0,1.8-0.5,1.8-1.4s-0.6-1.3-1.8-1.3h-1.1v2.7H122.5z"/>
						<path class="st40" d="M127.8,453.4c-0.1-2.1,1.4-3.9,3.5-4c0,0,0.1,0,0.1,0c2.2,0,3.3,1.6,3.3,3.7c0,0.3,0,0.7-0.1,1h-4.5
							c0.1,0.9,1,1.6,1.9,1.5c0.6,0,1.1-0.2,1.6-0.5l0.8,1.4c-0.8,0.6-1.8,0.9-2.8,0.9c-2.1,0.1-3.8-1.5-3.9-3.6
							C127.8,453.7,127.8,453.5,127.8,453.4z M132.7,452.5c0-0.8-0.3-1.3-1.2-1.3c-0.7,0-1.3,0.6-1.4,1.3H132.7z"/>
						<path class="st40" d="M135.5,456.2l1-1.3c0.6,0.5,1.3,0.7,2,0.7c0.6,0,0.9-0.2,0.9-0.6s-0.6-0.7-1.5-1c-1.1-0.4-2-1.1-2-2.3
							c0-1.4,1.2-2.4,2.9-2.4c1,0,2,0.4,2.7,1l-1,1.3c-0.5-0.4-1-0.5-1.6-0.5c-0.6,0-0.8,0.2-0.8,0.5s0.4,0.6,1.4,0.9
							c1.2,0.4,2.1,1.1,2.1,2.3s-1.1,2.5-3.2,2.5C137.4,457.4,136.3,457,135.5,456.2z"/>
						<path class="st40" d="M142.9,447.3c-0.1-0.7,0.5-1.4,1.2-1.4c0.7-0.1,1.4,0.5,1.4,1.2c0.1,0.7-0.5,1.4-1.2,1.4
							c0,0-0.1,0-0.1,0c-0.7,0.1-1.3-0.4-1.3-1.1C142.9,447.4,142.9,447.3,142.9,447.3z M143.1,449.6h2.4v7.6h-2.4V449.6z"/>
						<path class="st40" d="M147.3,454.7v-8.3h2.4v8.4c0,0.5,0.2,0.6,0.4,0.6c0.1,0,0.2,0,0.3,0l0.3,1.8c-0.4,0.1-0.8,0.2-1.2,0.2
							C147.8,457.4,147.3,456.3,147.3,454.7z"/>
						<path class="st40" d="M151.6,447.3c-0.1-0.7,0.5-1.4,1.2-1.4c0.7-0.1,1.4,0.5,1.4,1.2c0.1,0.7-0.5,1.4-1.2,1.4
							c0,0-0.1,0-0.1,0c-0.7,0.1-1.3-0.4-1.3-1.1C151.6,447.4,151.6,447.3,151.6,447.3z M151.8,449.6h2.4v7.6h-2.4V449.6z"/>
						<path class="st40" d="M155.6,453.4c-0.1-2.1,1.4-3.9,3.5-4c0,0,0.1,0,0.1,0c2.2,0,3.3,1.6,3.3,3.7c0,0.3,0,0.7-0.1,1h-4.5
							c0.1,0.9,1,1.6,1.9,1.5c0.6,0,1.1-0.2,1.6-0.5l0.8,1.4c-0.8,0.6-1.8,0.9-2.8,0.9c-2.1,0.1-3.8-1.5-3.9-3.6
							C155.6,453.7,155.6,453.5,155.6,453.4z M160.4,452.5c0-0.8-0.3-1.3-1.2-1.3c-0.7,0-1.4,0.6-1.4,1.3H160.4z"/>
						<path class="st40" d="M164,449.6h1.9l0.2,1h0.1c0.6-0.7,1.5-1.1,2.4-1.1c1.7,0,2.4,1.2,2.4,3.1v4.7h-2.4v-4.4
							c0-1.1-0.3-1.4-0.9-1.4c-0.5,0-1,0.3-1.3,0.7v5.1H164V449.6z"/>
						<path class="st40" d="M172.4,453.4c-0.1-2.1,1.6-3.9,3.7-4c0.1,0,0.2,0,0.3,0c0.8,0,1.6,0.3,2.2,0.8l-1.1,1.5
							c-0.3-0.2-0.6-0.4-1-0.4c-1.1,0-1.7,0.8-1.7,2.1s0.7,2.1,1.6,2.1c0.5,0,0.9-0.2,1.3-0.5l0.9,1.5c-1.6,1.4-4,1.2-5.4-0.4
							C172.6,455.3,172.3,454.4,172.4,453.4L172.4,453.4z"/>
						<path class="st40" d="M179.3,453.4c-0.1-2.1,1.4-3.9,3.5-4c0,0,0.1,0,0.1,0c2.2,0,3.3,1.6,3.3,3.7c0,0.3,0,0.7-0.1,1h-4.5
							c0.1,0.9,1,1.6,1.9,1.5c0.6,0,1.2-0.2,1.6-0.5l0.8,1.4c-0.8,0.6-1.8,0.9-2.7,0.9c-2.1,0.1-3.8-1.5-3.9-3.6
							C179.3,453.7,179.3,453.5,179.3,453.4z M184.2,452.5c0-0.8-0.3-1.3-1.2-1.3c-0.7,0-1.4,0.6-1.4,1.3H184.2z"/>
						<polygon class="st41" points="123.6,150 100.6,251.9 211.6,390.3 284,72.3 						"/>
						<path class="st42" d="M138.4,216.1h2.9c3.1,0,5.1,1.5,5.1,5s-2,5-4.9,5h-3L138.4,216.1z M141.2,224.2c1.6,0,2.8-0.8,2.8-3.1
							s-1.1-3-2.8-3h-0.3v6.2L141.2,224.2z"/>
						<path class="st42" d="M147.9,216.2c-0.1-0.7,0.5-1.4,1.2-1.5s1.4,0.5,1.5,1.2c0.1,0.7-0.5,1.4-1.2,1.5c0,0-0.1,0-0.1,0
							c-0.7,0.1-1.3-0.4-1.3-1.1C147.9,216.3,147.9,216.3,147.9,216.2z M148,218.5h2.4v7.6H148V218.5z"/>
						<path class="st42" d="M151.8,227.4c0-0.7,0.5-1.3,1.1-1.5v-0.1c-0.4-0.3-0.7-0.8-0.7-1.3c0-0.6,0.4-1.1,0.8-1.4v-0.1
							c-0.6-0.5-1-1.2-1-2c0-1.9,1.5-2.8,3.2-2.8c0.4,0,0.8,0.1,1.2,0.2h2.8v1.7H158c0.2,0.3,0.2,0.6,0.2,0.9c0,1.8-1.4,2.6-3,2.6
							c-0.3,0-0.6-0.1-0.9-0.1c-0.2,0.1-0.3,0.3-0.2,0.5c0,0.4,0.3,0.5,1.1,0.5h1.2c1.9,0,2.9,0.6,2.9,1.9c0,1.6-1.7,2.7-4.3,2.7
							C153.2,229.3,151.8,228.8,151.8,227.4z M157.1,227c0-0.5-0.4-0.6-1.1-0.6h-0.7c-0.4,0-0.7,0-1.1-0.1c-0.2,0.2-0.4,0.4-0.4,0.7
							c0,0.6,0.6,0.8,1.6,0.8S157.1,227.5,157.1,227L157.1,227z M156.2,221.1c0-0.8-0.4-1.2-1-1.2s-1,0.4-1,1.2s0.4,1.2,1,1.2
							S156.2,221.9,156.2,221.1z"/>
						<path class="st42" d="M160.3,216.2c0.1-0.7,0.7-1.3,1.5-1.2c0.6,0.1,1.2,0.6,1.2,1.2c-0.1,0.7-0.7,1.3-1.5,1.2
							C160.9,217.4,160.3,216.9,160.3,216.2z M160.4,218.5h2.4v7.6h-2.4V218.5z"/>
						<path class="st42" d="M165,223.3v-2.9h-1v-1.8l1.2-0.1l0.3-2.3h2v2.3h1.8v1.9h-1.8v2.9c0,0.9,0.4,1.2,1,1.2
							c0.2,0,0.5,0,0.7-0.1l0.4,1.6c-0.6,0.2-1.1,0.3-1.7,0.3C165.8,226.3,165,225.1,165,223.3z"/>
						<path class="st42" d="M170.2,224c0-1.6,1.2-2.5,4.2-2.8c0-0.6-0.4-1-1-1c-0.1,0-0.1,0-0.2,0c-0.7,0-1.4,0.3-2,0.6l-0.8-1.5
							c1-0.6,2.1-1,3.3-1c2,0,3.1,1.1,3.1,3.5v4.3h-1.9l-0.2-0.8h-0.1c-0.6,0.6-1.4,0.9-2.2,0.9c-1.2,0-2.2-0.9-2.3-2.1
							C170.2,224.1,170.2,224.1,170.2,224z M174.5,223.9v-1.2c-1.5,0.2-2,0.6-2,1.1s0.3,0.7,0.8,0.7
							C173.8,224.5,174.2,224.2,174.5,223.9z"/>
						<path class="st42" d="M178.7,223.7v-8.3h2.3v8.4c0,0.5,0.2,0.6,0.4,0.6c0.1,0,0.2,0,0.3,0l0.3,1.8c-0.4,0.1-0.8,0.2-1.2,0.2
							C179.2,226.3,178.7,225.3,178.7,223.7z"/>
						<path class="st42" d="M188.3,218.1h-2.7v-2h7.8v2h-2.7v8h-2.4V218.1z"/>
						<path class="st42" d="M193.8,218.5h1.9l0.2,1.3h0.1c0.4-0.9,1.2-1.5,2.2-1.5c0.3,0,0.6,0,0.9,0.2l-0.4,2
							c-0.3-0.1-0.5-0.1-0.8-0.1c-0.8,0.1-1.5,0.6-1.7,1.4v4.4h-2.4L193.8,218.5z"/>
						<path class="st42" d="M200,223.2v-4.7h2.4v4.4c0,1.1,0.3,1.4,0.9,1.4c0.5,0,1-0.3,1.3-0.8v-5h2.4v7.6H205l-0.2-1h-0.1
							c-0.6,0.8-1.4,1.2-2.4,1.2C200.7,226.3,200,225.1,200,223.2z"/>
						<path class="st42" d="M208.1,225.2l1-1.3c0.6,0.5,1.3,0.7,2,0.7c0.6,0,0.9-0.2,0.9-0.6s-0.6-0.7-1.5-1c-1.1-0.4-2-1.1-2-2.3
							c0-1.4,1.2-2.4,2.9-2.4c1,0,2,0.4,2.7,1l-1,1.3c-0.5-0.4-1-0.6-1.6-0.6c-0.6,0-0.8,0.2-0.8,0.6s0.4,0.6,1.4,0.9
							c1.2,0.4,2.1,1.1,2.1,2.3s-1.1,2.5-3.2,2.5C210,226.3,208.9,225.9,208.1,225.2z"/>
						<path class="st42" d="M216.1,223.3v-2.9h-1v-1.8l1.2-0.1l0.3-2.3h2v2.3h1.8v1.9h-1.8v2.9c0,0.9,0.4,1.2,1,1.2
							c0.2,0,0.5,0,0.7-0.1l0.4,1.6c-0.6,0.2-1.1,0.3-1.7,0.3C216.9,226.3,216.1,225.1,216.1,223.3z"/>
						<path class="st42" d="M133,239.6c0-1.2,0.7-2.3,1.8-2.8c-0.4-0.6-0.6-1.3-0.6-2.1c0-1.4,1.1-2.6,2.6-2.6c0.1,0,0.1,0,0.2,0
							c1.2-0.1,2.4,0.7,2.5,2c0,0.1,0,0.2,0,0.3c0,1.3-1,2.1-2.1,2.8c0.6,0.6,1.2,1.2,1.9,1.7c0.5-0.7,0.9-1.5,1.1-2.3h2.1
							c-0.3,1.2-0.9,2.3-1.7,3.4c0.5,0.3,1.1,0.5,1.7,0.6l-0.6,1.9c-0.9-0.2-1.8-0.5-2.6-1c-0.9,0.7-2,1-3.2,1
							C134.1,242.5,133,241.1,133,239.6z M136.7,240.7c0.4,0,0.8-0.1,1.2-0.3c-0.7-0.6-1.4-1.3-2-2c-0.4,0.3-0.6,0.7-0.6,1.1
							C135.2,240.2,135.8,240.7,136.7,240.7L136.7,240.7z M136.5,235.9c0.7-0.4,1.2-0.8,1.2-1.5c0-0.4-0.2-0.7-0.7-0.7
							s-0.9,0.4-0.9,1.1C136.2,235.1,136.3,235.5,136.5,235.9L136.5,235.9z"/>
						<path class="st42" d="M147.2,232.3h6.3v2h-3.9v1.9h3.4v2h-3.4v2.1h4.1v2h-6.5L147.2,232.3z"/>
						<path class="st42" d="M154.9,238.5c-0.1-2.1,1.6-3.9,3.7-4c0.1,0,0.2,0,0.3,0c0.8,0,1.6,0.3,2.2,0.8l-1.1,1.5
							c-0.3-0.2-0.6-0.4-1-0.4c-1.1,0-1.7,0.8-1.7,2.1s0.7,2.1,1.6,2.1c0.5,0,0.9-0.2,1.3-0.5l0.9,1.5c-1.6,1.4-4,1.2-5.4-0.4
							C155.1,240.4,154.8,239.4,154.9,238.5L154.9,238.5z"/>
						<path class="st42" d="M161.8,238.5c0.1-2.1,1.9-3.6,4-3.5c2.1,0.1,3.6,1.9,3.5,4c-0.1,2-1.8,3.5-3.7,3.5
							c-2.1,0-3.7-1.7-3.7-3.7C161.8,238.6,161.8,238.6,161.8,238.5z M166.8,238.5c0-1.3-0.4-2.1-1.3-2.1s-1.3,0.8-1.3,2.1
							s0.4,2.1,1.3,2.1S166.8,239.8,166.8,238.5L166.8,238.5z"/>
						<path class="st42" d="M170,241.3l1-1.3c0.6,0.5,1.3,0.7,2,0.7c0.6,0,0.9-0.2,0.9-0.6s-0.6-0.7-1.5-1c-1.1-0.4-2-1.1-2-2.3
							c0-1.4,1.2-2.4,2.9-2.4c1,0,2,0.4,2.7,1l-1,1.3c-0.5-0.4-1.1-0.5-1.6-0.6c-0.6,0-0.8,0.2-0.8,0.6s0.4,0.6,1.4,0.9
							c1.2,0.4,2.1,1.1,2.1,2.3s-1.1,2.5-3.2,2.5C171.9,242.5,170.8,242.1,170,241.3z"/>
						<path class="st42" d="M177.4,245.1l0.4-1.8c0.2,0,0.3,0.1,0.5,0.1c0.6,0,1.1-0.4,1.3-0.9l0.1-0.4l-2.9-7.4h2.4l1,3.2
							c0.2,0.7,0.4,1.4,0.6,2.2h0.1c0.2-0.7,0.3-1.4,0.5-2.2l0.9-3.2h2.3l-2.5,7.6c-0.8,2-1.6,2.9-3.4,2.9
							C178.2,245.3,177.8,245.2,177.4,245.1z"/>
						<path class="st42" d="M184.9,241.3l1-1.3c0.6,0.5,1.3,0.7,2,0.7c0.6,0,0.9-0.2,0.9-0.6s-0.6-0.7-1.4-1c-1.1-0.4-2-1.1-2-2.3
							c0-1.4,1.2-2.4,2.9-2.4c1,0,2,0.4,2.7,1l-1,1.3c-0.5-0.4-1-0.5-1.6-0.6c-0.6,0-0.8,0.2-0.8,0.6s0.4,0.6,1.4,0.9
							c1.2,0.4,2.1,1.1,2.1,2.3s-1.1,2.5-3.2,2.5C186.7,242.5,185.7,242.1,184.9,241.3z"/>
						<path class="st42" d="M192.9,239.5v-2.9h-1v-1.8l1.2-0.1l0.3-2.3h2v2.3h1.7v1.9h-1.8v2.9c0,0.9,0.4,1.2,1,1.2
							c0.2,0,0.5,0,0.7-0.1l0.4,1.7c-0.6,0.2-1.1,0.3-1.7,0.3C193.6,242.5,192.9,241.3,192.9,239.5z"/>
						<path class="st42" d="M198,238.5c-0.1-2.1,1.4-3.9,3.5-4c0,0,0.1,0,0.1,0c2.2,0,3.3,1.6,3.3,3.7c0,0.3,0,0.7-0.1,1h-4.5
							c0.1,0.9,1,1.6,1.9,1.5c0.6,0,1.1-0.2,1.6-0.5l0.8,1.4c-0.8,0.6-1.8,0.9-2.8,0.9c-2.1,0.1-3.8-1.5-3.9-3.6
							C198,238.7,198,238.6,198,238.5z M202.9,237.6c0-0.8-0.3-1.3-1.2-1.3c-0.7,0-1.4,0.6-1.4,1.3H202.9z"/>
						<path class="st42" d="M206.4,234.7h1.9l0.2,1h0.1c0.6-0.7,1.4-1.1,2.3-1.1c0.9-0.1,1.7,0.4,2.1,1.3c0.6-0.7,1.4-1.2,2.4-1.3
							c1.6,0,2.4,1.2,2.4,3.1v4.7h-2.4v-4.4c0-1.1-0.3-1.4-0.9-1.4c-0.5,0.1-0.9,0.3-1.2,0.7v5.1h-2.4v-4.4c0-1.1-0.3-1.4-0.9-1.4
							c-0.5,0.1-0.9,0.3-1.2,0.7v5.1h-2.4V234.7z"/>
						<path class="st42" d="M219,241.3l1-1.3c0.6,0.5,1.3,0.7,2,0.7c0.6,0,0.9-0.2,0.9-0.6s-0.6-0.7-1.5-1c-1.1-0.4-2-1.1-2-2.3
							c0-1.4,1.2-2.4,3-2.4c1,0,2,0.4,2.7,1l-1,1.3c-0.5-0.4-1-0.5-1.6-0.6c-0.6,0-0.8,0.2-0.8,0.6s0.4,0.6,1.4,0.9
							c1.2,0.4,2.1,1.1,2.1,2.3s-1.1,2.5-3.2,2.5C220.9,242.5,219.8,242.1,219,241.3z"/>
						<polygon class="st43" points="629.1,370.3 615,358.1 624.6,357.8 						"/>
						<polygon class="st44" points="619.4,348.8 615,358.1 624.6,357.8 						"/>
						<polygon class="st36" points="612.1,352.3 615,358.1 619.4,348.8 						"/>
						<polygon class="st36" points="597.8,360 610.4,356.3 613.3,362.1 						"/>
						<polygon class="st45" points="501.3,533.4 497.1,528.5 512.7,526.9 						"/>
						<polygon class="st46" points="479.8,524.2 487.2,535.3 496.4,532.8 						"/>
						<polygon class="st35" points="487.2,535.3 494.2,542.9 500.6,537.7 496.4,532.8 						"/>
						<polygon class="st47" points="273.7,552 289.4,551.3 285.5,546.1 						"/>
						<polygon class="st48" points="290.3,547.1 293.1,537.1 286.5,541.9 						"/>
						<polygon class="st38" points="299.7,545.1 290.3,547.1 293.1,537.1 						"/>
						<polygon class="st49" points="306.4,556.6 290.3,547.1 299.7,545.1 						"/>
						<polygon class="st50" points="164.8,388.9 139.5,393.7 157.9,380 						"/>
						<polygon class="st40" points="146.1,381.6 139.5,393.7 157.9,380 						"/>
						<polygon class="st51" points="141.4,401.3 161.3,384.9 149.6,401.3 						"/>
						<polygon class="st42" points="180,187.2 183.9,192.3 195.6,186.1 						"/>
						<polygon class="st52" points="162.8,182.4 169.8,193.7 179.1,191.5 						"/>
						<polygon class="st42" points="176.6,201.5 179.1,191.5 169.8,193.7 						"/>
						<polygon class="st53" points="183.1,196.6 179.1,191.5 176.6,201.5 						"/>
						<polygon class="st33" points="366.2,92.5 361.6,81.1 380,96.1 						"/>
						<polygon class="st54" points="368.8,71.9 361.6,81.1 380,96.1 						"/>
						<polygon class="st55" points="387.1,92.3 385.1,84.1 365.7,76.5 						"/>
					</g>
					<polygon class="st56" points="632,149.1 537.9,103.9 378.1,180.9 671.6,322 					"/>
					<path class="st11" d="M504.5,189.9h3.7c2.1,0,3.9,0.7,3.9,3.1c0.1,1.2-0.6,2.4-1.7,2.9l2.2,4h-2.7l-1.9-3.6h-1.2v3.5h-2.4
						L504.5,189.9z M507.9,194.5c1.1,0,1.8-0.5,1.8-1.4s-0.6-1.3-1.8-1.3h-1.1v2.7H507.9z"/>
					<path class="st11" d="M513.2,196.1c-0.1-2.1,1.4-3.9,3.5-4c0,0,0.1,0,0.1,0c2.2,0,3.3,1.6,3.3,3.7c0,0.4,0,0.7-0.1,1.1h-4.5
						c0.1,0.9,1,1.6,1.9,1.5c0.6,0,1.1-0.2,1.6-0.5l0.8,1.4c-0.8,0.6-1.8,0.9-2.8,0.9c-2,0.1-3.8-1.5-3.9-3.5
						C513.2,196.4,513.2,196.3,513.2,196.1z M518.1,195.2c0-0.8-0.3-1.3-1.2-1.3c-0.7,0-1.3,0.6-1.4,1.3H518.1z"/>
					<path class="st11" d="M521.7,192.3h1.9l0.2,0.9h0.1c0.6-0.7,1.4-1.1,2.3-1.1c0.9-0.1,1.7,0.4,2.1,1.3c0.6-0.7,1.4-1.2,2.4-1.3
						c1.7,0,2.4,1.2,2.4,3.1v4.7h-2.4v-4.4c0-1.1-0.3-1.4-0.9-1.4c-0.5,0.1-0.9,0.3-1.2,0.7v5.1h-2.4v-4.4c0-1.1-0.3-1.4-0.9-1.4
						c-0.5,0.1-0.9,0.3-1.2,0.7v5.1h-2.4V192.3z"/>
					<path class="st11" d="M534.4,196.1c-0.1-2.1,1.4-3.9,3.5-4c0,0,0.1,0,0.1,0c2.2,0,3.3,1.6,3.3,3.7c0,0.4,0,0.7-0.1,1.1h-4.5
						c0.2,0.9,1,1.6,1.9,1.5c0.6,0,1.1-0.2,1.6-0.5l0.8,1.4c-0.8,0.6-1.8,0.9-2.8,0.9c-2.1,0.1-3.8-1.5-3.9-3.6
						C534.4,196.4,534.4,196.3,534.4,196.1z M539.3,195.2c0-0.8-0.3-1.3-1.2-1.3c-0.7,0-1.4,0.6-1.4,1.3H539.3z"/>
					<path class="st11" d="M542.5,196.1c0-2.5,1.6-4,3.2-4c0.7,0,1.4,0.3,1.8,0.8l-0.1-1.1v-2.6h2.4v10.7h-2l-0.2-0.7l0,0
						c-0.5,0.5-1.2,0.9-2,0.9C543.7,200.1,542.5,198.6,542.5,196.1z M547.4,197.5v-3c-0.3-0.3-0.8-0.4-1.2-0.4c-0.7,0-1.3,0.6-1.3,2
						s0.5,2.1,1.3,2.1C546.7,198.2,547.2,197.9,547.4,197.5L547.4,197.5z"/>
					<path class="st11" d="M551.5,190c-0.1-0.7,0.5-1.4,1.2-1.4c0.7-0.1,1.4,0.5,1.4,1.2s-0.5,1.4-1.2,1.4c0,0-0.1,0-0.1,0
						c-0.7,0.1-1.3-0.4-1.3-1.1C551.5,190.1,551.5,190,551.5,190z M551.7,192.3h2.3v7.6h-2.4L551.7,192.3z"/>
					<path class="st11" d="M555.5,197.8c0-1.6,1.2-2.5,4.2-2.8c0-0.6-0.4-1-1-1c-0.1,0-0.1,0-0.2,0c-0.7,0-1.4,0.3-2,0.6l-0.8-1.5
						c1-0.6,2.1-1,3.3-1c2,0,3.1,1.1,3.1,3.5v4.3h-1.9l-0.2-0.8h0c-0.6,0.6-1.4,1-2.2,1c-1.2,0.1-2.3-0.9-2.3-2.1
						C555.5,198,555.5,197.9,555.5,197.8z M559.8,197.7v-1.2c-1.5,0.2-2,0.6-2,1.1s0.3,0.7,0.8,0.7C559,198.3,559.5,198,559.8,197.7
						L559.8,197.7z"/>
					<path class="st11" d="M564.2,197.1v-3h-1v-1.8l1.2-0.1l0.3-2.3h2v2.3h1.8v1.9h-1.8v2.9c0,0.9,0.4,1.2,1,1.2
						c0.2,0,0.5,0,0.7-0.1l0.4,1.6c-0.6,0.2-1.1,0.3-1.7,0.3C565,200.1,564.2,198.9,564.2,197.1z"/>
					<path class="st11" d="M569.7,190c-0.1-0.7,0.5-1.4,1.2-1.4c0.7-0.1,1.4,0.5,1.4,1.2s-0.5,1.4-1.2,1.4c0,0-0.1,0-0.1,0
						c-0.7,0.1-1.3-0.4-1.3-1.1C569.7,190.1,569.7,190,569.7,190z M569.9,192.3h2.4v7.6h-2.4V192.3z"/>
					<path class="st11" d="M573.7,196.1c0.1-2.1,1.9-3.6,4-3.5c2.1,0.1,3.6,1.9,3.5,4c-0.1,2-1.8,3.5-3.8,3.5
						c-2.1,0-3.7-1.7-3.7-3.8C573.7,196.3,573.7,196.2,573.7,196.1z M578.7,196.1c0-1.2-0.4-2.1-1.3-2.1s-1.3,0.8-1.3,2.1
						s0.4,2.1,1.3,2.1S578.7,197.4,578.7,196.1L578.7,196.1z"/>
					<path class="st11" d="M582.6,192.3h1.9l0.2,0.9h0.1c0.6-0.7,1.5-1.1,2.4-1.1c1.7,0,2.4,1.2,2.4,3.1v4.7h-2.4v-4.4
						c0-1.1-0.3-1.4-0.9-1.4c-0.5,0-1,0.3-1.3,0.7v5.1h-2.4L582.6,192.3z"/>
					<path class="st11" d="M593.9,197.2c0-1.2,0.7-2.3,1.8-2.8c-0.4-0.6-0.6-1.3-0.6-2.1c0-1.4,1.1-2.6,2.6-2.6c0.1,0,0.1,0,0.2,0
						c1.2-0.1,2.4,0.7,2.5,2c0,0.1,0,0.2,0,0.3c0,1.3-1,2.1-2.1,2.8c0.6,0.6,1.2,1.2,1.9,1.7c0.5-0.7,0.9-1.5,1.1-2.3h2.2
						c-0.4,1.2-0.9,2.3-1.7,3.3c0.5,0.3,1.1,0.5,1.7,0.6l-0.6,1.9c-0.9-0.2-1.8-0.5-2.6-1c-0.9,0.7-2,1-3.2,1
						C595.1,200.1,593.9,198.8,593.9,197.2z M597.6,198.3c0.4,0,0.8-0.1,1.2-0.3c-0.7-0.6-1.4-1.3-2-2c-0.4,0.3-0.6,0.7-0.6,1.1
						C596.2,197.8,596.7,198.3,597.6,198.3L597.6,198.3z M597.4,193.5c0.7-0.4,1.2-0.8,1.2-1.5c0-0.4-0.2-0.7-0.7-0.7
						s-0.9,0.4-0.9,1.1C597.1,192.8,597.2,193.2,597.4,193.5L597.4,193.5z"/>
					<path class="st11" d="M490.3,206.1h2.9c3.1,0,5.1,1.5,5.1,5s-2,5-4.9,5h-3L490.3,206.1z M493,214.2c1.6,0,2.8-0.8,2.8-3.1
						s-1.1-3-2.8-3h-0.3v6.1L493,214.2z"/>
					<path class="st11" d="M499.7,206.2c-0.1-0.7,0.5-1.4,1.2-1.4c0.7-0.1,1.4,0.5,1.4,1.2s-0.5,1.4-1.2,1.4c0,0-0.1,0-0.1,0
						c-0.7,0.1-1.3-0.4-1.3-1.1C499.7,206.3,499.7,206.2,499.7,206.2z M499.9,208.5h2.4v7.6h-2.4V208.5z"/>
					<path class="st11" d="M503.5,215.1l1-1.3c0.6,0.5,1.3,0.7,2,0.7c0.6,0,0.9-0.2,0.9-0.6s-0.6-0.7-1.5-1c-1.1-0.4-2-1.1-2-2.3
						c0-1.4,1.2-2.4,3-2.4c1,0,2,0.4,2.7,1l-1,1.3c-0.5-0.4-1.1-0.5-1.6-0.6c-0.5,0-0.8,0.2-0.8,0.6s0.4,0.6,1.4,0.9
						c1.2,0.4,2.1,1.1,2.1,2.3s-1.1,2.5-3.2,2.5C505.3,216.3,504.3,215.9,503.5,215.1z"/>
					<path class="st11" d="M511,208.5h2l0.2,0.7h0.1c0.6-0.6,1.3-0.9,2.1-0.9c1.8,0,3,1.5,3,3.9c0,2.6-1.5,4.1-3.2,4.1
						c-0.7,0-1.3-0.3-1.8-0.8l0.1,1.2v2.2H511V208.5z M515.8,212.2c0-1.3-0.4-2-1.2-2c-0.5,0-0.9,0.3-1.2,0.6v3
						c0.3,0.3,0.7,0.5,1.2,0.4C515.3,214.3,515.9,213.7,515.8,212.2L515.8,212.2z"/>
					<path class="st11" d="M519.8,213.2v-4.7h2.4v4.4c0,1.1,0.3,1.4,0.9,1.4c0.5,0,1-0.3,1.3-0.8v-5h2.4v7.6h-1.9l-0.2-1h-0.1
						c-0.6,0.8-1.4,1.2-2.4,1.2C520.5,216.3,519.8,215.1,519.8,213.2z"/>
					<path class="st11" d="M529,213.3v-3h-1v-1.8l1.2-0.1l0.3-2.3h2v2.3h1.8v1.9h-1.8v2.9c0,0.9,0.4,1.2,1,1.2c0.2,0,0.5,0,0.7-0.1
						l0.4,1.7c-0.6,0.2-1.1,0.3-1.7,0.3C529.8,216.3,529,215.1,529,213.3z"/>
					<path class="st11" d="M534.1,212.3c-0.1-2.1,1.4-3.9,3.5-4c0,0,0.1,0,0.1,0c2.2,0,3.3,1.6,3.3,3.7c0,0.3,0,0.7-0.1,1h-4.5
						c0.1,0.9,1,1.6,1.9,1.5c0.6,0,1.2-0.1,1.7-0.4l0.8,1.4c-0.8,0.6-1.8,0.9-2.7,0.9c-2.1,0.1-3.8-1.5-3.9-3.5
						C534.1,212.6,534.1,212.4,534.1,212.3z M539,211.4c0-0.8-0.3-1.3-1.2-1.3c-0.7,0-1.4,0.6-1.4,1.3H539z"/>
					<path class="st11" d="M545.8,206.1h3.7c2.1,0,3.9,0.7,3.9,3.1c0.1,1.2-0.6,2.4-1.7,2.9l2.2,4h-2.7l-1.8-3.5h-1.2v3.5h-2.4
						L545.8,206.1z M549.3,210.7c1.1,0,1.8-0.5,1.8-1.4s-0.6-1.3-1.8-1.3h-1.1v2.7H549.3z"/>
					<path class="st11" d="M554.5,212.3c-0.1-2.1,1.4-3.9,3.5-4c0,0,0.1,0,0.1,0c2.2,0,3.3,1.6,3.3,3.7c0,0.3,0,0.7-0.1,1h-4.5
						c0.1,0.9,1,1.6,1.9,1.5c0.6,0,1.1-0.2,1.6-0.5l0.8,1.4c-0.8,0.6-1.8,0.9-2.8,0.9c-2.1,0.1-3.8-1.5-3.9-3.6
						C554.5,212.5,554.5,212.4,554.5,212.3z M559.4,211.4c0-0.8-0.3-1.3-1.2-1.3c-0.7,0-1.3,0.6-1.4,1.3H559.4z"/>
					<path class="st11" d="M562.2,215.1l1-1.3c0.6,0.5,1.3,0.7,2,0.7c0.6,0,0.9-0.2,0.9-0.6s-0.6-0.7-1.5-1c-1.1-0.4-2-1.1-2-2.3
						c0-1.4,1.2-2.4,3-2.4c1,0,2,0.4,2.7,1l-1,1.3c-0.5-0.4-1-0.5-1.6-0.6c-0.6,0-0.8,0.2-0.8,0.6s0.4,0.6,1.4,0.9
						c1.2,0.4,2.1,1.1,2.1,2.3s-1.1,2.5-3.2,2.5C564.1,216.3,563.1,215.9,562.2,215.1z"/>
					<path class="st11" d="M569.3,212.3c0.1-2.1,1.9-3.6,4-3.5c2.1,0.1,3.6,1.9,3.5,4c-0.1,2-1.8,3.5-3.8,3.5
						c-2.1,0-3.7-1.7-3.7-3.8C569.3,212.4,569.3,212.3,569.3,212.3z M574.3,212.3c0-1.3-0.4-2.1-1.3-2.1s-1.3,0.8-1.3,2.1
						s0.4,2.1,1.3,2.1S574.3,213.5,574.3,212.3L574.3,212.3z"/>
					<path class="st11" d="M578.2,213.6v-8.3h2.4v8.4c0,0.5,0.2,0.6,0.4,0.6c0.1,0,0.2,0,0.3,0l0.3,1.8c-0.4,0.1-0.8,0.2-1.2,0.2
						C578.8,216.3,578.2,215.2,578.2,213.6z"/>
					<path class="st11" d="M582.6,213.2v-4.7h2.4v4.4c0,1.1,0.3,1.4,0.9,1.4c0.5,0,1-0.3,1.3-0.8v-5h2.4v7.6h-1.9l-0.2-1h-0.1
						c-0.6,0.8-1.4,1.2-2.4,1.2C583.3,216.3,582.6,215.1,582.6,213.2z"/>
					<path class="st11" d="M591.8,213.3v-3h-1v-1.8l1.2-0.1l0.3-2.3h2v2.3h1.7v1.9h-1.8v2.9c0,0.9,0.4,1.2,1,1.2
						c0.2,0,0.5,0,0.7-0.1l0.4,1.7c-0.6,0.2-1.1,0.3-1.7,0.3C592.6,216.3,591.8,215.1,591.8,213.3z"/>
					<path class="st11" d="M597.3,206.2c-0.1-0.7,0.5-1.4,1.2-1.4c0.7-0.1,1.4,0.5,1.4,1.2s-0.5,1.4-1.2,1.4c0,0-0.1,0-0.1,0
						c-0.7,0.1-1.3-0.4-1.3-1.1C597.3,206.3,597.3,206.2,597.3,206.2z M597.5,208.5h2.4v7.6h-2.4V208.5z"/>
					<path class="st11" d="M601.3,212.3c0.1-2.1,1.9-3.6,4-3.5c2.1,0.1,3.6,1.9,3.5,4c-0.1,2-1.8,3.5-3.7,3.5
						c-2.1,0-3.7-1.7-3.7-3.8C601.3,212.4,601.3,212.4,601.3,212.3z M606.3,212.3c0-1.3-0.4-2.1-1.3-2.1s-1.3,0.8-1.3,2.1
						s0.4,2.1,1.3,2.1S606.3,213.5,606.3,212.3L606.3,212.3z"/>
					<path class="st11" d="M610.2,208.5h1.9l0.2,1h0.1c0.6-0.7,1.5-1.1,2.4-1.1c1.7,0,2.4,1.2,2.4,3.1v4.7h-2.4v-4.4
						c0-1.1-0.3-1.4-0.9-1.4c-0.5,0-1,0.3-1.3,0.7v5.1h-2.4L610.2,208.5z"/>
					<polygon class="st11" points="547.5,179.5 560.6,158.5 558.7,173.3 					"/>
					<polygon class="st57" points="560.6,158.5 537,173.3 547.5,179.5 					"/>
					<polygon class="st58" points="542.2,176 555.8,151.6 547.5,154.7 					"/>
				</g>
			</g>
		</g>
	</g>
</g>
</svg>
